null
1
OK,1,Floor,1,100,100,1,IVE_Artifact,cube,1.0,1.0,1.0,20.0,1.0,0.0,0.0,none,cube,0.0,5.0,1,0,0,1.0,0.0,0.0,1.0,1.0,1.1,15.0,15.0,15.0
null
null
null
null
null
null
null
null
null
null
null
null
null
null
null
null
null
null
null
null
null
null
null
null
null
null
null
null
null
null
null
null
null
null
null
null
null
null
null
null
null
null
Inhabitant,cube,agent_1,28.0, 33.0, 0.0
Inhabitant,cube,agent_1,28.0, 33.0, 0.0
Inhabitant,cube,agent_1,28.0, 33.0, 0.0
Inhabitant,cube,agent_1,28.0, 33.0, 0.0
Inhabitant,cube,agent_1,28.0, 33.0, 0.0
Inhabitant,cube,agent_1,28.0, 33.0, 0.0
Inhabitant,cube,agent_1,28.0, 33.0, 0.0
Inhabitant,cube,agent_1,28.0, 33.0, 0.0
Inhabitant,cube,agent_1,28.0, 33.0, 0.0
Inhabitant,cube,agent_1,28.0, 32.997276, 0.0
Inhabitant,cube,agent_1,28.0, 32.997276, 0.0
Inhabitant,cube,agent_1,28.0, 32.997276, 0.0
Inhabitant,cube,agent_1,28.0, 32.997276, 0.0
Inhabitant,cube,agent_1,28.0, 32.997276, 0.0
Inhabitant,cube,agent_1,28.0, 32.997276, 0.0
Inhabitant,cube,agent_1,28.0, 32.997276, 0.0
Inhabitant,cube,agent_1,28.0, 32.997276, 0.0
Inhabitant,cube,agent_1,28.0, 32.997276, 0.0
Inhabitant,cube,agent_1,28.0, 32.997276, 0.0
Inhabitant,cube,agent_1,28.0, 32.997276, 0.0
Inhabitant,cube,agent_1,28.0, 32.991833, 0.0
Inhabitant,cube,agent_1,28.0, 32.991833, 0.0
Inhabitant,cube,agent_1,28.0, 32.991833, 0.0
Inhabitant,cube,agent_1,28.0, 32.991833, 0.0
Inhabitant,cube,agent_1,28.0, 32.991833, 0.0
Inhabitant,cube,agent_1,28.0, 32.991833, 0.0
Inhabitant,cube,agent_1,28.0, 32.991833, 0.0
Inhabitant,cube,agent_1,28.0, 32.991833, 0.0
Inhabitant,cube,agent_1,28.0, 32.991833, 0.0
Inhabitant,cube,agent_1,28.0, 32.991833, 0.0
Inhabitant,cube,agent_1,28.0, 32.983665, 0.0
Inhabitant,cube,agent_1,28.0, 32.983665, 0.0
Inhabitant,cube,agent_1,28.0, 32.983665, 0.0
Inhabitant,cube,agent_1,28.0, 32.983665, 0.0
Inhabitant,cube,agent_1,28.0, 32.983665, 0.0
Inhabitant,cube,agent_1,28.0, 32.983665, 0.0
Inhabitant,cube,agent_1,28.0, 32.983665, 0.0
Inhabitant,cube,agent_1,28.0, 32.983665, 0.0
Inhabitant,cube,agent_1,28.0, 32.983665, 0.0
Inhabitant,cube,agent_1,28.0, 32.983665, 0.0
Inhabitant,cube,agent_1,28.0, 32.97278, 0.0
Inhabitant,cube,agent_1,28.0, 32.97278, 0.0
Inhabitant,cube,agent_1,28.0, 32.97278, 0.0
Inhabitant,cube,agent_1,28.0, 32.97278, 0.0
Inhabitant,cube,agent_1,28.0, 32.97278, 0.0
Inhabitant,cube,agent_1,28.0, 32.97278, 0.0
Inhabitant,cube,agent_1,28.0, 32.97278, 0.0
Inhabitant,cube,agent_1,28.0, 32.97278, 0.0
Inhabitant,cube,agent_1,28.0, 32.97278, 0.0
Inhabitant,cube,agent_1,28.0, 32.97278, 0.0
Inhabitant,cube,agent_1,28.0, 32.97278, 0.0
Inhabitant,cube,agent_1,28.0, 32.959167, 0.0
Inhabitant,cube,agent_1,28.0, 32.959167, 0.0
Inhabitant,cube,agent_1,28.0, 32.959167, 0.0
Inhabitant,cube,agent_1,28.0, 32.959167, 0.0
Inhabitant,cube,agent_1,28.0, 32.959167, 0.0
Inhabitant,cube,agent_1,28.0, 32.959167, 0.0
Inhabitant,cube,agent_1,28.0, 32.959167, 0.0
Inhabitant,cube,agent_1,28.0, 32.959167, 0.0
Inhabitant,cube,agent_1,28.0, 32.959167, 0.0
Inhabitant,cube,agent_1,28.0, 32.959167, 0.0
Inhabitant,cube,agent_1,28.0, 32.942833, 0.0
Inhabitant,cube,agent_1,28.0, 32.942833, 0.0
Inhabitant,cube,agent_1,28.0, 32.942833, 0.0
Inhabitant,cube,agent_1,28.0, 32.942833, 0.0
Inhabitant,cube,agent_1,28.0, 32.942833, 0.0
Inhabitant,cube,agent_1,28.0, 32.942833, 0.0
Inhabitant,cube,agent_1,28.0, 32.942833, 0.0
Inhabitant,cube,agent_1,28.0, 32.942833, 0.0
Inhabitant,cube,agent_1,28.0, 32.942833, 0.0
Inhabitant,cube,agent_1,28.0, 32.942833, 0.0
Inhabitant,cube,agent_1,28.0, 32.92378, 0.0
Inhabitant,cube,agent_1,28.0, 32.92378, 0.0
Inhabitant,cube,agent_1,28.0, 32.92378, 0.0
Inhabitant,cube,agent_1,28.0, 32.92378, 0.0
Inhabitant,cube,agent_1,28.0, 32.92378, 0.0
Inhabitant,cube,agent_1,28.0, 32.92378, 0.0
Inhabitant,cube,agent_1,28.0, 32.92378, 0.0
Inhabitant,cube,agent_1,28.0, 32.92378, 0.0
Inhabitant,cube,agent_1,28.0, 32.92378, 0.0
Inhabitant,cube,agent_1,28.0, 32.92378, 0.0
Inhabitant,cube,agent_1,28.0, 32.92378, 0.0
Inhabitant,cube,agent_1,28.0, 32.902, 0.0
Inhabitant,cube,agent_1,28.0, 32.902, 0.0
Inhabitant,cube,agent_1,28.0, 32.902, 0.0
Inhabitant,cube,agent_1,28.0, 32.902, 0.0
Inhabitant,cube,agent_1,28.0, 32.902, 0.0
Inhabitant,cube,agent_1,28.0, 32.902, 0.0
Inhabitant,cube,agent_1,28.0, 32.902, 0.0
Inhabitant,cube,agent_1,28.0, 32.902, 0.0
Inhabitant,cube,agent_1,28.0, 32.902, 0.0
Inhabitant,cube,agent_1,28.0, 32.902, 0.0
Inhabitant,cube,agent_1,28.0, 32.8775, 0.0
Inhabitant,cube,agent_1,28.0, 32.8775, 0.0
Inhabitant,cube,agent_1,28.0, 32.8775, 0.0
Inhabitant,cube,agent_1,28.0, 32.8775, 0.0
Inhabitant,cube,agent_1,28.0, 32.8775, 0.0
Inhabitant,cube,agent_1,28.0, 32.8775, 0.0
Inhabitant,cube,agent_1,28.0, 32.8775, 0.0
Inhabitant,cube,agent_1,28.0, 32.8775, 0.0
Inhabitant,cube,agent_1,28.0, 32.8775, 0.0
Inhabitant,cube,agent_1,28.0, 32.8775, 0.0
Inhabitant,cube,agent_1,28.0, 32.850277, 0.0
Inhabitant,cube,agent_1,28.0, 32.850277, 0.0
Inhabitant,cube,agent_1,28.0, 32.850277, 0.0
Inhabitant,cube,agent_1,28.0, 32.850277, 0.0
Inhabitant,cube,agent_1,28.0, 32.850277, 0.0
Inhabitant,cube,agent_1,28.0, 32.850277, 0.0
Inhabitant,cube,agent_1,28.0, 32.850277, 0.0
Inhabitant,cube,agent_1,28.0, 32.850277, 0.0
Inhabitant,cube,agent_1,28.0, 32.850277, 0.0
Inhabitant,cube,agent_1,28.0, 32.850277, 0.0
Inhabitant,cube,agent_1,28.0, 32.850277, 0.0
Inhabitant,cube,agent_1,28.0, 32.82033, 0.0
Inhabitant,cube,agent_1,28.0, 32.82033, 0.0
Inhabitant,cube,agent_1,28.0, 32.82033, 0.0
Inhabitant,cube,agent_1,28.0, 32.82033, 0.0
Inhabitant,cube,agent_1,28.0, 32.82033, 0.0
Inhabitant,cube,agent_1,28.0, 32.82033, 0.0
Inhabitant,cube,agent_1,28.0, 32.82033, 0.0
Inhabitant,cube,agent_1,28.0, 32.82033, 0.0
Inhabitant,cube,agent_1,28.0, 32.82033, 0.0
Inhabitant,cube,agent_1,28.0, 32.82033, 0.0
Inhabitant,cube,agent_1,28.0, 32.787666, 0.0
Inhabitant,cube,agent_1,28.0, 32.787666, 0.0
Inhabitant,cube,agent_1,28.0, 32.787666, 0.0
Inhabitant,cube,agent_1,28.0, 32.787666, 0.0
Inhabitant,cube,agent_1,28.0, 32.787666, 0.0
Inhabitant,cube,agent_1,28.0, 32.787666, 0.0
Inhabitant,cube,agent_1,28.0, 32.787666, 0.0
Inhabitant,cube,agent_1,28.0, 32.787666, 0.0
Inhabitant,cube,agent_1,28.0, 32.787666, 0.0
Inhabitant,cube,agent_1,28.0, 32.787666, 0.0
Inhabitant,cube,agent_1,28.0, 32.752277, 0.0
Inhabitant,cube,agent_1,28.0, 32.752277, 0.0
Inhabitant,cube,agent_1,28.0, 32.752277, 0.0
Inhabitant,cube,agent_1,28.0, 32.752277, 0.0
Inhabitant,cube,agent_1,28.0, 32.752277, 0.0
Inhabitant,cube,agent_1,28.0, 32.752277, 0.0
Inhabitant,cube,agent_1,28.0, 32.752277, 0.0
Inhabitant,cube,agent_1,28.0, 32.752277, 0.0
Inhabitant,cube,agent_1,28.0, 32.752277, 0.0
Inhabitant,cube,agent_1,28.0, 32.752277, 0.0
Inhabitant,cube,agent_1,28.0, 32.752277, 0.0
Inhabitant,cube,agent_1,28.0, 32.714165, 0.0
Inhabitant,cube,agent_1,28.0, 32.714165, 0.0
Inhabitant,cube,agent_1,28.0, 32.714165, 0.0
Inhabitant,cube,agent_1,28.0, 32.714165, 0.0
Inhabitant,cube,agent_1,28.0, 32.714165, 0.0
Inhabitant,cube,agent_1,28.0, 32.714165, 0.0
Inhabitant,cube,agent_1,28.0, 32.714165, 0.0
Inhabitant,cube,agent_1,28.0, 32.714165, 0.0
Inhabitant,cube,agent_1,28.0, 32.714165, 0.0
Inhabitant,cube,agent_1,28.0, 32.714165, 0.0
Inhabitant,cube,agent_1,28.0, 32.673332, 0.0
Inhabitant,cube,agent_1,28.0, 32.673332, 0.0
Inhabitant,cube,agent_1,28.0, 32.673332, 0.0
Inhabitant,cube,agent_1,28.0, 32.673332, 0.0
Inhabitant,cube,agent_1,28.0, 32.673332, 0.0
Inhabitant,cube,agent_1,28.0, 32.673332, 0.0
Inhabitant,cube,agent_1,28.0, 32.673332, 0.0
Inhabitant,cube,agent_1,28.0, 32.673332, 0.0
Inhabitant,cube,agent_1,28.0, 32.673332, 0.0
Inhabitant,cube,agent_1,28.0, 32.673332, 0.0
Inhabitant,cube,agent_1,28.0, 32.673332, 0.0
Inhabitant,cube,agent_1,28.0, 32.629776, 0.0
Inhabitant,cube,agent_1,28.0, 32.629776, 0.0
Inhabitant,cube,agent_1,28.0, 32.629776, 0.0
Inhabitant,cube,agent_1,28.0, 32.629776, 0.0
Inhabitant,cube,agent_1,28.0, 32.629776, 0.0
Inhabitant,cube,agent_1,28.0, 32.629776, 0.0
Inhabitant,cube,agent_1,28.0, 32.629776, 0.0
Inhabitant,cube,agent_1,28.0, 32.629776, 0.0
Inhabitant,cube,agent_1,28.0, 32.629776, 0.0
Inhabitant,cube,agent_1,28.0, 32.629776, 0.0
Inhabitant,cube,agent_1,28.0, 32.5835, 0.0
Inhabitant,cube,agent_1,28.0, 32.5835, 0.0
Inhabitant,cube,agent_1,28.0, 32.5835, 0.0
Inhabitant,cube,agent_1,28.0, 32.5835, 0.0
Inhabitant,cube,agent_1,28.0, 32.5835, 0.0
Inhabitant,cube,agent_1,28.0, 32.5835, 0.0
Inhabitant,cube,agent_1,28.0, 32.5835, 0.0
Inhabitant,cube,agent_1,28.0, 32.5835, 0.0
Inhabitant,cube,agent_1,28.0, 32.5835, 0.0
Inhabitant,cube,agent_1,28.0, 32.5835, 0.0
Inhabitant,cube,agent_1,28.0, 32.5345, 0.0
Inhabitant,cube,agent_1,28.0, 32.5345, 0.0
Inhabitant,cube,agent_1,28.0, 32.5345, 0.0
Inhabitant,cube,agent_1,28.0, 32.5345, 0.0
Inhabitant,cube,agent_1,28.0, 32.5345, 0.0
Inhabitant,cube,agent_1,28.0, 32.5345, 0.0
Inhabitant,cube,agent_1,28.0, 32.5345, 0.0
Inhabitant,cube,agent_1,28.0, 32.5345, 0.0
Inhabitant,cube,agent_1,28.0, 32.5345, 0.0
Inhabitant,cube,agent_1,28.0, 32.5345, 0.0
Inhabitant,cube,agent_1,28.0, 32.482777, 0.0
Inhabitant,cube,agent_1,28.0, 32.482777, 0.0
Inhabitant,cube,agent_1,28.0, 32.482777, 0.0
Inhabitant,cube,agent_1,28.0, 32.482777, 0.0
Inhabitant,cube,agent_1,28.0, 32.482777, 0.0
Inhabitant,cube,agent_1,28.0, 32.482777, 0.0
Inhabitant,cube,agent_1,28.0, 32.482777, 0.0
Inhabitant,cube,agent_1,28.0, 32.482777, 0.0
Inhabitant,cube,agent_1,28.0, 32.482777, 0.0
Inhabitant,cube,agent_1,28.0, 32.482777, 0.0
Inhabitant,cube,agent_1,28.0, 32.482777, 0.0
Inhabitant,cube,agent_1,28.0, 32.428333, 0.0
Inhabitant,cube,agent_1,28.0, 32.428333, 0.0
Inhabitant,cube,agent_1,28.0, 32.428333, 0.0
Inhabitant,cube,agent_1,28.0, 32.428333, 0.0
Inhabitant,cube,agent_1,28.0, 32.428333, 0.0
Inhabitant,cube,agent_1,28.0, 32.428333, 0.0
Inhabitant,cube,agent_1,28.0, 32.428333, 0.0
Inhabitant,cube,agent_1,28.0, 32.428333, 0.0
Inhabitant,cube,agent_1,28.0, 32.428333, 0.0
Inhabitant,cube,agent_1,28.0, 32.428333, 0.0
Inhabitant,cube,agent_1,28.0, 32.371166, 0.0
Inhabitant,cube,agent_1,28.0, 32.371166, 0.0
Inhabitant,cube,agent_1,28.0, 32.371166, 0.0
Inhabitant,cube,agent_1,28.0, 32.371166, 0.0
Inhabitant,cube,agent_1,28.0, 32.371166, 0.0
Inhabitant,cube,agent_1,28.0, 32.371166, 0.0
Inhabitant,cube,agent_1,28.0, 32.371166, 0.0
Inhabitant,cube,agent_1,28.0, 32.371166, 0.0
Inhabitant,cube,agent_1,28.0, 32.371166, 0.0
Inhabitant,cube,agent_1,28.0, 32.371166, 0.0
Inhabitant,cube,agent_1,28.0, 32.311275, 0.0
Inhabitant,cube,agent_1,28.0, 32.311275, 0.0
Inhabitant,cube,agent_1,28.0, 32.311275, 0.0
Inhabitant,cube,agent_1,28.0, 32.311275, 0.0
Inhabitant,cube,agent_1,28.0, 32.311275, 0.0
Inhabitant,cube,agent_1,28.0, 32.311275, 0.0
Inhabitant,cube,agent_1,28.0, 32.311275, 0.0
Inhabitant,cube,agent_1,28.0, 32.311275, 0.0
Inhabitant,cube,agent_1,28.0, 32.311275, 0.0
Inhabitant,cube,agent_1,28.0, 32.311275, 0.0
Inhabitant,cube,agent_1,28.0, 32.311275, 0.0
Inhabitant,cube,agent_1,28.0, 32.248665, 0.0
Inhabitant,cube,agent_1,28.0, 32.248665, 0.0
Inhabitant,cube,agent_1,28.0, 32.248665, 0.0
Inhabitant,cube,agent_1,28.0, 32.248665, 0.0
Inhabitant,cube,agent_1,28.0, 32.248665, 0.0
Inhabitant,cube,agent_1,28.0, 32.248665, 0.0
Inhabitant,cube,agent_1,28.0, 32.248665, 0.0
Inhabitant,cube,agent_1,28.0, 32.248665, 0.0
Inhabitant,cube,agent_1,28.0, 32.248665, 0.0
Inhabitant,cube,agent_1,28.0, 32.248665, 0.0
Inhabitant,cube,agent_1,28.0, 32.18333, 0.0
Inhabitant,cube,agent_1,28.0, 32.18333, 0.0
Inhabitant,cube,agent_1,28.0, 32.18333, 0.0
Inhabitant,cube,agent_1,28.0, 32.18333, 0.0
Inhabitant,cube,agent_1,28.0, 32.18333, 0.0
Inhabitant,cube,agent_1,28.0, 32.18333, 0.0
Inhabitant,cube,agent_1,28.0, 32.18333, 0.0
Inhabitant,cube,agent_1,28.0, 32.18333, 0.0
Inhabitant,cube,agent_1,28.0, 32.18333, 0.0
Inhabitant,cube,agent_1,28.0, 32.18333, 0.0
Inhabitant,cube,agent_1,28.0, 32.18333, 0.0
Inhabitant,cube,agent_1,28.0, 32.115276, 0.0
Inhabitant,cube,agent_1,28.0, 32.115276, 0.0
Inhabitant,cube,agent_1,28.0, 32.115276, 0.0
Inhabitant,cube,agent_1,28.0, 32.115276, 0.0
Inhabitant,cube,agent_1,28.0, 32.115276, 0.0
Inhabitant,cube,agent_1,28.0, 32.115276, 0.0
Inhabitant,cube,agent_1,28.0, 32.115276, 0.0
Inhabitant,cube,agent_1,28.0, 32.115276, 0.0
Inhabitant,cube,agent_1,28.0, 32.115276, 0.0
Inhabitant,cube,agent_1,28.0, 32.115276, 0.0
Inhabitant,cube,agent_1,28.0, 32.0445, 0.0
Inhabitant,cube,agent_1,28.0, 32.0445, 0.0
Inhabitant,cube,agent_1,28.0, 32.0445, 0.0
Inhabitant,cube,agent_1,28.0, 32.0445, 0.0
Inhabitant,cube,agent_1,28.0, 32.0445, 0.0
Inhabitant,cube,agent_1,28.0, 32.0445, 0.0
Inhabitant,cube,agent_1,28.0, 32.0445, 0.0
Inhabitant,cube,agent_1,28.0, 32.0445, 0.0
Inhabitant,cube,agent_1,28.0, 32.0445, 0.0
Inhabitant,cube,agent_1,28.0, 32.0445, 0.0
Inhabitant,cube,agent_1,28.0, 31.970999, 0.0
Inhabitant,cube,agent_1,28.0, 31.970999, 0.0
Inhabitant,cube,agent_1,28.0, 31.970999, 0.0
Inhabitant,cube,agent_1,28.0, 31.970999, 0.0
Inhabitant,cube,agent_1,28.0, 31.970999, 0.0
Inhabitant,cube,agent_1,28.0, 31.970999, 0.0
Inhabitant,cube,agent_1,28.0, 31.970999, 0.0
Inhabitant,cube,agent_1,28.0, 31.970999, 0.0
Inhabitant,cube,agent_1,28.0, 31.970999, 0.0
Inhabitant,cube,agent_1,28.0, 31.970999, 0.0
Inhabitant,cube,agent_1,28.0, 31.894777, 0.0
Inhabitant,cube,agent_1,28.0, 31.894777, 0.0
Inhabitant,cube,agent_1,28.0, 31.894777, 0.0
Inhabitant,cube,agent_1,28.0, 31.894777, 0.0
Inhabitant,cube,agent_1,28.0, 31.894777, 0.0
Inhabitant,cube,agent_1,28.0, 31.894777, 0.0
Inhabitant,cube,agent_1,28.0, 31.894777, 0.0
Inhabitant,cube,agent_1,28.0, 31.894777, 0.0
Inhabitant,cube,agent_1,28.0, 31.894777, 0.0
Inhabitant,cube,agent_1,28.0, 31.894777, 0.0
Inhabitant,cube,agent_1,28.0, 31.894777, 0.0
Inhabitant,cube,agent_1,28.0, 31.815832, 0.0
Inhabitant,cube,agent_1,28.0, 31.815832, 0.0
Inhabitant,cube,agent_1,28.0, 31.815832, 0.0
Inhabitant,cube,agent_1,28.0, 31.815832, 0.0
Inhabitant,cube,agent_1,28.0, 31.815832, 0.0
Inhabitant,cube,agent_1,28.0, 31.815832, 0.0
Inhabitant,cube,agent_1,28.0, 31.815832, 0.0
Inhabitant,cube,agent_1,28.0, 31.815832, 0.0
Inhabitant,cube,agent_1,28.0, 31.815832, 0.0
Inhabitant,cube,agent_1,28.0, 31.815832, 0.0
Inhabitant,cube,agent_1,28.0, 31.734165, 0.0
Inhabitant,cube,agent_1,28.0, 31.734165, 0.0
Inhabitant,cube,agent_1,28.0, 31.734165, 0.0
Inhabitant,cube,agent_1,28.0, 31.734165, 0.0
Inhabitant,cube,agent_1,28.0, 31.734165, 0.0
Inhabitant,cube,agent_1,28.0, 31.734165, 0.0
Inhabitant,cube,agent_1,28.0, 31.734165, 0.0
Inhabitant,cube,agent_1,28.0, 31.734165, 0.0
Inhabitant,cube,agent_1,28.0, 31.734165, 0.0
Inhabitant,cube,agent_1,28.0, 31.734165, 0.0
Inhabitant,cube,agent_1,28.0, 31.649776, 0.0
Inhabitant,cube,agent_1,28.0, 31.649776, 0.0
Inhabitant,cube,agent_1,28.0, 31.649776, 0.0
Inhabitant,cube,agent_1,28.0, 31.649776, 0.0
Inhabitant,cube,agent_1,28.0, 31.649776, 0.0
Inhabitant,cube,agent_1,28.0, 31.649776, 0.0
Inhabitant,cube,agent_1,28.0, 31.649776, 0.0
Inhabitant,cube,agent_1,28.0, 31.649776, 0.0
Inhabitant,cube,agent_1,28.0, 31.649776, 0.0
Inhabitant,cube,agent_1,28.0, 31.649776, 0.0
Inhabitant,cube,agent_1,28.0, 31.562666, 0.0
Inhabitant,cube,agent_1,28.0, 31.562666, 0.0
Inhabitant,cube,agent_1,28.0, 31.562666, 0.0
Inhabitant,cube,agent_1,28.0, 31.562666, 0.0
Inhabitant,cube,agent_1,28.0, 31.562666, 0.0
Inhabitant,cube,agent_1,28.0, 31.562666, 0.0
Inhabitant,cube,agent_1,28.0, 31.562666, 0.0
Inhabitant,cube,agent_1,28.0, 31.562666, 0.0
Inhabitant,cube,agent_1,28.0, 31.562666, 0.0
Inhabitant,cube,agent_1,28.0, 31.562666, 0.0
Inhabitant,cube,agent_1,28.0, 31.562666, 0.0
Inhabitant,cube,agent_1,28.0, 31.472832, 0.0
Inhabitant,cube,agent_1,28.0, 31.472832, 0.0
Inhabitant,cube,agent_1,28.0, 31.472832, 0.0
Inhabitant,cube,agent_1,28.0, 31.472832, 0.0
Inhabitant,cube,agent_1,28.0, 31.472832, 0.0
Inhabitant,cube,agent_1,28.0, 31.472832, 0.0
Inhabitant,cube,agent_1,28.0, 31.472832, 0.0
Inhabitant,cube,agent_1,28.0, 31.472832, 0.0
Inhabitant,cube,agent_1,28.0, 31.472832, 0.0
Inhabitant,cube,agent_1,28.0, 31.472832, 0.0
Inhabitant,cube,agent_1,28.0, 31.380276, 0.0
Inhabitant,cube,agent_1,28.0, 31.380276, 0.0
Inhabitant,cube,agent_1,28.0, 31.380276, 0.0
Inhabitant,cube,agent_1,28.0, 31.380276, 0.0
Inhabitant,cube,agent_1,28.0, 31.380276, 0.0
Inhabitant,cube,agent_1,28.0, 31.380276, 0.0
Inhabitant,cube,agent_1,28.0, 31.380276, 0.0
Inhabitant,cube,agent_1,28.0, 31.380276, 0.0
Inhabitant,cube,agent_1,28.0, 31.380276, 0.0
Inhabitant,cube,agent_1,28.0, 31.380276, 0.0
Inhabitant,cube,agent_1,28.0, 31.284998, 0.0
Inhabitant,cube,agent_1,28.0, 31.284998, 0.0
Inhabitant,cube,agent_1,28.0, 31.284998, 0.0
Inhabitant,cube,agent_1,28.0, 31.284998, 0.0
Inhabitant,cube,agent_1,28.0, 31.284998, 0.0
Inhabitant,cube,agent_1,28.0, 31.284998, 0.0
Inhabitant,cube,agent_1,28.0, 31.284998, 0.0
Inhabitant,cube,agent_1,28.0, 31.284998, 0.0
Inhabitant,cube,agent_1,28.0, 31.284998, 0.0
Inhabitant,cube,agent_1,28.0, 31.284998, 0.0
Inhabitant,cube,agent_1,28.0, 31.284998, 0.0
Inhabitant,cube,agent_1,28.0, 31.186998, 0.0
Inhabitant,cube,agent_1,28.0, 31.186998, 0.0
Inhabitant,cube,agent_1,28.0, 31.186998, 0.0
Inhabitant,cube,agent_1,28.0, 31.186998, 0.0
Inhabitant,cube,agent_1,28.0, 31.186998, 0.0
Inhabitant,cube,agent_1,28.0, 31.186998, 0.0
Inhabitant,cube,agent_1,28.0, 31.186998, 0.0
Inhabitant,cube,agent_1,28.0, 31.186998, 0.0
Inhabitant,cube,agent_1,28.0, 31.186998, 0.0
Inhabitant,cube,agent_1,28.0, 31.086277, 0.0
Inhabitant,cube,agent_1,28.0, 31.086277, 0.0
Inhabitant,cube,agent_1,28.0, 31.086277, 0.0
Inhabitant,cube,agent_1,28.0, 31.086277, 0.0
Inhabitant,cube,agent_1,28.0, 31.086277, 0.0
Inhabitant,cube,agent_1,28.0, 31.086277, 0.0
Inhabitant,cube,agent_1,28.0, 31.086277, 0.0
Inhabitant,cube,agent_1,28.0, 31.086277, 0.0
Inhabitant,cube,agent_1,28.0, 31.086277, 0.0
Inhabitant,cube,agent_1,28.0, 31.086277, 0.0
Inhabitant,cube,agent_1,28.0, 31.086277, 0.0
Inhabitant,cube,agent_1,28.0, 30.982832, 0.0
Inhabitant,cube,agent_1,28.0, 30.982832, 0.0
Inhabitant,cube,agent_1,28.0, 30.982832, 0.0
Inhabitant,cube,agent_1,28.0, 30.982832, 0.0
Inhabitant,cube,agent_1,28.0, 30.982832, 0.0
Inhabitant,cube,agent_1,28.0, 30.982832, 0.0
Inhabitant,cube,agent_1,28.0, 30.982832, 0.0
Inhabitant,cube,agent_1,28.0, 30.982832, 0.0
Inhabitant,cube,agent_1,28.0, 30.982832, 0.0
Inhabitant,cube,agent_1,28.0, 30.982832, 0.0
Inhabitant,cube,agent_1,28.0, 30.876665, 0.0
Inhabitant,cube,agent_1,28.0, 30.876665, 0.0
Inhabitant,cube,agent_1,28.0, 30.876665, 0.0
Inhabitant,cube,agent_1,28.0, 30.876665, 0.0
Inhabitant,cube,agent_1,28.0, 30.876665, 0.0
Inhabitant,cube,agent_1,28.0, 30.876665, 0.0
Inhabitant,cube,agent_1,28.0, 30.876665, 0.0
Inhabitant,cube,agent_1,28.0, 30.876665, 0.0
Inhabitant,cube,agent_1,28.0, 30.876665, 0.0
Inhabitant,cube,agent_1,28.0, 30.876665, 0.0
Inhabitant,cube,agent_1,28.0, 30.767776, 0.0
Inhabitant,cube,agent_1,28.0, 30.767776, 0.0
Inhabitant,cube,agent_1,28.0, 30.767776, 0.0
Inhabitant,cube,agent_1,28.0, 30.767776, 0.0
Inhabitant,cube,agent_1,28.0, 30.767776, 0.0
Inhabitant,cube,agent_1,28.0, 30.767776, 0.0
Inhabitant,cube,agent_1,28.0, 30.767776, 0.0
Inhabitant,cube,agent_1,28.0, 30.767776, 0.0
Inhabitant,cube,agent_1,28.0, 30.767776, 0.0
Inhabitant,cube,agent_1,28.0, 30.767776, 0.0
Inhabitant,cube,agent_1,28.0, 30.767776, 0.0
Inhabitant,cube,agent_1,28.0, 30.656166, 0.0
Inhabitant,cube,agent_1,28.0, 30.656166, 0.0
Inhabitant,cube,agent_1,28.0, 30.656166, 0.0
Inhabitant,cube,agent_1,28.0, 30.656166, 0.0
Inhabitant,cube,agent_1,28.0, 30.656166, 0.0
Inhabitant,cube,agent_1,28.0, 30.656166, 0.0
Inhabitant,cube,agent_1,28.0, 30.656166, 0.0
Inhabitant,cube,agent_1,28.0, 30.656166, 0.0
Inhabitant,cube,agent_1,28.0, 30.656166, 0.0
Inhabitant,cube,agent_1,28.0, 30.656166, 0.0
Inhabitant,cube,agent_1,28.0, 30.541832, 0.0
Inhabitant,cube,agent_1,28.0, 30.541832, 0.0
Inhabitant,cube,agent_1,28.0, 30.541832, 0.0
Inhabitant,cube,agent_1,28.0, 30.541832, 0.0
Inhabitant,cube,agent_1,28.0, 30.541832, 0.0
Inhabitant,cube,agent_1,28.0, 30.541832, 0.0
Inhabitant,cube,agent_1,28.0, 30.541832, 0.0
Inhabitant,cube,agent_1,28.0, 30.541832, 0.0
Inhabitant,cube,agent_1,28.0, 30.541832, 0.0
Inhabitant,cube,agent_1,28.0, 30.541832, 0.0
Inhabitant,cube,agent_1,28.0, 30.424776, 0.0
Inhabitant,cube,agent_1,28.0, 30.424776, 0.0
Inhabitant,cube,agent_1,28.0, 30.424776, 0.0
Inhabitant,cube,agent_1,28.0, 30.424776, 0.0
Inhabitant,cube,agent_1,28.0, 30.424776, 0.0
Inhabitant,cube,agent_1,28.0, 30.424776, 0.0
Inhabitant,cube,agent_1,28.0, 30.424776, 0.0
Inhabitant,cube,agent_1,28.0, 30.424776, 0.0
Inhabitant,cube,agent_1,28.0, 30.424776, 0.0
Inhabitant,cube,agent_1,28.0, 30.424776, 0.0
Inhabitant,cube,agent_1,28.0, 30.424776, 0.0
Inhabitant,cube,agent_1,28.0, 30.304998, 0.0
Inhabitant,cube,agent_1,28.0, 30.304998, 0.0
Inhabitant,cube,agent_1,28.0, 30.304998, 0.0
Inhabitant,cube,agent_1,28.0, 30.304998, 0.0
Inhabitant,cube,agent_1,28.0, 30.304998, 0.0
Inhabitant,cube,agent_1,28.0, 30.304998, 0.0
Inhabitant,cube,agent_1,28.0, 30.304998, 0.0
Inhabitant,cube,agent_1,28.0, 30.304998, 0.0
Inhabitant,cube,agent_1,28.0, 30.304998, 0.0
Inhabitant,cube,agent_1,28.0, 30.304998, 0.0
Inhabitant,cube,agent_1,28.0, 30.182499, 0.0
Inhabitant,cube,agent_1,28.0, 30.182499, 0.0
Inhabitant,cube,agent_1,28.0, 30.182499, 0.0
Inhabitant,cube,agent_1,28.0, 30.182499, 0.0
Inhabitant,cube,agent_1,28.0, 30.182499, 0.0
Inhabitant,cube,agent_1,28.0, 30.182499, 0.0
Inhabitant,cube,agent_1,28.0, 30.182499, 0.0
Inhabitant,cube,agent_1,28.0, 30.182499, 0.0
Inhabitant,cube,agent_1,28.0, 30.182499, 0.0
Inhabitant,cube,agent_1,28.0, 30.182499, 0.0
Inhabitant,cube,agent_1,28.0, 30.057276, 0.0
Inhabitant,cube,agent_1,28.0, 30.057276, 0.0
Inhabitant,cube,agent_1,28.0, 30.057276, 0.0
Inhabitant,cube,agent_1,28.0, 30.057276, 0.0
Inhabitant,cube,agent_1,28.0, 30.057276, 0.0
Inhabitant,cube,agent_1,28.0, 30.057276, 0.0
Inhabitant,cube,agent_1,28.0, 30.057276, 0.0
Inhabitant,cube,agent_1,28.0, 30.057276, 0.0
Inhabitant,cube,agent_1,28.0, 30.057276, 0.0
Inhabitant,cube,agent_1,28.0, 30.057276, 0.0
Inhabitant,cube,agent_1,28.0, 30.057276, 0.0
Inhabitant,cube,agent_1,28.0, 29.92933, 0.0
Inhabitant,cube,agent_1,28.0, 29.92933, 0.0
Inhabitant,cube,agent_1,28.0, 29.92933, 0.0
Inhabitant,cube,agent_1,28.0, 29.92933, 0.0
Inhabitant,cube,agent_1,28.0, 29.92933, 0.0
