null
1
OK,1,Floor,1,100,100,1,IVE_Artifact,cube,1.0,1.0,1.0,20.0,1.0,0.0,0.0,none,cube,0.0,5.0,1,0,0,1.0,0.0,0.0,1.0,1.0,1.1,15.0,15.0,15.0
null
null
null
null
null
null
null
null
null
null
null
null
null
null
null
null
null
null
null
null
null
null
null
null
null
null
null
null
null
null
null
null
null
null
null
null
null
null
null
null
null
null
null
null
null
null
null
null
null
null
null
null
null
null
null
null
null
null
null
null
null
null
null
null
null
null
Inhabitant,cube,agent_1,28.0, 33.0, 0.0
Inhabitant,cube,agent_1,28.0, 33.0, 0.0
Inhabitant,cube,agent_1,28.0, 33.0, 0.0
Inhabitant,cube,agent_1,28.0, 33.0, 0.0
Inhabitant,cube,agent_1,28.0, 32.997276, 0.0
Inhabitant,cube,agent_1,28.0, 32.997276, 0.0
Inhabitant,cube,agent_1,28.0, 32.997276, 0.0
Inhabitant,cube,agent_1,28.0, 32.991833, 0.0
Inhabitant,cube,agent_1,28.0, 32.991833, 0.0
Inhabitant,cube,agent_1,28.0, 32.991833, 0.0
Inhabitant,cube,agent_1,28.0, 32.991833, 0.0
Inhabitant,cube,agent_1,28.0, 32.991833, 0.0
Inhabitant,cube,agent_1,28.0, 32.991833, 0.0
Inhabitant,cube,agent_1,28.0, 32.983665, 0.0
Inhabitant,cube,agent_1,28.0, 32.983665, 0.0
Inhabitant,cube,agent_1,28.0, 32.983665, 0.0
Inhabitant,cube,agent_1,28.0, 32.983665, 0.0
Inhabitant,cube,agent_1,28.0, 32.97278, 0.0
Inhabitant,cube,agent_1,28.0, 32.97278, 0.0
Inhabitant,cube,agent_1,28.0, 32.97278, 0.0
Inhabitant,cube,agent_1,28.0, 32.97278, 0.0
Inhabitant,cube,agent_1,28.0, 32.97278, 0.0
Inhabitant,cube,agent_1,28.0, 32.97278, 0.0
Inhabitant,cube,agent_1,28.0, 32.959167, 0.0
Inhabitant,cube,agent_1,28.0, 32.959167, 0.0
Inhabitant,cube,agent_1,28.0, 32.959167, 0.0
Inhabitant,cube,agent_1,28.0, 32.959167, 0.0
Inhabitant,cube,agent_1,28.0, 32.959167, 0.0
Inhabitant,cube,agent_1,28.0, 32.959167, 0.0
Inhabitant,cube,agent_1,28.0, 32.959167, 0.0
Inhabitant,cube,agent_1,28.0, 32.959167, 0.0
Inhabitant,cube,agent_1,28.0, 32.942833, 0.0
Inhabitant,cube,agent_1,28.0, 32.942833, 0.0
Inhabitant,cube,agent_1,28.0, 32.942833, 0.0
Inhabitant,cube,agent_1,28.0, 32.92378, 0.0
Inhabitant,cube,agent_1,28.0, 32.92378, 0.0
Inhabitant,cube,agent_1,28.0, 32.92378, 0.0
Inhabitant,cube,agent_1,28.0, 32.92378, 0.0
Inhabitant,cube,agent_1,28.0, 32.92378, 0.0
Inhabitant,cube,agent_1,28.0, 32.902, 0.0
Inhabitant,cube,agent_1,28.0, 32.902, 0.0
Inhabitant,cube,agent_1,28.0, 32.902, 0.0
Inhabitant,cube,agent_1,28.0, 32.8775, 0.0
Inhabitant,cube,agent_1,28.0, 32.8775, 0.0
Inhabitant,cube,agent_1,28.0, 32.8775, 0.0
Inhabitant,cube,agent_1,28.0, 32.8775, 0.0
Inhabitant,cube,agent_1,28.0, 32.8775, 0.0
Inhabitant,cube,agent_1,28.0, 32.8775, 0.0
Inhabitant,cube,agent_1,28.0, 32.8775, 0.0
Inhabitant,cube,agent_1,28.0, 32.850277, 0.0
Inhabitant,cube,agent_1,28.0, 32.850277, 0.0
Inhabitant,cube,agent_1,28.0, 32.850277, 0.0
Inhabitant,cube,agent_1,28.0, 32.850277, 0.0
Inhabitant,cube,agent_1,28.0, 32.850277, 0.0
Inhabitant,cube,agent_1,28.0, 32.82033, 0.0
Inhabitant,cube,agent_1,28.0, 32.82033, 0.0
Inhabitant,cube,agent_1,28.0, 32.82033, 0.0
Inhabitant,cube,agent_1,28.0, 32.82033, 0.0
Inhabitant,cube,agent_1,28.0, 32.82033, 0.0
Inhabitant,cube,agent_1,28.0, 32.82033, 0.0
Inhabitant,cube,agent_1,28.0, 32.787666, 0.0
Inhabitant,cube,agent_1,28.0, 32.787666, 0.0
Inhabitant,cube,agent_1,28.0, 32.787666, 0.0
Inhabitant,cube,agent_1,28.0, 32.787666, 0.0
Inhabitant,cube,agent_1,28.0, 32.787666, 0.0
Inhabitant,cube,agent_1,28.0, 32.752277, 0.0
Inhabitant,cube,agent_1,28.0, 32.752277, 0.0
Inhabitant,cube,agent_1,28.0, 32.752277, 0.0
Inhabitant,cube,agent_1,28.0, 32.752277, 0.0
Inhabitant,cube,agent_1,28.0, 32.752277, 0.0
Inhabitant,cube,agent_1,28.0, 32.714165, 0.0
Inhabitant,cube,agent_1,28.0, 32.714165, 0.0
Inhabitant,cube,agent_1,28.0, 32.714165, 0.0
Inhabitant,cube,agent_1,28.0, 32.714165, 0.0
Inhabitant,cube,agent_1,28.0, 32.673332, 0.0
Inhabitant,cube,agent_1,28.0, 32.673332, 0.0
Inhabitant,cube,agent_1,28.0, 32.673332, 0.0
Inhabitant,cube,agent_1,28.0, 32.673332, 0.0
Inhabitant,cube,agent_1,28.0, 32.673332, 0.0
Inhabitant,cube,agent_1,28.0, 32.629776, 0.0
Inhabitant,cube,agent_1,28.0, 32.629776, 0.0
Inhabitant,cube,agent_1,28.0, 32.629776, 0.0
Inhabitant,cube,agent_1,28.0, 32.629776, 0.0
Inhabitant,cube,agent_1,28.0, 32.629776, 0.0
Inhabitant,cube,agent_1,28.0, 32.5835, 0.0
Inhabitant,cube,agent_1,28.0, 32.5835, 0.0
Inhabitant,cube,agent_1,28.0, 32.5835, 0.0
Inhabitant,cube,agent_1,28.0, 32.5835, 0.0
Inhabitant,cube,agent_1,28.0, 32.5835, 0.0
Inhabitant,cube,agent_1,28.0, 32.5835, 0.0
Inhabitant,cube,agent_1,28.0, 32.5345, 0.0
Inhabitant,cube,agent_1,28.0, 32.5345, 0.0
Inhabitant,cube,agent_1,28.0, 32.5345, 0.0
Inhabitant,cube,agent_1,28.0, 32.5345, 0.0
Inhabitant,cube,agent_1,28.0, 32.5345, 0.0
Inhabitant,cube,agent_1,28.0, 32.5345, 0.0
Inhabitant,cube,agent_1,28.0, 32.5345, 0.0
Inhabitant,cube,agent_1,28.0, 32.482777, 0.0
Inhabitant,cube,agent_1,28.0, 32.482777, 0.0
Inhabitant,cube,agent_1,28.0, 32.482777, 0.0
Inhabitant,cube,agent_1,28.0, 32.482777, 0.0
Inhabitant,cube,agent_1,28.0, 32.428333, 0.0
Inhabitant,cube,agent_1,28.0, 32.428333, 0.0
Inhabitant,cube,agent_1,28.0, 32.428333, 0.0
Inhabitant,cube,agent_1,28.0, 32.371166, 0.0
Inhabitant,cube,agent_1,28.0, 32.371166, 0.0
Inhabitant,cube,agent_1,28.0, 32.371166, 0.0
Inhabitant,cube,agent_1,28.0, 32.311275, 0.0
Inhabitant,cube,agent_1,28.0, 32.311275, 0.0
Inhabitant,cube,agent_1,28.0, 32.311275, 0.0
Inhabitant,cube,agent_1,28.0, 32.311275, 0.0
Inhabitant,cube,agent_1,28.0, 32.311275, 0.0
Inhabitant,cube,agent_1,28.0, 32.248665, 0.0
Inhabitant,cube,agent_1,28.0, 32.248665, 0.0
Inhabitant,cube,agent_1,28.0, 32.248665, 0.0
Inhabitant,cube,agent_1,28.0, 32.248665, 0.0
Inhabitant,cube,agent_1,28.0, 32.248665, 0.0
Inhabitant,cube,agent_1,28.0, 32.18333, 0.0
Inhabitant,cube,agent_1,28.0, 32.18333, 0.0
Inhabitant,cube,agent_1,28.0, 32.18333, 0.0
Inhabitant,cube,agent_1,28.0, 32.18333, 0.0
Inhabitant,cube,agent_1,28.0, 32.18333, 0.0
Inhabitant,cube,agent_1,28.0, 32.18333, 0.0
Inhabitant,cube,agent_1,28.0, 32.115276, 0.0
Inhabitant,cube,agent_1,28.0, 32.115276, 0.0
Inhabitant,cube,agent_1,28.0, 32.115276, 0.0
Inhabitant,cube,agent_1,28.0, 32.115276, 0.0
Inhabitant,cube,agent_1,28.0, 32.115276, 0.0
Inhabitant,cube,agent_1,28.0, 32.115276, 0.0
Inhabitant,cube,agent_1,28.0, 32.0445, 0.0
Inhabitant,cube,agent_1,28.0, 32.0445, 0.0
Inhabitant,cube,agent_1,28.0, 32.0445, 0.0
Inhabitant,cube,agent_1,28.0, 32.0445, 0.0
Inhabitant,cube,agent_1,28.0, 32.0445, 0.0
Inhabitant,cube,agent_1,28.0, 32.0445, 0.0
Inhabitant,cube,agent_1,28.0, 32.0445, 0.0
Inhabitant,cube,agent_1,28.0, 31.970999, 0.0
Inhabitant,cube,agent_1,28.0, 31.970999, 0.0
Inhabitant,cube,agent_1,28.0, 31.970999, 0.0
Inhabitant,cube,agent_1,28.0, 31.970999, 0.0
Inhabitant,cube,agent_1,28.0, 31.970999, 0.0
Inhabitant,cube,agent_1,28.0, 31.894777, 0.0
Inhabitant,cube,agent_1,28.0, 31.894777, 0.0
Inhabitant,cube,agent_1,28.0, 31.894777, 0.0
Inhabitant,cube,agent_1,28.0, 31.894777, 0.0
Inhabitant,cube,agent_1,28.0, 31.894777, 0.0
Inhabitant,cube,agent_1,28.0, 31.894777, 0.0
Inhabitant,cube,agent_1,28.0, 31.815832, 0.0
Inhabitant,cube,agent_1,28.0, 31.815832, 0.0
Inhabitant,cube,agent_1,28.0, 31.815832, 0.0
Inhabitant,cube,agent_1,28.0, 31.815832, 0.0
Inhabitant,cube,agent_1,28.0, 31.815832, 0.0
Inhabitant,cube,agent_1,28.0, 31.734165, 0.0
Inhabitant,cube,agent_1,28.0, 31.734165, 0.0
Inhabitant,cube,agent_1,28.0, 31.734165, 0.0
Inhabitant,cube,agent_1,28.0, 31.734165, 0.0
Inhabitant,cube,agent_1,28.0, 31.734165, 0.0
Inhabitant,cube,agent_1,28.0, 31.734165, 0.0
Inhabitant,cube,agent_1,28.0, 31.734165, 0.0
Inhabitant,cube,agent_1,28.0, 31.649776, 0.0
Inhabitant,cube,agent_1,28.0, 31.649776, 0.0
Inhabitant,cube,agent_1,28.0, 31.649776, 0.0
Inhabitant,cube,agent_1,28.0, 31.649776, 0.0
Inhabitant,cube,agent_1,28.0, 31.649776, 0.0
Inhabitant,cube,agent_1,28.0, 31.649776, 0.0
Inhabitant,cube,agent_1,28.0, 31.562666, 0.0
Inhabitant,cube,agent_1,28.0, 31.562666, 0.0
Inhabitant,cube,agent_1,28.0, 31.562666, 0.0
Inhabitant,cube,agent_1,28.0, 31.562666, 0.0
Inhabitant,cube,agent_1,28.0, 31.562666, 0.0
Inhabitant,cube,agent_1,28.0, 31.562666, 0.0
Inhabitant,cube,agent_1,28.0, 31.472832, 0.0
Inhabitant,cube,agent_1,28.0, 31.472832, 0.0
Inhabitant,cube,agent_1,28.0, 31.472832, 0.0
Inhabitant,cube,agent_1,28.0, 31.472832, 0.0
Inhabitant,cube,agent_1,28.0, 31.472832, 0.0
Inhabitant,cube,agent_1,28.0, 31.380276, 0.0
Inhabitant,cube,agent_1,28.0, 31.380276, 0.0
Inhabitant,cube,agent_1,28.0, 31.380276, 0.0
Inhabitant,cube,agent_1,28.0, 31.380276, 0.0
Inhabitant,cube,agent_1,28.0, 31.380276, 0.0
Inhabitant,cube,agent_1,28.0, 31.380276, 0.0
Inhabitant,cube,agent_1,28.0, 31.284998, 0.0
Inhabitant,cube,agent_1,28.0, 31.284998, 0.0
Inhabitant,cube,agent_1,28.0, 31.284998, 0.0
Inhabitant,cube,agent_1,28.0, 31.284998, 0.0
Inhabitant,cube,agent_1,28.0, 31.284998, 0.0
Inhabitant,cube,agent_1,28.0, 31.186998, 0.0
Inhabitant,cube,agent_1,28.0, 31.186998, 0.0
Inhabitant,cube,agent_1,28.0, 31.186998, 0.0
Inhabitant,cube,agent_1,28.0, 31.186998, 0.0
Inhabitant,cube,agent_1,28.0, 31.186998, 0.0
Inhabitant,cube,agent_1,28.0, 31.086277, 0.0
Inhabitant,cube,agent_1,28.0, 31.086277, 0.0
Inhabitant,cube,agent_1,28.0, 31.086277, 0.0
Inhabitant,cube,agent_1,28.0, 31.086277, 0.0
Inhabitant,cube,agent_1,28.0, 30.982832, 0.0
Inhabitant,cube,agent_1,28.0, 30.982832, 0.0
Inhabitant,cube,agent_1,28.0, 30.982832, 0.0
Inhabitant,cube,agent_1,28.0, 30.982832, 0.0
Inhabitant,cube,agent_1,28.0, 30.982832, 0.0
Inhabitant,cube,agent_1,28.0, 30.982832, 0.0
Inhabitant,cube,agent_1,28.0, 30.876665, 0.0
Inhabitant,cube,agent_1,28.0, 30.876665, 0.0
Inhabitant,cube,agent_1,28.0, 30.876665, 0.0
Inhabitant,cube,agent_1,28.0, 30.876665, 0.0
Inhabitant,cube,agent_1,28.0, 30.876665, 0.0
Inhabitant,cube,agent_1,28.0, 30.767776, 0.0
Inhabitant,cube,agent_1,28.0, 30.767776, 0.0
Inhabitant,cube,agent_1,28.0, 30.767776, 0.0
Inhabitant,cube,agent_1,28.0, 30.767776, 0.0
Inhabitant,cube,agent_1,28.0, 30.656166, 0.0
Inhabitant,cube,agent_1,28.0, 30.656166, 0.0
Inhabitant,cube,agent_1,28.0, 30.656166, 0.0
Inhabitant,cube,agent_1,28.0, 30.656166, 0.0
Inhabitant,cube,agent_1,28.0, 30.541832, 0.0
Inhabitant,cube,agent_1,28.0, 30.541832, 0.0
Inhabitant,cube,agent_1,28.0, 30.541832, 0.0
Inhabitant,cube,agent_1,28.0, 30.541832, 0.0
Inhabitant,cube,agent_1,28.0, 30.541832, 0.0
Inhabitant,cube,agent_1,28.0, 30.424776, 0.0
Inhabitant,cube,agent_1,28.0, 30.424776, 0.0
Inhabitant,cube,agent_1,28.0, 30.424776, 0.0
Inhabitant,cube,agent_1,28.0, 30.424776, 0.0
Inhabitant,cube,agent_1,28.0, 30.424776, 0.0
Inhabitant,cube,agent_1,28.0, 30.304998, 0.0
Inhabitant,cube,agent_1,28.0, 30.304998, 0.0
Inhabitant,cube,agent_1,28.0, 30.304998, 0.0
Inhabitant,cube,agent_1,28.0, 30.304998, 0.0
Inhabitant,cube,agent_1,28.0, 30.304998, 0.0
Inhabitant,cube,agent_1,28.0, 30.304998, 0.0
Inhabitant,cube,agent_1,28.0, 30.304998, 0.0
Inhabitant,cube,agent_1,28.0, 30.182499, 0.0
Inhabitant,cube,agent_1,28.0, 30.182499, 0.0
Inhabitant,cube,agent_1,28.0, 30.182499, 0.0
Inhabitant,cube,agent_1,28.0, 30.182499, 0.0
Inhabitant,cube,agent_1,28.0, 30.182499, 0.0
Inhabitant,cube,agent_1,28.0, 30.057276, 0.0
Inhabitant,cube,agent_1,28.0, 30.057276, 0.0
Inhabitant,cube,agent_1,28.0, 30.057276, 0.0
Inhabitant,cube,agent_1,28.0, 30.057276, 0.0
Inhabitant,cube,agent_1,28.0, 29.92933, 0.0
Inhabitant,cube,agent_1,28.0, 29.92933, 0.0
Inhabitant,cube,agent_1,28.0, 29.92933, 0.0
Inhabitant,cube,agent_1,28.0, 29.92933, 0.0
Inhabitant,cube,agent_1,28.0, 29.92933, 0.0
Inhabitant,cube,agent_1,28.0, 29.798664, 0.0
Inhabitant,cube,agent_1,28.0, 29.798664, 0.0
Inhabitant,cube,agent_1,28.0, 29.798664, 0.0
Inhabitant,cube,agent_1,28.0, 29.798664, 0.0
Inhabitant,cube,agent_1,28.0, 29.665276, 0.0
Inhabitant,cube,agent_1,28.0, 29.665276, 0.0
Inhabitant,cube,agent_1,28.0, 29.665276, 0.0
Inhabitant,cube,agent_1,28.0, 29.665276, 0.0
Inhabitant,cube,agent_1,28.0, 29.529165, 0.0
Inhabitant,cube,agent_1,28.0, 29.529165, 0.0
Inhabitant,cube,agent_1,28.0, 29.529165, 0.0
Inhabitant,cube,agent_1,28.0, 29.529165, 0.0
Inhabitant,cube,agent_1,28.0, 29.529165, 0.0
Inhabitant,cube,agent_1,28.0, 29.390331, 0.0
Inhabitant,cube,agent_1,28.0, 29.390331, 0.0
Inhabitant,cube,agent_1,28.0, 29.390331, 0.0
Inhabitant,cube,agent_1,28.0, 29.248775, 0.0
Inhabitant,cube,agent_1,28.0, 29.248775, 0.0
Inhabitant,cube,agent_1,28.0, 29.248775, 0.0
Inhabitant,cube,agent_1,28.0, 29.248775, 0.0
Inhabitant,cube,agent_1,28.0, 29.104498, 0.0
Inhabitant,cube,agent_1,28.0, 29.104498, 0.0
Inhabitant,cube,agent_1,28.0, 29.104498, 0.0
Inhabitant,cube,agent_1,28.0, 28.957499, 0.0
Inhabitant,cube,agent_1,28.0, 28.957499, 0.0
Inhabitant,cube,agent_1,28.0, 28.957499, 0.0
Inhabitant,cube,agent_1,28.0, 28.957499, 0.0
Inhabitant,cube,agent_1,28.0, 28.957499, 0.0
Inhabitant,cube,agent_1,28.0, 28.957499, 0.0
Inhabitant,cube,agent_1,28.0, 28.807775, 0.0
Inhabitant,cube,agent_1,28.0, 23.281668, 0.0
Inhabitant,cube,agent_1,28.0, 23.05028, 0.0
Inhabitant,cube,agent_1,28.0, 23.05028, 0.0
Inhabitant,cube,agent_1,28.0, 23.05028, 0.0
Inhabitant,cube,agent_1,28.0, 23.05028, 0.0
Inhabitant,cube,agent_1,28.0, 23.05028, 0.0
Inhabitant,cube,agent_1,28.0, 23.05028, 0.0
Inhabitant,cube,agent_1,28.0, 22.816168, 0.0
Inhabitant,cube,agent_1,28.0, 22.816168, 0.0
Inhabitant,cube,agent_1,28.0, 22.816168, 0.0
Inhabitant,cube,agent_1,28.0, 22.816168, 0.0
Inhabitant,cube,agent_1,28.0, 22.816168, 0.0
Inhabitant,cube,agent_1,28.0, 22.816168, 0.0
Inhabitant,cube,agent_1,28.0, 22.816168, 0.0
Inhabitant,cube,agent_1,28.0, 22.579334, 0.0
Inhabitant,cube,agent_1,28.0, 22.579334, 0.0
Inhabitant,cube,agent_1,28.0, 20.061281, 0.0
Inhabitant,cube,agent_1,28.0, 19.794504, 0.0
Inhabitant,cube,agent_1,28.0, 19.794504, 0.0
Inhabitant,cube,agent_1,28.0, 19.794504, 0.0
Inhabitant,cube,agent_1,28.0, 19.525005, 0.0
Inhabitant,cube,agent_1,28.0, 19.525005, 0.0
Inhabitant,cube,agent_1,28.0, 19.525005, 0.0
Inhabitant,cube,agent_1,28.0, 19.252783, 0.0
Inhabitant,cube,agent_1,28.0, 19.252783, 0.0
Inhabitant,cube,agent_1,28.0, 19.252783, 0.0
Inhabitant,cube,agent_1,28.0, 19.252783, 0.0
Inhabitant,cube,agent_1,28.0, 19.252783, 0.0
Inhabitant,cube,agent_1,28.0, 18.977839, 0.0
Inhabitant,cube,agent_1,28.0, 18.977839, 0.0
Inhabitant,cube,agent_1,28.0, 18.977839, 0.0
Inhabitant,cube,agent_1,28.0, 18.977839, 0.0
Inhabitant,cube,agent_1,28.0, 18.977839, 0.0
Inhabitant,cube,agent_1,28.0, 18.977839, 0.0
Inhabitant,cube,agent_1,28.0, 18.700172, 0.0
Inhabitant,cube,agent_1,28.0, 18.700172, 0.0
Inhabitant,cube,agent_1,28.0, 18.700172, 0.0
Inhabitant,cube,agent_1,28.0, 18.700172, 0.0
Inhabitant,cube,agent_1,28.0, 18.700172, 0.0
Inhabitant,cube,agent_1,28.0, 18.700172, 0.0
Inhabitant,cube,agent_1,28.0, 18.419785, 0.0
Inhabitant,cube,agent_1,28.0, 18.419785, 0.0
Inhabitant,cube,agent_1,28.0, 18.419785, 0.0
Inhabitant,cube,agent_1,28.0, 18.419785, 0.0
Inhabitant,cube,agent_1,28.0, 18.419785, 0.0
Inhabitant,cube,agent_1,28.0, 18.136673, 0.0
Inhabitant,cube,agent_1,28.0, 18.136673, 0.0
Inhabitant,cube,agent_1,28.0, 18.136673, 0.0
Inhabitant,cube,agent_1,28.0, 17.85084, 0.0
Inhabitant,cube,agent_1,28.0, 17.85084, 0.0
Inhabitant,cube,agent_1,28.0, 17.85084, 0.0
Inhabitant,cube,agent_1,28.0, 17.85084, 0.0
Inhabitant,cube,agent_1,28.0, 17.85084, 0.0
Inhabitant,cube,agent_1,28.0, 17.562284, 0.0
Inhabitant,cube,agent_1,28.0, 17.562284, 0.0
Inhabitant,cube,agent_1,28.0, 17.562284, 0.0
Inhabitant,cube,agent_1,28.0, 17.271008, 0.0
Inhabitant,cube,agent_1,28.0, 17.271008, 0.0
Inhabitant,cube,agent_1,28.0, 17.271008, 0.0
Inhabitant,cube,agent_1,28.0, 16.977007, 0.0
Inhabitant,cube,agent_1,28.0, 16.977007, 0.0
Inhabitant,cube,agent_1,28.0, 16.977007, 0.0
Inhabitant,cube,agent_1,28.0, 16.977007, 0.0
Inhabitant,cube,agent_1,28.0, 16.977007, 0.0
Inhabitant,cube,agent_1,28.0, 16.977007, 0.0
Inhabitant,cube,agent_1,28.0, 16.680285, 0.0
Inhabitant,cube,agent_1,28.0, 16.680285, 0.0
Inhabitant,cube,agent_1,28.0, 16.680285, 0.0
Inhabitant,cube,agent_1,28.0, 16.680285, 0.0
Inhabitant,cube,agent_1,28.0, 16.38084, 0.0
Inhabitant,cube,agent_1,28.0, 16.38084, 0.0
Inhabitant,cube,agent_1,28.0, 16.38084, 0.0
Inhabitant,cube,agent_1,28.0, 16.078674, 0.0
Inhabitant,cube,agent_1,28.0, 16.078674, 0.0
Inhabitant,cube,agent_1,28.0, 16.078674, 0.0
Inhabitant,cube,agent_1,28.0, 15.773786, 0.0
Inhabitant,cube,agent_1,28.0, 15.773786, 0.0
Inhabitant,cube,agent_1,28.0, 15.773786, 0.0
Inhabitant,cube,agent_1,28.0, 15.773786, 0.0
Inhabitant,cube,agent_1,28.0, 15.466174, 0.0
Inhabitant,cube,agent_1,28.0, 15.466174, 0.0
Inhabitant,cube,agent_1,28.0, 15.155841, 0.0
Inhabitant,cube,agent_1,28.0, 15.155841, 0.0
Inhabitant,cube,agent_1,28.0, 15.155841, 0.0
Inhabitant,cube,agent_1,28.0, 15.155841, 0.0
Inhabitant,cube,agent_1,28.0, 14.842786, 0.0
Inhabitant,cube,agent_1,28.0, 14.842786, 0.0
Inhabitant,cube,agent_1,28.0, 14.527008, 0.0
Inhabitant,cube,agent_1,28.0, 14.527008, 0.0
Inhabitant,cube,agent_1,28.0, 14.527008, 0.0
Inhabitant,cube,agent_1,28.0, 14.2085085, 0.0
Inhabitant,cube,agent_1,28.0, 14.2085085, 0.0
Inhabitant,cube,agent_1,28.0, 14.2085085, 0.0
Inhabitant,cube,agent_1,28.0, 14.2085085, 0.0
Inhabitant,cube,agent_1,28.0, 14.2085085, 0.0
Inhabitant,cube,agent_1,28.0, 14.2085085, 0.0
Inhabitant,cube,agent_1,28.0, 13.887286, 0.0
Inhabitant,cube,agent_1,28.0, 13.887286, 0.0
Inhabitant,cube,agent_1,28.0, 13.887286, 0.0
Inhabitant,cube,agent_1,28.0, 13.887286, 0.0
Inhabitant,cube,agent_1,28.0, 13.887286, 0.0
Inhabitant,cube,agent_1,28.0, 13.563342, 0.0
Inhabitant,cube,agent_1,28.0, 13.563342, 0.0
Inhabitant,cube,agent_1,28.0, 13.563342, 0.0
Inhabitant,cube,agent_1,28.0, 13.563342, 0.0
Inhabitant,cube,agent_1,28.0, 13.236675, 0.0
Inhabitant,cube,agent_1,28.0, 13.236675, 0.0
Inhabitant,cube,agent_1,28.0, 13.236675, 0.0
Inhabitant,cube,agent_1,28.0, 13.236675, 0.0
Inhabitant,cube,agent_1,28.0, 12.907287, 0.0
Inhabitant,cube,agent_1,28.0, 12.907287, 0.0
Inhabitant,cube,agent_1,28.0, 12.907287, 0.0
Inhabitant,cube,agent_1,28.0, 12.907287, 0.0
Inhabitant,cube,agent_1,28.0, 12.575175, 0.0
Inhabitant,cube,agent_1,28.0, 12.575175, 0.0
Inhabitant,cube,agent_1,28.0, 12.575175, 0.0
Inhabitant,cube,agent_1,28.0, 12.240342, 0.0
Inhabitant,cube,agent_1,28.0, 12.240342, 0.0
Inhabitant,cube,agent_1,28.0, 12.240342, 0.0
Inhabitant,cube,agent_1,28.0, 12.240342, 0.0
Inhabitant,cube,agent_1,28.0, 11.902786, 0.0
Inhabitant,cube,agent_1,28.0, 11.902786, 0.0
Inhabitant,cube,agent_1,28.0, 11.902786, 0.0
Inhabitant,cube,agent_1,28.0, 11.902786, 0.0
Inhabitant,cube,agent_1,28.0, 11.902786, 0.0
Inhabitant,cube,agent_1,28.0, 11.562509, 0.0
Inhabitant,cube,agent_1,28.0, 11.562509, 0.0
Inhabitant,cube,agent_1,28.0, 11.562509, 0.0
Inhabitant,cube,agent_1,28.0, 11.219508, 0.0
Inhabitant,cube,agent_1,28.0, 11.219508, 0.0
Inhabitant,cube,agent_1,28.0, 10.873786, 0.0
Inhabitant,cube,agent_1,28.0, 10.873786, 0.0
Inhabitant,cube,agent_1,28.0, 10.873786, 0.0
Inhabitant,cube,agent_1,28.0, 10.873786, 0.0
Inhabitant,cube,agent_1,28.0, 10.525341, 0.0
Inhabitant,cube,agent_1,28.0, 10.525341, 0.0
Inhabitant,cube,agent_1,28.0, 10.525341, 0.0
Inhabitant,cube,agent_1,28.0, 10.525341, 0.0
Inhabitant,cube,agent_1,28.0, 10.525341, 0.0
Inhabitant,cube,agent_1,28.0, 10.525341, 0.0
Inhabitant,cube,agent_1,28.0, 10.525341, 0.0
Inhabitant,cube,agent_1,28.0, 10.174174, 0.0
Inhabitant,cube,agent_1,28.0, 10.174174, 0.0
Inhabitant,cube,agent_1,28.0, 10.174174, 0.0
Inhabitant,cube,agent_1,28.0, 10.174174, 0.0
Inhabitant,cube,agent_1,28.0, 9.820286, 0.0
Inhabitant,cube,agent_1,28.0, 9.820286, 0.0
Inhabitant,cube,agent_1,28.0, 9.820286, 0.0
Inhabitant,cube,agent_1,28.0, 9.820286, 0.0
Inhabitant,cube,agent_1,28.0, 9.463675, 0.0
Inhabitant,cube,agent_1,28.0, 9.463675, 0.0
Inhabitant,cube,agent_1,28.0, 9.463675, 0.0
Inhabitant,cube,agent_1,28.0, 9.463675, 0.0
Inhabitant,cube,agent_1,28.0, 9.1043415, 0.0
Inhabitant,cube,agent_1,28.0, 9.1043415, 0.0
Inhabitant,cube,agent_1,28.0, 9.1043415, 0.0
Inhabitant,cube,agent_1,28.0, 9.1043415, 0.0
Inhabitant,cube,agent_1,28.0, 8.742286, 0.0
Inhabitant,cube,agent_1,28.0, 8.742286, 0.0
Inhabitant,cube,agent_1,28.0, 8.742286, 0.0
Inhabitant,cube,agent_1,28.0, 8.742286, 0.0
Inhabitant,cube,agent_1,28.0, 8.742286, 0.0
Inhabitant,cube,agent_1,28.0, 8.742286, 0.0
Inhabitant,cube,agent_1,28.0, 8.742286, 0.0
Inhabitant,cube,agent_1,28.0, 8.377508, 0.0
Inhabitant,cube,agent_1,28.0, 8.377508, 0.0
Inhabitant,cube,agent_1,28.0, 8.010008, 0.0
Inhabitant,cube,agent_1,28.0, 8.010008, 0.0
Inhabitant,cube,agent_1,28.0, 8.010008, 0.0
Inhabitant,cube,agent_1,28.0, 8.010008, 0.0
Inhabitant,cube,agent_1,28.0, 7.639786, 0.0
Inhabitant,cube,agent_1,28.0, 7.639786, 0.0
Inhabitant,cube,agent_1,28.0, 7.2668414, 0.0
Inhabitant,cube,agent_1,28.0, 7.2668414, 0.0
Inhabitant,cube,agent_1,28.0, 7.2668414, 0.0
Inhabitant,cube,agent_1,28.0, 7.2668414, 0.0
Inhabitant,cube,agent_1,28.0, 7.2668414, 0.0
Inhabitant,cube,agent_1,28.0, 6.891175, 0.0
Inhabitant,cube,agent_1,28.0, 6.891175, 0.0
Inhabitant,cube,agent_1,28.0, 6.891175, 0.0
Inhabitant,cube,agent_1,28.0, 6.512786, 0.0
Inhabitant,cube,agent_1,28.0, 6.512786, 0.0
Inhabitant,cube,agent_1,28.0, 6.512786, 0.0
Inhabitant,cube,agent_1,28.0, 6.512786, 0.0
Inhabitant,cube,agent_1,28.0, 6.512786, 0.0
Inhabitant,cube,agent_1,28.0, 6.131675, 0.0
