null
2
OK,1,Floor,1,100,100,2,IVE_Artifact,cube,1.0,1.0,1.0,20.0,1.0,0.0,0.0,none,cube,0.0,5.0,1,0,0,1.0,0.0,0.0,1.0,1.0,1.1,15.0,15.0,15.0,IVE_Artifact,sphere,1.0,1.0,1.0,20.0,1.0,0.0,0.0,none,sphere,0.0,5.0,1,0,0,1.0,0.0,0.0,1.0,1.0,1.1,15.0,10.0,5.0
null
null
null
null
null
null
null
null
null
null
null
null
null
null
null
null
null
null
null
null
null
null
null
null
null
null
null
null
null
null
null
null
null
null
null
null
null
null
null
null
null
null
null
null
null
null
null
null
null
null
null
Inhabitant,cube,agent_1,28.0, 32.997276, 0.0
Inhabitant,cube,agent_1,28.0, 32.997276, 0.0
Inhabitant,cube,agent_1,28.0, 32.997276, 0.0
Inhabitant,cube,agent_1,28.0, 32.997276, 0.0
Inhabitant,cube,agent_1,28.0, 32.997276, 0.0
Inhabitant,cube,agent_1,28.0, 32.997276, 0.0
Inhabitant,cube,agent_1,28.0, 32.997276, 0.0
Inhabitant,cube,agent_1,28.0, 32.997276, 0.0
Inhabitant,cube,agent_1,28.0, 32.997276, 0.0
Inhabitant,cube,agent_1,28.0, 32.997276, 0.0
Inhabitant,cube,agent_1,28.0, 32.997276, 0.0
Inhabitant,cube,agent_1,28.0, 32.997276, 0.0
Inhabitant,cube,agent_1,28.0, 32.997276, 0.0
Inhabitant,cube,agent_1,28.0, 32.997276, 0.0
Inhabitant,cube,agent_1,28.0, 32.997276, 0.0
Inhabitant,cube,agent_1,28.0, 32.997276, 0.0
Inhabitant,cube,agent_1,28.0, 32.997276, 0.0
Inhabitant,cube,agent_1,28.0, 32.997276, 0.0
Inhabitant,cube,agent_1,28.0, 32.997276, 0.0
Inhabitant,cube,agent_1,28.0, 32.997276, 0.0
Inhabitant,cube,agent_1,28.0, 32.991833, 0.0
Inhabitant,cube,agent_1,28.0, 32.991833, 0.0
Inhabitant,cube,agent_1,28.0, 32.991833, 0.0
Inhabitant,cube,agent_1,28.0, 32.991833, 0.0
Inhabitant,cube,agent_1,28.0, 32.991833, 0.0
Inhabitant,cube,agent_1,28.0, 32.991833, 0.0
Inhabitant,cube,agent_1,28.0, 32.991833, 0.0
Inhabitant,cube,agent_1,28.0, 32.991833, 0.0
Inhabitant,cube,agent_1,28.0, 32.991833, 0.0
Inhabitant,cube,agent_1,28.0, 32.991833, 0.0
Inhabitant,cube,agent_1,28.0, 32.991833, 0.0
Inhabitant,cube,agent_1,28.0, 32.991833, 0.0
Inhabitant,cube,agent_1,28.0, 32.991833, 0.0
Inhabitant,cube,agent_1,28.0, 32.991833, 0.0
Inhabitant,cube,agent_1,28.0, 32.991833, 0.0
Inhabitant,cube,agent_1,28.0, 32.991833, 0.0
Inhabitant,cube,agent_1,28.0, 32.991833, 0.0
Inhabitant,cube,agent_1,28.0, 32.991833, 0.0
Inhabitant,cube,agent_1,28.0, 32.991833, 0.0
Inhabitant,cube,agent_1,28.0, 32.991833, 0.0
Inhabitant,cube,agent_1,28.0, 32.991833, 0.0
Inhabitant,cube,agent_1,28.0, 32.97278, 0.0
Inhabitant,cube,agent_1,28.0, 32.97278, 0.0
Inhabitant,cube,agent_1,28.0, 32.97278, 0.0
Inhabitant,cube,agent_1,28.0, 32.97278, 0.0
Inhabitant,cube,agent_1,28.0, 32.97278, 0.0
Inhabitant,cube,agent_1,28.0, 32.97278, 0.0
Inhabitant,cube,agent_1,28.0, 32.97278, 0.0
Inhabitant,cube,agent_1,28.0, 32.97278, 0.0
Inhabitant,cube,agent_1,28.0, 32.97278, 0.0
Inhabitant,cube,agent_1,28.0, 32.97278, 0.0
Inhabitant,cube,agent_1,28.0, 32.97278, 0.0
Inhabitant,cube,agent_1,28.0, 32.97278, 0.0
Inhabitant,cube,agent_1,28.0, 32.97278, 0.0
Inhabitant,cube,agent_1,28.0, 32.97278, 0.0
Inhabitant,cube,agent_1,28.0, 32.97278, 0.0
Inhabitant,cube,agent_1,28.0, 32.97278, 0.0
Inhabitant,cube,agent_1,28.0, 32.97278, 0.0
Inhabitant,cube,agent_1,28.0, 32.97278, 0.0
Inhabitant,cube,agent_1,28.0, 32.97278, 0.0
Inhabitant,cube,agent_1,28.0, 32.97278, 0.0
Inhabitant,cube,agent_1,28.0, 32.942833, 0.0
Inhabitant,cube,agent_1,28.0, 32.942833, 0.0
Inhabitant,cube,agent_1,28.0, 32.942833, 0.0
Inhabitant,cube,agent_1,28.0, 32.942833, 0.0
Inhabitant,cube,agent_1,28.0, 32.942833, 0.0
Inhabitant,cube,agent_1,28.0, 32.942833, 0.0
Inhabitant,cube,agent_1,28.0, 32.942833, 0.0
Inhabitant,cube,agent_1,28.0, 32.942833, 0.0
Inhabitant,cube,agent_1,28.0, 32.942833, 0.0
Inhabitant,cube,agent_1,28.0, 32.942833, 0.0
Inhabitant,cube,agent_1,28.0, 32.942833, 0.0
Inhabitant,cube,agent_1,28.0, 32.942833, 0.0
Inhabitant,cube,agent_1,28.0, 32.942833, 0.0
Inhabitant,cube,agent_1,28.0, 32.942833, 0.0
Inhabitant,cube,agent_1,28.0, 32.942833, 0.0
Inhabitant,cube,agent_1,28.0, 32.942833, 0.0
Inhabitant,cube,agent_1,28.0, 32.942833, 0.0
Inhabitant,cube,agent_1,28.0, 32.942833, 0.0
Inhabitant,cube,agent_1,28.0, 32.942833, 0.0
Inhabitant,cube,agent_1,28.0, 32.942833, 0.0
Inhabitant,cube,agent_1,28.0, 32.942833, 0.0
Inhabitant,cube,agent_1,28.0, 32.942833, 0.0
Inhabitant,cube,agent_1,28.0, 32.942833, 0.0
Inhabitant,cube,agent_1,28.0, 32.942833, 0.0
Inhabitant,cube,agent_1,28.0, 32.942833, 0.0
Inhabitant,cube,agent_1,28.0, 32.942833, 0.0
Inhabitant,cube,agent_1,28.0, 32.942833, 0.0
Inhabitant,cube,agent_1,28.0, 32.942833, 0.0
Inhabitant,cube,agent_1,28.0, 32.942833, 0.0
Inhabitant,cube,agent_1,28.0, 32.942833, 0.0
Inhabitant,cube,agent_1,28.0, 32.942833, 0.0
Inhabitant,cube,agent_1,28.0, 32.942833, 0.0
Inhabitant,cube,agent_1,28.0, 32.942833, 0.0
Inhabitant,cube,agent_1,28.0, 32.942833, 0.0
Inhabitant,cube,agent_1,28.0, 32.942833, 0.0
Inhabitant,cube,agent_1,28.0, 32.942833, 0.0
Inhabitant,cube,agent_1,28.0, 32.942833, 0.0
Inhabitant,cube,agent_1,28.0, 32.942833, 0.0
Inhabitant,cube,agent_1,28.0, 32.942833, 0.0
Inhabitant,cube,agent_1,28.0, 32.942833, 0.0
Inhabitant,cube,agent_1,28.0, 32.942833, 0.0
Inhabitant,cube,agent_1,28.0, 32.942833, 0.0
Inhabitant,cube,agent_1,28.0, 32.942833, 0.0
Inhabitant,cube,agent_1,28.0, 32.942833, 0.0
Inhabitant,cube,agent_1,28.0, 32.942833, 0.0
Inhabitant,cube,agent_1,28.0, 32.942833, 0.0
Inhabitant,cube,agent_1,28.0, 32.942833, 0.0
Inhabitant,cube,agent_1,28.0, 32.942833, 0.0
Inhabitant,cube,agent_1,28.0, 32.942833, 0.0
Inhabitant,cube,agent_1,28.0, 32.942833, 0.0
Inhabitant,cube,agent_1,28.0, 32.942833, 0.0
Inhabitant,cube,agent_1,28.0, 32.942833, 0.0
Inhabitant,cube,agent_1,28.0, 32.942833, 0.0
Inhabitant,cube,agent_1,28.0, 32.942833, 0.0
Inhabitant,cube,agent_1,28.0, 32.942833, 0.0
Inhabitant,cube,agent_1,28.0, 32.942833, 0.0
Inhabitant,cube,agent_1,28.0, 32.942833, 0.0
Inhabitant,cube,agent_1,28.0, 32.942833, 0.0
Inhabitant,cube,agent_1,28.0, 32.942833, 0.0
Inhabitant,cube,agent_1,28.0, 32.942833, 0.0
Inhabitant,cube,agent_1,28.0, 32.8775, 0.0
Inhabitant,cube,agent_1,28.0, 32.8775, 0.0
Inhabitant,cube,agent_1,28.0, 32.8775, 0.0
Inhabitant,cube,agent_1,28.0, 32.8775, 0.0
Inhabitant,cube,agent_1,28.0, 32.8775, 0.0
Inhabitant,cube,agent_1,28.0, 32.8775, 0.0
Inhabitant,cube,agent_1,28.0, 32.8775, 0.0
Inhabitant,cube,agent_1,28.0, 32.8775, 0.0
Inhabitant,cube,agent_1,28.0, 32.8775, 0.0
Inhabitant,cube,agent_1,28.0, 32.8775, 0.0
Inhabitant,cube,agent_1,28.0, 32.8775, 0.0
Inhabitant,cube,agent_1,28.0, 32.8775, 0.0
Inhabitant,cube,agent_1,28.0, 32.8775, 0.0
Inhabitant,cube,agent_1,28.0, 32.8775, 0.0
Inhabitant,cube,agent_1,28.0, 32.8775, 0.0
Inhabitant,cube,agent_1,28.0, 32.8775, 0.0
Inhabitant,cube,agent_1,28.0, 32.8775, 0.0
Inhabitant,cube,agent_1,28.0, 32.8775, 0.0
Inhabitant,cube,agent_1,28.0, 32.8775, 0.0
Inhabitant,cube,agent_1,28.0, 32.8775, 0.0
Inhabitant,cube,agent_1,28.0, 32.8775, 0.0
Inhabitant,cube,agent_1,28.0, 32.8775, 0.0
Inhabitant,cube,agent_1,28.0, 32.8775, 0.0
Inhabitant,cube,agent_1,28.0, 32.8775, 0.0
Inhabitant,cube,agent_1,28.0, 32.8775, 0.0
Inhabitant,cube,agent_1,28.0, 32.8775, 0.0
Inhabitant,cube,agent_1,28.0, 32.8775, 0.0
Inhabitant,cube,agent_1,28.0, 32.8775, 0.0
Inhabitant,cube,agent_1,28.0, 32.8775, 0.0
Inhabitant,cube,agent_1,28.0, 32.8775, 0.0
Inhabitant,cube,agent_1,28.0, 32.8775, 0.0
Inhabitant,cube,agent_1,28.0, 32.714165, 0.0
Inhabitant,cube,agent_1,28.0, 32.714165, 0.0
Inhabitant,cube,agent_1,28.0, 32.714165, 0.0
Inhabitant,cube,agent_1,28.0, 32.714165, 0.0
Inhabitant,cube,agent_1,28.0, 32.714165, 0.0
Inhabitant,cube,agent_1,28.0, 32.714165, 0.0
Inhabitant,cube,agent_1,28.0, 32.714165, 0.0
Inhabitant,cube,agent_1,28.0, 32.714165, 0.0
Inhabitant,cube,agent_1,28.0, 32.714165, 0.0
Inhabitant,cube,agent_1,28.0, 32.714165, 0.0
Inhabitant,cube,agent_1,28.0, 32.714165, 0.0
Inhabitant,cube,agent_1,28.0, 32.714165, 0.0
Inhabitant,cube,agent_1,28.0, 32.714165, 0.0
Inhabitant,cube,agent_1,28.0, 32.714165, 0.0
Inhabitant,cube,agent_1,28.0, 32.714165, 0.0
Inhabitant,cube,agent_1,28.0, 32.714165, 0.0
Inhabitant,cube,agent_1,28.0, 32.714165, 0.0
Inhabitant,cube,agent_1,28.0, 32.714165, 0.0
Inhabitant,cube,agent_1,28.0, 32.714165, 0.0
Inhabitant,cube,agent_1,28.0, 32.714165, 0.0
Inhabitant,cube,agent_1,28.0, 32.714165, 0.0
Inhabitant,cube,agent_1,28.0, 32.714165, 0.0
Inhabitant,cube,agent_1,28.0, 32.714165, 0.0
Inhabitant,cube,agent_1,28.0, 32.714165, 0.0
Inhabitant,cube,agent_1,28.0, 32.714165, 0.0
Inhabitant,cube,agent_1,28.0, 32.714165, 0.0
Inhabitant,cube,agent_1,28.0, 32.714165, 0.0
Inhabitant,cube,agent_1,28.0, 32.714165, 0.0
Inhabitant,cube,agent_1,28.0, 32.714165, 0.0
Inhabitant,cube,agent_1,28.0, 32.714165, 0.0
Inhabitant,cube,agent_1,28.0, 32.714165, 0.0
Inhabitant,cube,agent_1,28.0, 32.714165, 0.0
Inhabitant,cube,agent_1,28.0, 32.714165, 0.0
Inhabitant,cube,agent_1,28.0, 32.714165, 0.0
Inhabitant,cube,agent_1,28.0, 32.714165, 0.0
Inhabitant,cube,agent_1,28.0, 32.714165, 0.0
Inhabitant,cube,agent_1,28.0, 32.714165, 0.0
Inhabitant,cube,agent_1,28.0, 32.714165, 0.0
Inhabitant,cube,agent_1,28.0, 32.714165, 0.0
Inhabitant,cube,agent_1,28.0, 32.714165, 0.0
Inhabitant,cube,agent_1,28.0, 32.714165, 0.0
Inhabitant,cube,agent_1,28.0, 32.714165, 0.0
Inhabitant,cube,agent_1,28.0, 32.714165, 0.0
Inhabitant,cube,agent_1,28.0, 32.714165, 0.0
Inhabitant,cube,agent_1,28.0, 32.714165, 0.0
Inhabitant,cube,agent_1,28.0, 32.714165, 0.0
Inhabitant,cube,agent_1,28.0, 32.714165, 0.0
Inhabitant,cube,agent_1,28.0, 32.714165, 0.0
Inhabitant,cube,agent_1,28.0, 32.714165, 0.0
Inhabitant,cube,agent_1,28.0, 32.714165, 0.0
Inhabitant,cube,agent_1,28.0, 32.714165, 0.0
Inhabitant,cube,agent_1,28.0, 32.714165, 0.0
Inhabitant,cube,agent_1,28.0, 32.714165, 0.0
Inhabitant,cube,agent_1,28.0, 32.714165, 0.0
Inhabitant,cube,agent_1,28.0, 32.714165, 0.0
Inhabitant,cube,agent_1,28.0, 32.714165, 0.0
Inhabitant,cube,agent_1,28.0, 32.714165, 0.0
Inhabitant,cube,agent_1,28.0, 32.714165, 0.0
Inhabitant,cube,agent_1,28.0, 32.714165, 0.0
Inhabitant,cube,agent_1,28.0, 32.714165, 0.0
Inhabitant,cube,agent_1,28.0, 32.714165, 0.0
Inhabitant,cube,agent_1,28.0, 32.714165, 0.0
Inhabitant,cube,agent_1,28.0, 32.714165, 0.0
Inhabitant,cube,agent_1,28.0, 32.714165, 0.0
Inhabitant,cube,agent_1,28.0, 32.714165, 0.0
Inhabitant,cube,agent_1,28.0, 32.714165, 0.0
Inhabitant,cube,agent_1,28.0, 32.714165, 0.0
Inhabitant,cube,agent_1,28.0, 32.714165, 0.0
Inhabitant,cube,agent_1,28.0, 32.714165, 0.0
Inhabitant,cube,agent_1,28.0, 32.714165, 0.0
Inhabitant,cube,agent_1,28.0, 32.714165, 0.0
Inhabitant,cube,agent_1,28.0, 32.673332, 0.0
Inhabitant,cube,agent_1,28.0, 32.673332, 0.0
Inhabitant,cube,agent_1,28.0, 32.673332, 0.0
Inhabitant,cube,agent_1,28.0, 32.673332, 0.0
Inhabitant,cube,agent_1,28.0, 32.673332, 0.0
Inhabitant,cube,agent_1,28.0, 32.673332, 0.0
Inhabitant,cube,agent_1,28.0, 32.673332, 0.0
Inhabitant,cube,agent_1,28.0, 32.673332, 0.0
Inhabitant,cube,agent_1,28.0, 32.673332, 0.0
Inhabitant,cube,agent_1,28.0, 32.673332, 0.0
Inhabitant,cube,agent_1,28.0, 32.673332, 0.0
Inhabitant,cube,agent_1,28.0, 32.673332, 0.0
Inhabitant,cube,agent_1,28.0, 32.673332, 0.0
Inhabitant,cube,agent_1,28.0, 32.673332, 0.0
Inhabitant,cube,agent_1,28.0, 32.673332, 0.0
Inhabitant,cube,agent_1,28.0, 32.673332, 0.0
Inhabitant,cube,agent_1,28.0, 32.673332, 0.0
Inhabitant,cube,agent_1,28.0, 32.673332, 0.0
Inhabitant,cube,agent_1,28.0, 32.673332, 0.0
Inhabitant,cube,agent_1,28.0, 32.673332, 0.0
Inhabitant,cube,agent_1,28.0, 32.673332, 0.0
Inhabitant,cube,agent_1,28.0, 32.673332, 0.0
Inhabitant,cube,agent_1,28.0, 32.673332, 0.0
Inhabitant,cube,agent_1,28.0, 32.673332, 0.0
Inhabitant,cube,agent_1,28.0, 32.673332, 0.0
Inhabitant,cube,agent_1,28.0, 32.673332, 0.0
Inhabitant,cube,agent_1,28.0, 32.673332, 0.0
Inhabitant,cube,agent_1,28.0, 32.673332, 0.0
Inhabitant,cube,agent_1,28.0, 32.673332, 0.0
Inhabitant,cube,agent_1,28.0, 32.673332, 0.0
Inhabitant,cube,agent_1,28.0, 32.673332, 0.0
Inhabitant,cube,agent_1,28.0, 32.673332, 0.0
Inhabitant,cube,agent_1,28.0, 32.673332, 0.0
Inhabitant,cube,agent_1,28.0, 32.673332, 0.0
Inhabitant,cube,agent_1,28.0, 32.673332, 0.0
Inhabitant,cube,agent_1,28.0, 32.673332, 0.0
Inhabitant,cube,agent_1,28.0, 32.673332, 0.0
Inhabitant,cube,agent_1,28.0, 32.673332, 0.0
Inhabitant,cube,agent_1,28.0, 32.673332, 0.0
Inhabitant,cube,agent_1,28.0, 32.673332, 0.0
Inhabitant,cube,agent_1,28.0, 32.673332, 0.0
Inhabitant,cube,agent_1,28.0, 32.673332, 0.0
Inhabitant,cube,agent_1,28.0, 32.673332, 0.0
Inhabitant,cube,agent_1,28.0, 32.673332, 0.0
Inhabitant,cube,agent_1,28.0, 32.673332, 0.0
Inhabitant,cube,agent_1,28.0, 32.673332, 0.0
Inhabitant,cube,agent_1,28.0, 32.673332, 0.0
Inhabitant,cube,agent_1,28.0, 32.673332, 0.0
Inhabitant,cube,agent_1,28.0, 32.673332, 0.0
Inhabitant,cube,agent_1,28.0, 32.673332, 0.0
Inhabitant,cube,agent_1,28.0, 32.673332, 0.0
Inhabitant,cube,agent_1,28.0, 32.673332, 0.0
Inhabitant,cube,agent_1,28.0, 32.673332, 0.0
Inhabitant,cube,agent_1,28.0, 32.673332, 0.0
Inhabitant,cube,agent_1,28.0, 32.673332, 0.0
Inhabitant,cube,agent_1,28.0, 32.673332, 0.0
Inhabitant,cube,agent_1,28.0, 32.673332, 0.0
Inhabitant,cube,agent_1,28.0, 32.673332, 0.0
Inhabitant,cube,agent_1,28.0, 32.673332, 0.0
Inhabitant,cube,agent_1,28.0, 32.673332, 0.0
Inhabitant,cube,agent_1,28.0, 32.18333, 0.0
Inhabitant,cube,agent_1,28.0, 32.18333, 0.0
Inhabitant,cube,agent_1,28.0, 32.18333, 0.0
Inhabitant,cube,agent_1,28.0, 32.18333, 0.0
Inhabitant,cube,agent_1,28.0, 32.18333, 0.0
Inhabitant,cube,agent_1,28.0, 32.18333, 0.0
Inhabitant,cube,agent_1,28.0, 32.18333, 0.0
Inhabitant,cube,agent_1,28.0, 32.18333, 0.0
Inhabitant,cube,agent_1,28.0, 32.18333, 0.0
Inhabitant,cube,agent_1,28.0, 32.18333, 0.0
Inhabitant,cube,agent_1,28.0, 31.734165, 0.0
Inhabitant,cube,agent_1,28.0, 31.734165, 0.0
Inhabitant,cube,agent_1,28.0, 31.734165, 0.0
Inhabitant,cube,agent_1,28.0, 31.734165, 0.0
Inhabitant,cube,agent_1,28.0, 31.734165, 0.0
Inhabitant,cube,agent_1,28.0, 31.734165, 0.0
Inhabitant,cube,agent_1,28.0, 31.734165, 0.0
Inhabitant,cube,agent_1,28.0, 31.734165, 0.0
Inhabitant,cube,agent_1,28.0, 31.734165, 0.0
Inhabitant,cube,agent_1,28.0, 31.734165, 0.0
Inhabitant,cube,agent_1,28.0, 31.734165, 0.0
Inhabitant,cube,agent_1,28.0, 31.734165, 0.0
Inhabitant,cube,agent_1,28.0, 31.734165, 0.0
Inhabitant,cube,agent_1,28.0, 31.734165, 0.0
Inhabitant,cube,agent_1,28.0, 31.734165, 0.0
Inhabitant,cube,agent_1,28.0, 31.734165, 0.0
Inhabitant,cube,agent_1,28.0, 31.734165, 0.0
Inhabitant,cube,agent_1,28.0, 31.734165, 0.0
Inhabitant,cube,agent_1,28.0, 31.734165, 0.0
Inhabitant,cube,agent_1,28.0, 31.734165, 0.0
Inhabitant,cube,agent_1,28.0, 31.734165, 0.0
Inhabitant,cube,agent_1,28.0, 31.734165, 0.0
Inhabitant,cube,agent_1,28.0, 31.734165, 0.0
Inhabitant,cube,agent_1,28.0, 31.734165, 0.0
Inhabitant,cube,agent_1,28.0, 31.734165, 0.0
Inhabitant,cube,agent_1,28.0, 31.734165, 0.0
Inhabitant,cube,agent_1,28.0, 31.734165, 0.0
Inhabitant,cube,agent_1,28.0, 31.734165, 0.0
Inhabitant,cube,agent_1,28.0, 31.734165, 0.0
Inhabitant,cube,agent_1,28.0, 31.734165, 0.0
Inhabitant,cube,agent_1,28.0, 31.734165, 0.0
Inhabitant,cube,agent_1,28.0, 31.734165, 0.0
Inhabitant,cube,agent_1,28.0, 31.734165, 0.0
Inhabitant,cube,agent_1,28.0, 31.734165, 0.0
Inhabitant,cube,agent_1,28.0, 31.734165, 0.0
Inhabitant,cube,agent_1,28.0, 31.734165, 0.0
Inhabitant,cube,agent_1,28.0, 31.734165, 0.0
Inhabitant,cube,agent_1,28.0, 31.734165, 0.0
Inhabitant,cube,agent_1,28.0, 31.734165, 0.0
Inhabitant,cube,agent_1,28.0, 31.734165, 0.0
Inhabitant,cube,agent_1,28.0, 31.734165, 0.0
Inhabitant,cube,agent_1,28.0, 31.734165, 0.0
Inhabitant,cube,agent_1,28.0, 31.734165, 0.0
Inhabitant,cube,agent_1,28.0, 31.734165, 0.0
Inhabitant,cube,agent_1,28.0, 31.734165, 0.0
Inhabitant,cube,agent_1,28.0, 31.734165, 0.0
Inhabitant,cube,agent_1,28.0, 31.734165, 0.0
Inhabitant,cube,agent_1,28.0, 31.734165, 0.0
Inhabitant,cube,agent_1,28.0, 31.734165, 0.0
Inhabitant,cube,agent_1,28.0, 31.734165, 0.0
Inhabitant,cube,agent_1,28.0, 31.734165, 0.0
Inhabitant,cube,agent_1,28.0, 31.734165, 0.0
Inhabitant,cube,agent_1,28.0, 31.734165, 0.0
Inhabitant,cube,agent_1,28.0, 31.734165, 0.0
Inhabitant,cube,agent_1,28.0, 31.734165, 0.0
Inhabitant,cube,agent_1,28.0, 31.734165, 0.0
Inhabitant,cube,agent_1,28.0, 31.734165, 0.0
Inhabitant,cube,agent_1,28.0, 31.734165, 0.0
Inhabitant,cube,agent_1,28.0, 31.734165, 0.0
Inhabitant,cube,agent_1,28.0, 31.734165, 0.0
Inhabitant,cube,agent_1,28.0, 31.734165, 0.0
Inhabitant,cube,agent_1,28.0, 31.734165, 0.0
Inhabitant,cube,agent_1,28.0, 31.734165, 0.0
Inhabitant,cube,agent_1,28.0, 31.734165, 0.0
Inhabitant,cube,agent_1,28.0, 31.734165, 0.0
Inhabitant,cube,agent_1,28.0, 31.734165, 0.0
Inhabitant,cube,agent_1,28.0, 31.734165, 0.0
Inhabitant,cube,agent_1,28.0, 31.734165, 0.0
Inhabitant,cube,agent_1,28.0, 31.734165, 0.0
Inhabitant,cube,agent_1,28.0, 31.734165, 0.0
Inhabitant,cube,agent_1,28.0, 31.734165, 0.0
Inhabitant,cube,agent_1,28.0, 31.734165, 0.0
Inhabitant,cube,agent_1,28.0, 31.734165, 0.0
Inhabitant,cube,agent_1,28.0, 31.734165, 0.0
Inhabitant,cube,agent_1,28.0, 31.734165, 0.0
Inhabitant,cube,agent_1,28.0, 31.734165, 0.0
Inhabitant,cube,agent_1,28.0, 31.734165, 0.0
Inhabitant,cube,agent_1,28.0, 31.734165, 0.0
Inhabitant,cube,agent_1,28.0, 31.734165, 0.0
Inhabitant,cube,agent_1,28.0, 31.734165, 0.0
Inhabitant,cube,agent_1,28.0, 31.734165, 0.0
Inhabitant,cube,agent_1,28.0, 31.734165, 0.0
Inhabitant,cube,agent_1,28.0, 31.734165, 0.0
Inhabitant,cube,agent_1,28.0, 31.734165, 0.0
Inhabitant,cube,agent_1,28.0, 31.734165, 0.0
Inhabitant,cube,agent_1,28.0, 31.734165, 0.0
Inhabitant,cube,agent_1,28.0, 31.734165, 0.0
Inhabitant,cube,agent_1,28.0, 31.734165, 0.0
Inhabitant,cube,agent_1,28.0, 31.734165, 0.0
Inhabitant,cube,agent_1,28.0, 31.734165, 0.0
Inhabitant,cube,agent_1,28.0, 31.734165, 0.0
Inhabitant,cube,agent_1,28.0, 31.734165, 0.0
Inhabitant,cube,agent_1,28.0, 31.734165, 0.0
Inhabitant,cube,agent_1,28.0, 31.734165, 0.0
Inhabitant,cube,agent_1,28.0, 31.734165, 0.0
Inhabitant,cube,agent_1,28.0, 31.734165, 0.0
Inhabitant,cube,agent_1,28.0, 31.734165, 0.0
Inhabitant,cube,agent_1,28.0, 31.734165, 0.0
Inhabitant,cube,agent_1,28.0, 31.734165, 0.0
Inhabitant,cube,agent_1,28.0, 31.734165, 0.0
Inhabitant,cube,agent_1,28.0, 31.734165, 0.0
Inhabitant,cube,agent_1,28.0, 31.734165, 0.0
Inhabitant,cube,agent_1,28.0, 31.734165, 0.0
Inhabitant,cube,agent_1,28.0, 31.734165, 0.0
Inhabitant,cube,agent_1,28.0, 31.734165, 0.0
Inhabitant,cube,agent_1,28.0, 31.734165, 0.0
Inhabitant,cube,agent_1,28.0, 31.734165, 0.0
Inhabitant,cube,agent_1,28.0, 31.734165, 0.0
Inhabitant,cube,agent_1,28.0, 31.734165, 0.0
Inhabitant,cube,agent_1,28.0, 31.734165, 0.0
Inhabitant,cube,agent_1,28.0, 31.734165, 0.0
Inhabitant,cube,agent_1,28.0, 31.734165, 0.0
Inhabitant,cube,agent_1,28.0, 31.734165, 0.0
Inhabitant,cube,agent_1,28.0, 31.734165, 0.0
Inhabitant,cube,agent_1,28.0, 31.734165, 0.0
Inhabitant,cube,agent_1,28.0, 31.734165, 0.0
Inhabitant,cube,agent_1,28.0, 31.734165, 0.0
Inhabitant,cube,agent_1,28.0, 31.734165, 0.0
Inhabitant,cube,agent_1,28.0, 31.734165, 0.0
Inhabitant,cube,agent_1,28.0, 31.734165, 0.0
Inhabitant,cube,agent_1,28.0, 31.734165, 0.0
Inhabitant,cube,agent_1,28.0, 31.734165, 0.0
Inhabitant,cube,agent_1,28.0, 31.734165, 0.0
Inhabitant,cube,agent_1,28.0, 31.734165, 0.0
Inhabitant,cube,agent_1,28.0, 31.734165, 0.0
Inhabitant,cube,agent_1,28.0, 31.734165, 0.0
Inhabitant,cube,agent_1,28.0, 31.734165, 0.0
Inhabitant,cube,agent_1,28.0, 31.734165, 0.0
Inhabitant,cube,agent_1,28.0, 31.734165, 0.0
Inhabitant,cube,agent_1,28.0, 31.734165, 0.0
Inhabitant,cube,agent_1,28.0, 31.734165, 0.0
Inhabitant,cube,agent_1,28.0, 31.734165, 0.0
Inhabitant,cube,agent_1,28.0, 31.734165, 0.0
Inhabitant,cube,agent_1,28.0, 31.734165, 0.0
Inhabitant,cube,agent_1,28.0, 31.734165, 0.0
Inhabitant,cube,agent_1,28.0, 31.734165, 0.0
Inhabitant,cube,agent_1,28.0, 31.734165, 0.0
Inhabitant,cube,agent_1,28.0, 31.734165, 0.0
Inhabitant,cube,agent_1,28.0, 31.734165, 0.0
Inhabitant,cube,agent_1,28.0, 31.734165, 0.0
Inhabitant,cube,agent_1,28.0, 31.734165, 0.0
Inhabitant,cube,agent_1,28.0, 31.734165, 0.0
Inhabitant,cube,agent_1,28.0, 31.734165, 0.0
Inhabitant,cube,agent_1,28.0, 31.734165, 0.0
Inhabitant,cube,agent_1,28.0, 31.734165, 0.0
Inhabitant,cube,agent_1,28.0, 31.734165, 0.0
Inhabitant,cube,agent_1,28.0, 31.734165, 0.0
Inhabitant,cube,agent_1,28.0, 31.734165, 0.0
Inhabitant,cube,agent_1,28.0, 31.734165, 0.0
Inhabitant,cube,agent_1,28.0, 31.734165, 0.0
Inhabitant,cube,agent_1,28.0, 31.734165, 0.0
Inhabitant,cube,agent_1,28.0, 31.734165, 0.0
Inhabitant,cube,agent_1,28.0, 31.734165, 0.0
Inhabitant,cube,agent_1,28.0, 31.734165, 0.0
Inhabitant,cube,agent_1,28.0, 31.734165, 0.0
Inhabitant,cube,agent_1,28.0, 31.734165, 0.0
Inhabitant,cube,agent_1,28.0, 31.734165, 0.0
Inhabitant,cube,agent_1,28.0, 31.734165, 0.0
Inhabitant,cube,agent_1,28.0, 31.734165, 0.0
Inhabitant,cube,agent_1,28.0, 31.734165, 0.0
Inhabitant,cube,agent_1,28.0, 31.734165, 0.0
Inhabitant,cube,agent_1,28.0, 31.734165, 0.0
Inhabitant,cube,agent_1,28.0, 31.649776, 0.0
Inhabitant,cube,agent_1,28.0, 31.649776, 0.0
Inhabitant,cube,agent_1,28.0, 31.649776, 0.0
Inhabitant,cube,agent_1,28.0, 31.649776, 0.0
Inhabitant,cube,agent_1,28.0, 31.649776, 0.0
Inhabitant,cube,agent_1,28.0, 31.649776, 0.0
Inhabitant,cube,agent_1,28.0, 31.649776, 0.0
Inhabitant,cube,agent_1,28.0, 31.649776, 0.0
Inhabitant,cube,agent_1,28.0, 31.649776, 0.0
Inhabitant,cube,agent_1,28.0, 31.649776, 0.0
Inhabitant,cube,agent_1,28.0, 31.649776, 0.0
Inhabitant,cube,agent_1,28.0, 31.649776, 0.0
Inhabitant,cube,agent_1,28.0, 31.649776, 0.0
Inhabitant,cube,agent_1,28.0, 31.649776, 0.0
Inhabitant,cube,agent_1,28.0, 31.649776, 0.0
Inhabitant,cube,agent_1,28.0, 31.649776, 0.0
Inhabitant,cube,agent_1,28.0, 31.649776, 0.0
Inhabitant,cube,agent_1,28.0, 31.649776, 0.0
Inhabitant,cube,agent_1,28.0, 31.649776, 0.0
Inhabitant,cube,agent_1,28.0, 31.649776, 0.0
Inhabitant,cube,agent_1,28.0, 31.649776, 0.0
Inhabitant,cube,agent_1,28.0, 31.649776, 0.0
Inhabitant,cube,agent_1,28.0, 31.649776, 0.0
Inhabitant,cube,agent_1,28.0, 31.649776, 0.0
Inhabitant,cube,agent_1,28.0, 31.649776, 0.0
Inhabitant,cube,agent_1,28.0, 31.649776, 0.0
Inhabitant,cube,agent_1,28.0, 31.649776, 0.0
Inhabitant,cube,agent_1,28.0, 31.649776, 0.0
Inhabitant,cube,agent_1,28.0, 31.649776, 0.0
Inhabitant,cube,agent_1,28.0, 31.649776, 0.0
Inhabitant,cube,agent_1,28.0, 31.649776, 0.0
Inhabitant,cube,agent_1,28.0, 31.649776, 0.0
Inhabitant,cube,agent_1,28.0, 31.649776, 0.0
Inhabitant,cube,agent_1,28.0, 31.649776, 0.0
Inhabitant,cube,agent_1,28.0, 31.649776, 0.0
Inhabitant,cube,agent_1,28.0, 31.649776, 0.0
Inhabitant,cube,agent_1,28.0, 31.649776, 0.0
Inhabitant,cube,agent_1,28.0, 31.649776, 0.0
Inhabitant,cube,agent_1,28.0, 31.649776, 0.0
Inhabitant,cube,agent_1,28.0, 31.649776, 0.0
Inhabitant,cube,agent_1,28.0, 31.649776, 0.0
Inhabitant,cube,agent_1,28.0, 31.649776, 0.0
Inhabitant,cube,agent_1,28.0, 31.649776, 0.0
Inhabitant,cube,agent_1,28.0, 31.649776, 0.0
Inhabitant,cube,agent_1,28.0, 31.649776, 0.0
Inhabitant,cube,agent_1,28.0, 31.649776, 0.0
Inhabitant,cube,agent_1,28.0, 31.649776, 0.0
Inhabitant,cube,agent_1,28.0, 31.649776, 0.0
Inhabitant,cube,agent_1,28.0, 31.649776, 0.0
Inhabitant,cube,agent_1,28.0, 31.649776, 0.0
Inhabitant,cube,agent_1,28.0, 31.649776, 0.0
Inhabitant,cube,agent_1,28.0, 31.649776, 0.0
Inhabitant,cube,agent_1,28.0, 31.649776, 0.0
Inhabitant,cube,agent_1,28.0, 31.649776, 0.0
Inhabitant,cube,agent_1,28.0, 31.649776, 0.0
Inhabitant,cube,agent_1,28.0, 31.649776, 0.0
Inhabitant,cube,agent_1,28.0, 31.649776, 0.0
Inhabitant,cube,agent_1,28.0, 31.649776, 0.0
Inhabitant,cube,agent_1,28.0, 31.649776, 0.0
Inhabitant,cube,agent_1,28.0, 31.649776, 0.0
Inhabitant,cube,agent_1,28.0, 31.649776, 0.0
Inhabitant,cube,agent_1,28.0, 31.649776, 0.0
Inhabitant,cube,agent_1,28.0, 31.649776, 0.0
Inhabitant,cube,agent_1,28.0, 31.649776, 0.0
Inhabitant,cube,agent_1,28.0, 31.649776, 0.0
Inhabitant,cube,agent_1,28.0, 31.649776, 0.0
Inhabitant,cube,agent_1,28.0, 31.649776, 0.0
Inhabitant,cube,agent_1,28.0, 31.649776, 0.0
Inhabitant,cube,agent_1,28.0, 31.649776, 0.0
Inhabitant,cube,agent_1,28.0, 31.649776, 0.0
Inhabitant,cube,agent_1,28.0, 31.649776, 0.0
Inhabitant,cube,agent_1,28.0, 31.649776, 0.0
Inhabitant,cube,agent_1,28.0, 31.649776, 0.0
Inhabitant,cube,agent_1,28.0, 31.649776, 0.0
Inhabitant,cube,agent_1,28.0, 31.649776, 0.0
Inhabitant,cube,agent_1,28.0, 31.649776, 0.0
Inhabitant,cube,agent_1,28.0, 31.649776, 0.0
Inhabitant,cube,agent_1,28.0, 31.649776, 0.0
Inhabitant,cube,agent_1,28.0, 31.649776, 0.0
Inhabitant,cube,agent_1,28.0, 31.649776, 0.0
Inhabitant,cube,agent_1,28.0, 31.649776, 0.0
Inhabitant,cube,agent_1,28.0, 31.649776, 0.0
Inhabitant,cube,agent_1,28.0, 31.649776, 0.0
Inhabitant,cube,agent_1,28.0, 31.649776, 0.0
Inhabitant,cube,agent_1,28.0, 31.649776, 0.0
Inhabitant,cube,agent_1,28.0, 31.649776, 0.0
Inhabitant,cube,agent_1,28.0, 31.649776, 0.0
Inhabitant,cube,agent_1,28.0, 31.649776, 0.0
Inhabitant,cube,agent_1,28.0, 31.649776, 0.0
Inhabitant,cube,agent_1,28.0, 31.649776, 0.0
Inhabitant,cube,agent_1,28.0, 30.767776, 0.0
Inhabitant,cube,agent_1,28.0, 30.767776, 0.0
Inhabitant,cube,agent_1,28.0, 30.767776, 0.0
Inhabitant,cube,agent_1,28.0, 30.767776, 0.0
Inhabitant,cube,agent_1,28.0, 30.767776, 0.0
Inhabitant,cube,agent_1,28.0, 30.767776, 0.0
Inhabitant,cube,agent_1,28.0, 30.767776, 0.0
Inhabitant,cube,agent_1,28.0, 30.767776, 0.0
Inhabitant,cube,agent_1,28.0, 30.767776, 0.0
Inhabitant,cube,agent_1,28.0, 30.767776, 0.0
Inhabitant,cube,agent_1,28.0, 30.767776, 0.0
Inhabitant,cube,agent_1,28.0, 30.767776, 0.0
Inhabitant,cube,agent_1,28.0, 30.767776, 0.0
Inhabitant,cube,agent_1,28.0, 30.767776, 0.0
Inhabitant,cube,agent_1,28.0, 30.767776, 0.0
Inhabitant,cube,agent_1,28.0, 30.767776, 0.0
Inhabitant,cube,agent_1,28.0, 30.767776, 0.0
Inhabitant,cube,agent_1,28.0, 30.767776, 0.0
Inhabitant,cube,agent_1,28.0, 30.767776, 0.0
Inhabitant,cube,agent_1,28.0, 30.767776, 0.0
Inhabitant,cube,agent_1,28.0, 30.767776, 0.0
Inhabitant,cube,agent_1,28.0, 30.767776, 0.0
Inhabitant,cube,agent_1,28.0, 30.767776, 0.0
Inhabitant,cube,agent_1,28.0, 30.767776, 0.0
Inhabitant,cube,agent_1,28.0, 30.767776, 0.0
Inhabitant,cube,agent_1,28.0, 30.767776, 0.0
Inhabitant,cube,agent_1,28.0, 30.767776, 0.0
Inhabitant,cube,agent_1,28.0, 30.767776, 0.0
Inhabitant,cube,agent_1,28.0, 30.767776, 0.0
Inhabitant,cube,agent_1,28.0, 30.767776, 0.0
Inhabitant,cube,agent_1,28.0, 30.767776, 0.0
Inhabitant,cube,agent_1,28.0, 30.767776, 0.0
Inhabitant,cube,agent_1,28.0, 30.767776, 0.0
Inhabitant,cube,agent_1,28.0, 30.767776, 0.0
Inhabitant,cube,agent_1,28.0, 30.767776, 0.0
Inhabitant,cube,agent_1,28.0, 30.767776, 0.0
Inhabitant,cube,agent_1,28.0, 30.767776, 0.0
Inhabitant,cube,agent_1,28.0, 30.767776, 0.0
Inhabitant,cube,agent_1,28.0, 30.767776, 0.0
Inhabitant,cube,agent_1,28.0, 30.767776, 0.0
Inhabitant,cube,agent_1,28.0, 30.767776, 0.0
Inhabitant,cube,agent_1,28.0, 30.656166, 0.0
Inhabitant,cube,agent_1,28.0, 30.656166, 0.0
Inhabitant,cube,agent_1,28.0, 30.656166, 0.0
Inhabitant,cube,agent_1,28.0, 30.656166, 0.0
Inhabitant,cube,agent_1,28.0, 30.656166, 0.0
Inhabitant,cube,agent_1,28.0, 30.656166, 0.0
Inhabitant,cube,agent_1,28.0, 30.656166, 0.0
Inhabitant,cube,agent_1,28.0, 30.656166, 0.0
Inhabitant,cube,agent_1,28.0, 30.656166, 0.0
Inhabitant,cube,agent_1,28.0, 30.656166, 0.0
Inhabitant,cube,agent_1,28.0, 30.541832, 0.0
Inhabitant,cube,agent_1,28.0, 30.541832, 0.0
Inhabitant,cube,agent_1,28.0, 30.541832, 0.0
Inhabitant,cube,agent_1,28.0, 30.541832, 0.0
Inhabitant,cube,agent_1,28.0, 30.541832, 0.0
Inhabitant,cube,agent_1,28.0, 30.541832, 0.0
Inhabitant,cube,agent_1,28.0, 30.541832, 0.0
Inhabitant,cube,agent_1,28.0, 30.541832, 0.0
Inhabitant,cube,agent_1,28.0, 30.541832, 0.0
Inhabitant,cube,agent_1,28.0, 30.541832, 0.0
Inhabitant,cube,agent_1,28.0, 28.65533, 0.0
Inhabitant,cube,agent_1,28.0, 28.65533, 0.0
Inhabitant,cube,agent_1,28.0, 28.65533, 0.0
Inhabitant,cube,agent_1,28.0, 28.65533, 0.0
Inhabitant,cube,agent_1,28.0, 28.65533, 0.0
Inhabitant,cube,agent_1,28.0, 28.65533, 0.0
Inhabitant,cube,agent_1,28.0, 28.65533, 0.0
Inhabitant,cube,agent_1,28.0, 28.65533, 0.0
Inhabitant,cube,agent_1,28.0, 28.65533, 0.0
Inhabitant,cube,agent_1,28.0, 28.65533, 0.0
Inhabitant,cube,agent_1,28.0, 27.683498, 0.0
Inhabitant,cube,agent_1,28.0, 27.683498, 0.0
Inhabitant,cube,agent_1,28.0, 27.683498, 0.0
Inhabitant,cube,agent_1,28.0, 27.683498, 0.0
Inhabitant,cube,agent_1,28.0, 27.683498, 0.0
Inhabitant,cube,agent_1,28.0, 27.683498, 0.0
Inhabitant,cube,agent_1,28.0, 27.683498, 0.0
Inhabitant,cube,agent_1,28.0, 27.683498, 0.0
Inhabitant,cube,agent_1,28.0, 27.683498, 0.0
Inhabitant,cube,agent_1,28.0, 27.683498, 0.0
Inhabitant,cube,agent_1,28.0, 27.683498, 0.0
Inhabitant,cube,agent_1,28.0, 27.683498, 0.0
Inhabitant,cube,agent_1,28.0, 27.683498, 0.0
Inhabitant,cube,agent_1,28.0, 27.683498, 0.0
