null
2
OK,1,Floor,1,100,100,2,IVE_Artifact,cube,1.0,1.0,1.0,20.0,1.0,0.0,0.0,none,cube,0.0,5.0,1,0,0,1.0,0.0,0.0,1.0,1.0,1.1,15.0,15.0,15.0,IVE_Artifact,sphere,1.0,1.0,1.0,20.0,1.0,0.0,0.0,none,sphere,0.0,5.0,1,0,0,1.0,0.0,0.0,1.0,1.0,1.1,15.0,10.0,5.0
null
null
null
null
null
null
null
null
null
Inhabitant agent_1 0.5 28 33 0 
Inhabitant agent_1 0.5 28 33 0 
Inhabitant agent_1 0.5 28 33 0 
Inhabitant agent_1 0.5 28 33 0 
Inhabitant agent_1 0.5 28 33 0 
Inhabitant agent_1 0.5 28 33 0 
Inhabitant agent_1 0.5 28 33 0 
Inhabitant agent_1 0.5 28 33 0 
Inhabitant agent_1 0.5 28 33 0 
Inhabitant agent_1 0.5 28 33 0 
Inhabitant agent_1 0.5 28 33 0 
Inhabitant agent_1 0.5 28 33 0 
Inhabitant agent_1 0.5 28 33 0 
Inhabitant agent_1 0.5 28 33 0 
Inhabitant agent_1 0.5 28 33 0 
Inhabitant agent_1 0.5 28 33 0 
Inhabitant agent_1 0.5 28 33 0 
Inhabitant agent_1 0.5 28 33 0 
Inhabitant agent_1 0.5 28 33 0 
Inhabitant agent_1 0.5 28 33 0 
Inhabitant agent_1 0.5 28 33 0 
Inhabitant agent_1 0.5 28 33 0 
Inhabitant agent_1 0.5 28 33 0 
Inhabitant agent_1 0.5 28 33 0 
Inhabitant agent_1 0.5 28 33 0 
Inhabitant agent_1 0.5 28 33 0 
Inhabitant agent_1 0.5 28 33 0 
Inhabitant agent_1 0.5 28 33 0 
Inhabitant agent_1 0.5 28 33 0 
Inhabitant agent_1 0.5 28 33 0 
Inhabitant agent_1 0.5 28 33 0 
Inhabitant agent_1 0.5 28 33 0 
Inhabitant agent_1 0.5 28 33 0 
Inhabitant agent_1 0.5 28 33 0 
Inhabitant agent_1 0.5 28 33 0 
Inhabitant agent_1 0.5 28 33 0 
Inhabitant agent_1 0.5 28 33 0 
Inhabitant agent_1 0.5 28 33 0 
Inhabitant agent_1 0.5 28 33 0 
Inhabitant agent_1 0.5 28 33 0 
Inhabitant agent_1 0.5 28 33 0 
Inhabitant agent_1 0.5 28 33 0 
Inhabitant agent_1 0.5 28 33 0 
Inhabitant agent_1 0.5 28 33 0 
Inhabitant agent_1 0.5 28 33 0 
Inhabitant agent_1 0.5 28 33 0 
Inhabitant agent_1 0.5 28 33 0 
Inhabitant agent_1 0.5 28 33 0 
Inhabitant agent_1 0.5 28 33 0 
Inhabitant agent_1 0.5 28 33 0 
Inhabitant agent_1 0.5 28 33 0 
Inhabitant agent_1 0.5 28 33 0 
Inhabitant agent_1 0.5 28 33 0 
Inhabitant agent_1 0.5 28 33 0 
Inhabitant agent_1 0.5 28 33 0 
Inhabitant agent_1 0.5 28 33 0 
Inhabitant agent_1 0.5 28 33 0 
Inhabitant agent_1 0.5 28 33 0 
Inhabitant agent_1 0.5 28 33 0 
Inhabitant agent_1 0.5 28 33 0 
Inhabitant agent_1 0.5 28 33 0 
Inhabitant agent_1 0.5 28 33 0 
Inhabitant agent_1 0.5 28 33 0 
Inhabitant agent_1 0.5 28 33 0 
Inhabitant agent_1 0.5 28 33 0 
Inhabitant agent_1 0.5 28 33 0 
Inhabitant agent_2 0.5 25 23 0 
Inhabitant agent_2 0.5 25 23 0 
Inhabitant agent_2 0.5 25 23 0 
Inhabitant agent_2 0.5 25 23 0 
Inhabitant agent_2 0.5 25 23 0 
Inhabitant agent_2 0.5 25 23 0 
Inhabitant agent_2 0.5 25 23 0 
Inhabitant agent_2 0.5 25 23 0 
Inhabitant agent_2 0.5 25 23 0 
Inhabitant agent_2 0.5 25 23 0 
Inhabitant agent_2 0.5 25 23 0 
Inhabitant agent_2 0.5 25 23 0 
Inhabitant agent_2 0.5 25 23 0 
Inhabitant agent_2 0.5 25 23 0 
Inhabitant agent_2 0.5 25 23 0 
Inhabitant agent_2 0.5 25 23 0 
Inhabitant agent_2 0.5 25 23 0 
Inhabitant agent_2 0.5 25 23 0 
Inhabitant agent_2 0.5 25 23 0 
Inhabitant agent_2 0.5 25 23 0 
Inhabitant agent_2 0.5 25 23 0 
Inhabitant agent_2 0.5 25 23 0 
Inhabitant agent_2 0.5 25 23 0 
Inhabitant agent_2 0.5 25 23 0 
Inhabitant agent_2 0.5 25 23 0 
Inhabitant agent_2 0.5 25 23 0 
Inhabitant agent_2 0.5 25 23 0 
Inhabitant agent_2 0.5 25 23 0 
Inhabitant agent_2 0.5 25 23 0 
Inhabitant agent_2 0.5 25 23 0 
Inhabitant agent_2 0.5 25 23 0 
Inhabitant agent_2 0.5 25 23 0 
Inhabitant agent_2 0.5 25 23 0 
Inhabitant agent_2 0.5 25 23 0 
Inhabitant agent_2 0.5 25 23 0 
Inhabitant agent_2 0.5 25 23 0 
Inhabitant agent_2 0.5 25 23 0 
Inhabitant agent_2 0.5 25 23 0 
Inhabitant agent_2 0.5 25 23 0 
Inhabitant agent_2 0.5 25 23 0 
Inhabitant agent_2 0.5 25 23 0 
Inhabitant agent_2 0.5 25 23 0 
Inhabitant agent_2 0.5 25 23 0 
Inhabitant agent_2 0.5 25 23 0 
Inhabitant agent_2 0.5 25 23 0 
Inhabitant agent_2 0.5 25 23 0 
Inhabitant agent_2 0.5 25 23 0 
Inhabitant agent_2 0.5 25 23 0 
Inhabitant agent_2 0.5 25 23 0 
Inhabitant agent_2 0.5 25 23 0 
Inhabitant agent_2 0.5 25 23 0 
Inhabitant agent_1 0.5 28 33 0 
Inhabitant agent_1 0.5 28 33 0 
Inhabitant agent_1 0.5 28 33 0 
Inhabitant agent_1 0.5 28 33 0 
Inhabitant agent_1 0.5 28 33 0 
Inhabitant agent_1 0.5 28 33 0 
Inhabitant agent_1 0.5 28 33 0 
Inhabitant agent_1 0.5 28 33 0 
Inhabitant agent_1 0.5 28 33 0 
Inhabitant agent_1 0.5 28 33 0 
Inhabitant agent_1 0.5 28 33 0 
Inhabitant agent_1 0.5 28 33 0 
Inhabitant agent_1 0.5 28 33 0 
Inhabitant agent_1 0.5 28 33 0 
Inhabitant agent_1 0.5 28 33 0 
Inhabitant agent_1 0.5 28 33 0 
Inhabitant agent_1 0.5 28 33 0 
Inhabitant agent_1 0.5 28 33 0 
Inhabitant agent_1 0.5 28 33 0 
Inhabitant agent_1 0.5 28 33 0 
Inhabitant agent_1 0.5 28 33 0 
Inhabitant agent_1 0.5 28 33 0 
Inhabitant agent_1 0.5 28 33 0 
Inhabitant agent_1 0.5 28 33 0 
Inhabitant agent_1 0.5 28 33 0 
Inhabitant agent_1 0.5 28 33 0 
Inhabitant agent_1 0.5 28 33 0 
Inhabitant agent_1 0.5 28 33 0 
Inhabitant agent_1 0.5 28 33 0 
Inhabitant agent_1 0.5 28 33 0 
Inhabitant agent_1 0.5 28 33 0 
Inhabitant agent_1 0.5 28 33 0 
Inhabitant agent_1 0.5 28 33 0 
Inhabitant agent_1 0.5 28 33 0 
Inhabitant agent_1 0.5 28 33 0 
Inhabitant agent_1 0.5 28 33 0 
Inhabitant agent_1 0.5 28 33 0 
Inhabitant agent_1 0.5 28 33 0 
Inhabitant agent_1 0.5 28 33 0 
Inhabitant agent_1 0.5 28 33 0 
Inhabitant agent_1 0.5 28 33 0 
Inhabitant agent_1 0.5 28 33 0 
Inhabitant agent_1 0.5 28 33 0 
Inhabitant agent_1 0.5 28 33 0 
Inhabitant agent_1 0.5 28 33 0 
Inhabitant agent_1 0.5 28 33 0 
Inhabitant agent_1 0.5 28 33 0 
Inhabitant agent_1 0.5 28 33 0 
Inhabitant agent_1 0.5 28 33 0 
Inhabitant agent_1 0.5 28 33 0 
Inhabitant agent_1 0.5 28 33 0 
Inhabitant agent_1 0.5 28 33 0 
Inhabitant agent_1 0.5 28 33 0 
Inhabitant agent_1 0.5 28 33 0 
Inhabitant agent_1 0.5 28 33 0 
Inhabitant agent_1 0.5 28 33 0 
Inhabitant agent_1 0.5 28 33 0 
Inhabitant agent_1 0.5 28 33 0 
Inhabitant agent_1 0.5 28 33 0 
Inhabitant agent_1 0.5 28 33 0 
Inhabitant agent_1 0.5 28 33 0 
Inhabitant agent_1 0.5 28 33 0 
Inhabitant agent_1 0.5 28 33 0 
Inhabitant agent_1 0.5 28 33 0 
Inhabitant agent_1 0.5 28 33 0 
Inhabitant agent_1 0.5 28 33 0 
Inhabitant agent_1 0.5 28 33 0 
Inhabitant agent_1 0.5 28 33 0 
Inhabitant agent_1 0.5 28 33 0 
Inhabitant agent_1 0.5 28 33 0 
Inhabitant agent_1 0.5 28 33 0 
Inhabitant agent_1 0.5 28 33 0 
Inhabitant agent_1 0.5 28 33 0 
Inhabitant agent_1 0.5 28 33 0 
Inhabitant agent_1 0.5 28 33 0 
Inhabitant agent_1 0.5 28 33 0 
Inhabitant agent_1 0.5 28 33 0 
Inhabitant agent_1 0.5 28 33 0 
Inhabitant agent_1 0.5 28 33 0 
Inhabitant agent_1 0.5 28 33 0 
Inhabitant agent_1 0.5 28 33 0 
Inhabitant agent_1 0.5 28 33 0 
Inhabitant agent_1 0.5 28 33 0 
Inhabitant agent_1 0.5 28 33 0 
Inhabitant agent_1 0.5 28 33 0 
Inhabitant agent_1 0.5 28 33 0 
Inhabitant agent_1 0.5 28 33 0 
Inhabitant agent_1 0.5 28 33 0 
Inhabitant agent_1 0.5 28 33 0 
Inhabitant agent_1 0.5 28 33 0 
Inhabitant agent_1 0.5 28 33 0 
Inhabitant agent_1 0.5 28 33 0 
Inhabitant agent_1 0.5 28 33 0 
Inhabitant agent_1 0.5 28 33 0 
Inhabitant agent_1 0.5 28 33 0 
Inhabitant agent_1 0.5 28 33 0 
