Inhabitant,cube,agent_1,28.0, -80.28812, 0.0
1
OK,1,Floor,1,100,100,1,IVE_Artifact,cube,1.0,1.0,1.0,20.0,1.0,0.0,0.0,none,cube,0.0,5.0,1,0,0,1.0,0.0,0.0,1.0,1.0,1.1,15.0,15.0,15.0
Inhabitant,cube,agent_1,28.0, -80.28812, 0.0
Inhabitant,cube,agent_1,28.0, -80.28812, 0.0
Inhabitant,cube,agent_1,28.0, -80.28812, 0.0
Inhabitant,cube,agent_1,28.0, -80.28812, 0.0
Inhabitant,cube,agent_1,28.0, -80.28812, 0.0
Inhabitant,cube,agent_1,28.0, -80.28812, 0.0
Inhabitant,cube,agent_1,28.0, -80.28812, 0.0
Inhabitant,cube,agent_1,28.0, -80.28812, 0.0
Inhabitant,cube,agent_1,28.0, -80.28812, 0.0
Inhabitant,cube,agent_1,28.0, -80.28812, 0.0
Inhabitant,cube,agent_1,28.0, -80.28812, 0.0
Inhabitant,cube,agent_1,28.0, -81.07484, 0.0
Inhabitant,cube,agent_1,28.0, -81.07484, 0.0
Inhabitant,cube,agent_1,28.0, -81.07484, 0.0
Inhabitant,cube,agent_1,28.0, -81.07484, 0.0
Inhabitant,cube,agent_1,28.0, -81.07484, 0.0
Inhabitant,cube,agent_1,28.0, -81.07484, 0.0
Inhabitant,cube,agent_1,28.0, -81.07484, 0.0
Inhabitant,cube,agent_1,28.0, -81.07484, 0.0
Inhabitant,cube,agent_1,28.0, -81.07484, 0.0
Inhabitant,cube,agent_1,28.0, -81.86428, 0.0
Inhabitant,cube,agent_1,28.0, -81.86428, 0.0
Inhabitant,cube,agent_1,28.0, -81.86428, 0.0
Inhabitant,cube,agent_1,28.0, -81.86428, 0.0
Inhabitant,cube,agent_1,28.0, -81.86428, 0.0
Inhabitant,cube,agent_1,28.0, -81.86428, 0.0
Inhabitant,cube,agent_1,28.0, -81.86428, 0.0
Inhabitant,cube,agent_1,28.0, -81.86428, 0.0
Inhabitant,cube,agent_1,28.0, -81.86428, 0.0
Inhabitant,cube,agent_1,28.0, -81.86428, 0.0
Inhabitant,cube,agent_1,28.0, -81.86428, 0.0
Inhabitant,cube,agent_1,28.0, -82.65645, 0.0
Inhabitant,cube,agent_1,28.0, -82.65645, 0.0
Inhabitant,cube,agent_1,28.0, -82.65645, 0.0
Inhabitant,cube,agent_1,28.0, -82.65645, 0.0
Inhabitant,cube,agent_1,28.0, -82.65645, 0.0
Inhabitant,cube,agent_1,28.0, -82.65645, 0.0
Inhabitant,cube,agent_1,28.0, -82.65645, 0.0
Inhabitant,cube,agent_1,28.0, -82.65645, 0.0
Inhabitant,cube,agent_1,28.0, -82.65645, 0.0
Inhabitant,cube,agent_1,28.0, -82.65645, 0.0
Inhabitant,cube,agent_1,28.0, -83.45134, 0.0
Inhabitant,cube,agent_1,28.0, -83.45134, 0.0
Inhabitant,cube,agent_1,28.0, -83.45134, 0.0
Inhabitant,cube,agent_1,28.0, -83.45134, 0.0
Inhabitant,cube,agent_1,28.0, -83.45134, 0.0
Inhabitant,cube,agent_1,28.0, -83.45134, 0.0
Inhabitant,cube,agent_1,28.0, -83.45134, 0.0
Inhabitant,cube,agent_1,28.0, -83.45134, 0.0
Inhabitant,cube,agent_1,28.0, -83.45134, 0.0
Inhabitant,cube,agent_1,28.0, -84.248955, 0.0
Inhabitant,cube,agent_1,28.0, -84.248955, 0.0
Inhabitant,cube,agent_1,28.0, -84.248955, 0.0
Inhabitant,cube,agent_1,28.0, -84.248955, 0.0
Inhabitant,cube,agent_1,28.0, -84.248955, 0.0
Inhabitant,cube,agent_1,28.0, -84.248955, 0.0
Inhabitant,cube,agent_1,28.0, -84.248955, 0.0
Inhabitant,cube,agent_1,28.0, -84.248955, 0.0
Inhabitant,cube,agent_1,28.0, -84.248955, 0.0
Inhabitant,cube,agent_1,28.0, -84.248955, 0.0
Inhabitant,cube,agent_1,28.0, -85.049286, 0.0
Inhabitant,cube,agent_1,28.0, -85.049286, 0.0
Inhabitant,cube,agent_1,28.0, -85.049286, 0.0
Inhabitant,cube,agent_1,28.0, -85.049286, 0.0
Inhabitant,cube,agent_1,28.0, -85.049286, 0.0
Inhabitant,cube,agent_1,28.0, -85.049286, 0.0
Inhabitant,cube,agent_1,28.0, -85.049286, 0.0
Inhabitant,cube,agent_1,28.0, -85.049286, 0.0
Inhabitant,cube,agent_1,28.0, -85.049286, 0.0
Inhabitant,cube,agent_1,28.0, -85.049286, 0.0
Inhabitant,cube,agent_1,28.0, -85.85234, 0.0
Inhabitant,cube,agent_1,28.0, -85.85234, 0.0
Inhabitant,cube,agent_1,28.0, -85.85234, 0.0
Inhabitant,cube,agent_1,28.0, -85.85234, 0.0
Inhabitant,cube,agent_1,28.0, -85.85234, 0.0
Inhabitant,cube,agent_1,28.0, -85.85234, 0.0
Inhabitant,cube,agent_1,28.0, -85.85234, 0.0
Inhabitant,cube,agent_1,28.0, -85.85234, 0.0
Inhabitant,cube,agent_1,28.0, -85.85234, 0.0
Inhabitant,cube,agent_1,28.0, -85.85234, 0.0
Inhabitant,cube,agent_1,28.0, -86.65812, 0.0
Inhabitant,cube,agent_1,28.0, -86.65812, 0.0
Inhabitant,cube,agent_1,28.0, -86.65812, 0.0
Inhabitant,cube,agent_1,28.0, -86.65812, 0.0
Inhabitant,cube,agent_1,28.0, -86.65812, 0.0
Inhabitant,cube,agent_1,28.0, -86.65812, 0.0
Inhabitant,cube,agent_1,28.0, -86.65812, 0.0
Inhabitant,cube,agent_1,28.0, -86.65812, 0.0
Inhabitant,cube,agent_1,28.0, -86.65812, 0.0
Inhabitant,cube,agent_1,28.0, -87.46662, 0.0
Inhabitant,cube,agent_1,28.0, -87.46662, 0.0
Inhabitant,cube,agent_1,28.0, -87.46662, 0.0
Inhabitant,cube,agent_1,28.0, -87.46662, 0.0
Inhabitant,cube,agent_1,28.0, -87.46662, 0.0
Inhabitant,cube,agent_1,28.0, -87.46662, 0.0
Inhabitant,cube,agent_1,28.0, -87.46662, 0.0
Inhabitant,cube,agent_1,28.0, -87.46662, 0.0
Inhabitant,cube,agent_1,28.0, -87.46662, 0.0
Inhabitant,cube,agent_1,28.0, -87.46662, 0.0
Inhabitant,cube,agent_1,28.0, -87.46662, 0.0
Inhabitant,cube,agent_1,28.0, -88.27785, 0.0
Inhabitant,cube,agent_1,28.0, -88.27785, 0.0
Inhabitant,cube,agent_1,28.0, -88.27785, 0.0
Inhabitant,cube,agent_1,28.0, -88.27785, 0.0
Inhabitant,cube,agent_1,28.0, -88.27785, 0.0
Inhabitant,cube,agent_1,28.0, -88.27785, 0.0
Inhabitant,cube,agent_1,28.0, -88.27785, 0.0
Inhabitant,cube,agent_1,28.0, -88.27785, 0.0
Inhabitant,cube,agent_1,28.0, -88.27785, 0.0
Inhabitant,cube,agent_1,28.0, -88.27785, 0.0
Inhabitant,cube,agent_1,28.0, -89.0918, 0.0
Inhabitant,cube,agent_1,28.0, -89.0918, 0.0
Inhabitant,cube,agent_1,28.0, -89.0918, 0.0
Inhabitant,cube,agent_1,28.0, -89.0918, 0.0
Inhabitant,cube,agent_1,28.0, -89.0918, 0.0
Inhabitant,cube,agent_1,28.0, -89.0918, 0.0
Inhabitant,cube,agent_1,28.0, -89.0918, 0.0
Inhabitant,cube,agent_1,28.0, -89.0918, 0.0
Inhabitant,cube,agent_1,28.0, -89.0918, 0.0
Inhabitant,cube,agent_1,28.0, -89.0918, 0.0
Inhabitant,cube,agent_1,28.0, -89.90846, 0.0
Inhabitant,cube,agent_1,28.0, -89.90846, 0.0
Inhabitant,cube,agent_1,28.0, -89.90846, 0.0
Inhabitant,cube,agent_1,28.0, -89.90846, 0.0
Inhabitant,cube,agent_1,28.0, -89.90846, 0.0
Inhabitant,cube,agent_1,28.0, -89.90846, 0.0
Inhabitant,cube,agent_1,28.0, -89.90846, 0.0
Inhabitant,cube,agent_1,28.0, -89.90846, 0.0
Inhabitant,cube,agent_1,28.0, -89.90846, 0.0
Inhabitant,cube,agent_1,28.0, -89.90846, 0.0
Inhabitant,cube,agent_1,28.0, -90.72785, 0.0
Inhabitant,cube,agent_1,28.0, -90.72785, 0.0
Inhabitant,cube,agent_1,28.0, -90.72785, 0.0
Inhabitant,cube,agent_1,28.0, -90.72785, 0.0
Inhabitant,cube,agent_1,28.0, -90.72785, 0.0
Inhabitant,cube,agent_1,28.0, -90.72785, 0.0
Inhabitant,cube,agent_1,28.0, -90.72785, 0.0
Inhabitant,cube,agent_1,28.0, -90.72785, 0.0
Inhabitant,cube,agent_1,28.0, -90.72785, 0.0
Inhabitant,cube,agent_1,28.0, -90.72785, 0.0
Inhabitant,cube,agent_1,28.0, -91.549965, 0.0
Inhabitant,cube,agent_1,28.0, -91.549965, 0.0
Inhabitant,cube,agent_1,28.0, -91.549965, 0.0
Inhabitant,cube,agent_1,28.0, -91.549965, 0.0
Inhabitant,cube,agent_1,28.0, -91.549965, 0.0
Inhabitant,cube,agent_1,28.0, -91.549965, 0.0
Inhabitant,cube,agent_1,28.0, -91.549965, 0.0
Inhabitant,cube,agent_1,28.0, -91.549965, 0.0
Inhabitant,cube,agent_1,28.0, -91.549965, 0.0
Inhabitant,cube,agent_1,28.0, -91.549965, 0.0
Inhabitant,cube,agent_1,28.0, -92.3748, 0.0
Inhabitant,cube,agent_1,28.0, -92.3748, 0.0
Inhabitant,cube,agent_1,28.0, -92.3748, 0.0
Inhabitant,cube,agent_1,28.0, -92.3748, 0.0
Inhabitant,cube,agent_1,28.0, -92.3748, 0.0
Inhabitant,cube,agent_1,28.0, -92.3748, 0.0
Inhabitant,cube,agent_1,28.0, -92.3748, 0.0
Inhabitant,cube,agent_1,28.0, -92.3748, 0.0
Inhabitant,cube,agent_1,28.0, -92.3748, 0.0
Inhabitant,cube,agent_1,28.0, -92.3748, 0.0
Inhabitant,cube,agent_1,28.0, -93.20236, 0.0
Inhabitant,cube,agent_1,28.0, -93.20236, 0.0
Inhabitant,cube,agent_1,28.0, -93.20236, 0.0
Inhabitant,cube,agent_1,28.0, -93.20236, 0.0
Inhabitant,cube,agent_1,28.0, -93.20236, 0.0
Inhabitant,cube,agent_1,28.0, -93.20236, 0.0
Inhabitant,cube,agent_1,28.0, -93.20236, 0.0
Inhabitant,cube,agent_1,28.0, -93.20236, 0.0
Inhabitant,cube,agent_1,28.0, -93.20236, 0.0
Inhabitant,cube,agent_1,28.0, -93.20236, 0.0
Inhabitant,cube,agent_1,28.0, -93.20236, 0.0
Inhabitant,cube,agent_1,28.0, -94.03264, 0.0
Inhabitant,cube,agent_1,28.0, -94.03264, 0.0
Inhabitant,cube,agent_1,28.0, -94.03264, 0.0
Inhabitant,cube,agent_1,28.0, -94.03264, 0.0
Inhabitant,cube,agent_1,28.0, -94.03264, 0.0
Inhabitant,cube,agent_1,28.0, -94.03264, 0.0
Inhabitant,cube,agent_1,28.0, -94.03264, 0.0
Inhabitant,cube,agent_1,28.0, -94.03264, 0.0
Inhabitant,cube,agent_1,28.0, -94.03264, 0.0
Inhabitant,cube,agent_1,28.0, -94.03264, 0.0
Inhabitant,cube,agent_1,28.0, -94.86564, 0.0
Inhabitant,cube,agent_1,28.0, -94.86564, 0.0
Inhabitant,cube,agent_1,28.0, -94.86564, 0.0
Inhabitant,cube,agent_1,28.0, -94.86564, 0.0
Inhabitant,cube,agent_1,28.0, -94.86564, 0.0
Inhabitant,cube,agent_1,28.0, -94.86564, 0.0
Inhabitant,cube,agent_1,28.0, -94.86564, 0.0
Inhabitant,cube,agent_1,28.0, -94.86564, 0.0
Inhabitant,cube,agent_1,28.0, -94.86564, 0.0
Inhabitant,cube,agent_1,28.0, -94.86564, 0.0
Inhabitant,cube,agent_1,28.0, -95.70136, 0.0
Inhabitant,cube,agent_1,28.0, -95.70136, 0.0
Inhabitant,cube,agent_1,28.0, -95.70136, 0.0
Inhabitant,cube,agent_1,28.0, -95.70136, 0.0
Inhabitant,cube,agent_1,28.0, -95.70136, 0.0
Inhabitant,cube,agent_1,28.0, -95.70136, 0.0
Inhabitant,cube,agent_1,28.0, -95.70136, 0.0
Inhabitant,cube,agent_1,28.0, -95.70136, 0.0
Inhabitant,cube,agent_1,28.0, -95.70136, 0.0
Inhabitant,cube,agent_1,28.0, -95.70136, 0.0
Inhabitant,cube,agent_1,28.0, -96.53981, 0.0
Inhabitant,cube,agent_1,28.0, -96.53981, 0.0
Inhabitant,cube,agent_1,28.0, -96.53981, 0.0
Inhabitant,cube,agent_1,28.0, -96.53981, 0.0
Inhabitant,cube,agent_1,28.0, -96.53981, 0.0
Inhabitant,cube,agent_1,28.0, -96.53981, 0.0
Inhabitant,cube,agent_1,28.0, -96.53981, 0.0
Inhabitant,cube,agent_1,28.0, -96.53981, 0.0
Inhabitant,cube,agent_1,28.0, -96.53981, 0.0
Inhabitant,cube,agent_1,28.0, -96.53981, 0.0
Inhabitant,cube,agent_1,28.0, -97.38098, 0.0
Inhabitant,cube,agent_1,28.0, -97.38098, 0.0
Inhabitant,cube,agent_1,28.0, -97.38098, 0.0
Inhabitant,cube,agent_1,28.0, -97.38098, 0.0
Inhabitant,cube,agent_1,28.0, -97.38098, 0.0
Inhabitant,cube,agent_1,28.0, -97.38098, 0.0
Inhabitant,cube,agent_1,28.0, -97.38098, 0.0
Inhabitant,cube,agent_1,28.0, -97.38098, 0.0
Inhabitant,cube,agent_1,28.0, -97.38098, 0.0
Inhabitant,cube,agent_1,28.0, -97.38098, 0.0
Inhabitant,cube,agent_1,28.0, -98.22487, 0.0
Inhabitant,cube,agent_1,28.0, -98.22487, 0.0
Inhabitant,cube,agent_1,28.0, -98.22487, 0.0
Inhabitant,cube,agent_1,28.0, -98.22487, 0.0
Inhabitant,cube,agent_1,28.0, -98.22487, 0.0
Inhabitant,cube,agent_1,28.0, -98.22487, 0.0
Inhabitant,cube,agent_1,28.0, -98.22487, 0.0
Inhabitant,cube,agent_1,28.0, -98.22487, 0.0
Inhabitant,cube,agent_1,28.0, -98.22487, 0.0
Inhabitant,cube,agent_1,28.0, -98.22487, 0.0
Inhabitant,cube,agent_1,28.0, -99.07148, 0.0
Inhabitant,cube,agent_1,28.0, -99.07148, 0.0
Inhabitant,cube,agent_1,28.0, -99.07148, 0.0
Inhabitant,cube,agent_1,28.0, -99.07148, 0.0
Inhabitant,cube,agent_1,28.0, -99.07148, 0.0
Inhabitant,cube,agent_1,28.0, -99.07148, 0.0
Inhabitant,cube,agent_1,28.0, -99.07148, 0.0
Inhabitant,cube,agent_1,28.0, -99.07148, 0.0
Inhabitant,cube,agent_1,28.0, -99.07148, 0.0
Inhabitant,cube,agent_1,28.0, -99.07148, 0.0
Inhabitant,cube,agent_1,28.0, -99.920815, 0.0
Inhabitant,cube,agent_1,28.0, -99.920815, 0.0
Inhabitant,cube,agent_1,28.0, -99.920815, 0.0
Inhabitant,cube,agent_1,28.0, -99.920815, 0.0
Inhabitant,cube,agent_1,28.0, -99.920815, 0.0
Inhabitant,cube,agent_1,28.0, -99.920815, 0.0
Inhabitant,cube,agent_1,28.0, -99.920815, 0.0
Inhabitant,cube,agent_1,28.0, -99.920815, 0.0
Inhabitant,cube,agent_1,28.0, -99.920815, 0.0
Inhabitant,cube,agent_1,28.0, -99.920815, 0.0
Inhabitant,cube,agent_1,28.0, -99.920815, 0.0
Inhabitant,cube,agent_1,28.0, -100.77287, 0.0
Inhabitant,cube,agent_1,28.0, -100.77287, 0.0
Inhabitant,cube,agent_1,28.0, -100.77287, 0.0
Inhabitant,cube,agent_1,28.0, -100.77287, 0.0
Inhabitant,cube,agent_1,28.0, -100.77287, 0.0
Inhabitant,cube,agent_1,28.0, -100.77287, 0.0
Inhabitant,cube,agent_1,28.0, -100.77287, 0.0
Inhabitant,cube,agent_1,28.0, -100.77287, 0.0
Inhabitant,cube,agent_1,28.0, -100.77287, 0.0
Inhabitant,cube,agent_1,28.0, -100.77287, 0.0
Inhabitant,cube,agent_1,28.0, -101.627655, 0.0
Inhabitant,cube,agent_1,28.0, -101.627655, 0.0
Inhabitant,cube,agent_1,28.0, -101.627655, 0.0
Inhabitant,cube,agent_1,28.0, -101.627655, 0.0
Inhabitant,cube,agent_1,28.0, -101.627655, 0.0
Inhabitant,cube,agent_1,28.0, -101.627655, 0.0
Inhabitant,cube,agent_1,28.0, -101.627655, 0.0
Inhabitant,cube,agent_1,28.0, -101.627655, 0.0
Inhabitant,cube,agent_1,28.0, -101.627655, 0.0
Inhabitant,cube,agent_1,28.0, -101.627655, 0.0
Inhabitant,cube,agent_1,28.0, -102.48515, 0.0
Inhabitant,cube,agent_1,28.0, -102.48515, 0.0
Inhabitant,cube,agent_1,28.0, -102.48515, 0.0
Inhabitant,cube,agent_1,28.0, -102.48515, 0.0
Inhabitant,cube,agent_1,28.0, -102.48515, 0.0
Inhabitant,cube,agent_1,28.0, -102.48515, 0.0
Inhabitant,cube,agent_1,28.0, -102.48515, 0.0
Inhabitant,cube,agent_1,28.0, -102.48515, 0.0
Inhabitant,cube,agent_1,28.0, -102.48515, 0.0
Inhabitant,cube,agent_1,28.0, -102.48515, 0.0
Inhabitant,cube,agent_1,28.0, -103.345375, 0.0
Inhabitant,cube,agent_1,28.0, -103.345375, 0.0
Inhabitant,cube,agent_1,28.0, -103.345375, 0.0
Inhabitant,cube,agent_1,28.0, -103.345375, 0.0
Inhabitant,cube,agent_1,28.0, -103.345375, 0.0
Inhabitant,cube,agent_1,28.0, -103.345375, 0.0
Inhabitant,cube,agent_1,28.0, -103.345375, 0.0
Inhabitant,cube,agent_1,28.0, -103.345375, 0.0
Inhabitant,cube,agent_1,28.0, -103.345375, 0.0
Inhabitant,cube,agent_1,28.0, -103.345375, 0.0
Inhabitant,cube,agent_1,28.0, -104.20832, 0.0
Inhabitant,cube,agent_1,28.0, -104.20832, 0.0
Inhabitant,cube,agent_1,28.0, -104.20832, 0.0
Inhabitant,cube,agent_1,28.0, -104.20832, 0.0
Inhabitant,cube,agent_1,28.0, -104.20832, 0.0
Inhabitant,cube,agent_1,28.0, -104.20832, 0.0
Inhabitant,cube,agent_1,28.0, -104.20832, 0.0
Inhabitant,cube,agent_1,28.0, -104.20832, 0.0
Inhabitant,cube,agent_1,28.0, -104.20832, 0.0
Inhabitant,cube,agent_1,28.0, -104.20832, 0.0
Inhabitant,cube,agent_1,28.0, -104.20832, 0.0
Inhabitant,cube,agent_1,28.0, -105.07399, 0.0
Inhabitant,cube,agent_1,28.0, -105.07399, 0.0
Inhabitant,cube,agent_1,28.0, -105.07399, 0.0
Inhabitant,cube,agent_1,28.0, -105.07399, 0.0
Inhabitant,cube,agent_1,28.0, -105.07399, 0.0
Inhabitant,cube,agent_1,28.0, -105.07399, 0.0
Inhabitant,cube,agent_1,28.0, -105.07399, 0.0
Inhabitant,cube,agent_1,28.0, -105.07399, 0.0
Inhabitant,cube,agent_1,28.0, -105.07399, 0.0
Inhabitant,cube,agent_1,28.0, -105.07399, 0.0
Inhabitant,cube,agent_1,28.0, -105.94238, 0.0
Inhabitant,cube,agent_1,28.0, -105.94238, 0.0
Inhabitant,cube,agent_1,28.0, -105.94238, 0.0
Inhabitant,cube,agent_1,28.0, -105.94238, 0.0
Inhabitant,cube,agent_1,28.0, -105.94238, 0.0
Inhabitant,cube,agent_1,28.0, -105.94238, 0.0
Inhabitant,cube,agent_1,28.0, -105.94238, 0.0
Inhabitant,cube,agent_1,28.0, -105.94238, 0.0
Inhabitant,cube,agent_1,28.0, -105.94238, 0.0
Inhabitant,cube,agent_1,28.0, -105.94238, 0.0
Inhabitant,cube,agent_1,28.0, -106.8135, 0.0
Inhabitant,cube,agent_1,28.0, -106.8135, 0.0
Inhabitant,cube,agent_1,28.0, -106.8135, 0.0
Inhabitant,cube,agent_1,28.0, -106.8135, 0.0
Inhabitant,cube,agent_1,28.0, -106.8135, 0.0
Inhabitant,cube,agent_1,28.0, -106.8135, 0.0
Inhabitant,cube,agent_1,28.0, -106.8135, 0.0
Inhabitant,cube,agent_1,28.0, -106.8135, 0.0
Inhabitant,cube,agent_1,28.0, -106.8135, 0.0
Inhabitant,cube,agent_1,28.0, -106.8135, 0.0
Inhabitant,cube,agent_1,28.0, -107.68733, 0.0
Inhabitant,cube,agent_1,28.0, -107.68733, 0.0
Inhabitant,cube,agent_1,28.0, -107.68733, 0.0
Inhabitant,cube,agent_1,28.0, -107.68733, 0.0
Inhabitant,cube,agent_1,28.0, -107.68733, 0.0
Inhabitant,cube,agent_1,28.0, -107.68733, 0.0
Inhabitant,cube,agent_1,28.0, -107.68733, 0.0
Inhabitant,cube,agent_1,28.0, -107.68733, 0.0
Inhabitant,cube,agent_1,28.0, -107.68733, 0.0
Inhabitant,cube,agent_1,28.0, -107.68733, 0.0
Inhabitant,cube,agent_1,28.0, -108.56389, 0.0
Inhabitant,cube,agent_1,28.0, -108.56389, 0.0
Inhabitant,cube,agent_1,28.0, -108.56389, 0.0
Inhabitant,cube,agent_1,28.0, -108.56389, 0.0
Inhabitant,cube,agent_1,28.0, -108.56389, 0.0
Inhabitant,cube,agent_1,28.0, -108.56389, 0.0
Inhabitant,cube,agent_1,28.0, -108.56389, 0.0
Inhabitant,cube,agent_1,28.0, -108.56389, 0.0
Inhabitant,cube,agent_1,28.0, -108.56389, 0.0
Inhabitant,cube,agent_1,28.0, -108.56389, 0.0
Inhabitant,cube,agent_1,28.0, -109.44317, 0.0
Inhabitant,cube,agent_1,28.0, -109.44317, 0.0
Inhabitant,cube,agent_1,28.0, -109.44317, 0.0
Inhabitant,cube,agent_1,28.0, -109.44317, 0.0
Inhabitant,cube,agent_1,28.0, -109.44317, 0.0
Inhabitant,cube,agent_1,28.0, -109.44317, 0.0
Inhabitant,cube,agent_1,28.0, -109.44317, 0.0
Inhabitant,cube,agent_1,28.0, -109.44317, 0.0
Inhabitant,cube,agent_1,28.0, -109.44317, 0.0
Inhabitant,cube,agent_1,28.0, -109.44317, 0.0
Inhabitant,cube,agent_1,28.0, -109.44317, 0.0
Inhabitant,cube,agent_1,28.0, -110.32517, 0.0
Inhabitant,cube,agent_1,28.0, -110.32517, 0.0
Inhabitant,cube,agent_1,28.0, -110.32517, 0.0
Inhabitant,cube,agent_1,28.0, -110.32517, 0.0
Inhabitant,cube,agent_1,28.0, -110.32517, 0.0
Inhabitant,cube,agent_1,28.0, -110.32517, 0.0
Inhabitant,cube,agent_1,28.0, -110.32517, 0.0
Inhabitant,cube,agent_1,28.0, -110.32517, 0.0
Inhabitant,cube,agent_1,28.0, -110.32517, 0.0
Inhabitant,cube,agent_1,28.0, -110.32517, 0.0
Inhabitant,cube,agent_1,28.0, -111.2099, 0.0
Inhabitant,cube,agent_1,28.0, -111.2099, 0.0
Inhabitant,cube,agent_1,28.0, -111.2099, 0.0
Inhabitant,cube,agent_1,28.0, -111.2099, 0.0
Inhabitant,cube,agent_1,28.0, -111.2099, 0.0
Inhabitant,cube,agent_1,28.0, -111.2099, 0.0
Inhabitant,cube,agent_1,28.0, -111.2099, 0.0
Inhabitant,cube,agent_1,28.0, -111.2099, 0.0
Inhabitant,cube,agent_1,28.0, -111.2099, 0.0
Inhabitant,cube,agent_1,28.0, -111.2099, 0.0
Inhabitant,cube,agent_1,28.0, -112.09734, 0.0
Inhabitant,cube,agent_1,28.0, -112.09734, 0.0
Inhabitant,cube,agent_1,28.0, -112.09734, 0.0
Inhabitant,cube,agent_1,28.0, -112.09734, 0.0
Inhabitant,cube,agent_1,28.0, -112.09734, 0.0
Inhabitant,cube,agent_1,28.0, -112.09734, 0.0
Inhabitant,cube,agent_1,28.0, -112.09734, 0.0
Inhabitant,cube,agent_1,28.0, -112.09734, 0.0
Inhabitant,cube,agent_1,28.0, -112.09734, 0.0
Inhabitant,cube,agent_1,28.0, -112.09734, 0.0
Inhabitant,cube,agent_1,28.0, -112.98751, 0.0
Inhabitant,cube,agent_1,28.0, -112.98751, 0.0
Inhabitant,cube,agent_1,28.0, -112.98751, 0.0
Inhabitant,cube,agent_1,28.0, -112.98751, 0.0
Inhabitant,cube,agent_1,28.0, -112.98751, 0.0
Inhabitant,cube,agent_1,28.0, -112.98751, 0.0
Inhabitant,cube,agent_1,28.0, -112.98751, 0.0
Inhabitant,cube,agent_1,28.0, -112.98751, 0.0
Inhabitant,cube,agent_1,28.0, -112.98751, 0.0
Inhabitant,cube,agent_1,28.0, -112.98751, 0.0
Inhabitant,cube,agent_1,28.0, -113.8804, 0.0
Inhabitant,cube,agent_1,28.0, -113.8804, 0.0
Inhabitant,cube,agent_1,28.0, -113.8804, 0.0
Inhabitant,cube,agent_1,28.0, -113.8804, 0.0
Inhabitant,cube,agent_1,28.0, -113.8804, 0.0
Inhabitant,cube,agent_1,28.0, -113.8804, 0.0
Inhabitant,cube,agent_1,28.0, -113.8804, 0.0
Inhabitant,cube,agent_1,28.0, -113.8804, 0.0
Inhabitant,cube,agent_1,28.0, -113.8804, 0.0
Inhabitant,cube,agent_1,28.0, -113.8804, 0.0
Inhabitant,cube,agent_1,28.0, -114.77602, 0.0
Inhabitant,cube,agent_1,28.0, -114.77602, 0.0
Inhabitant,cube,agent_1,28.0, -114.77602, 0.0
Inhabitant,cube,agent_1,28.0, -114.77602, 0.0
Inhabitant,cube,agent_1,28.0, -114.77602, 0.0
Inhabitant,cube,agent_1,28.0, -114.77602, 0.0
Inhabitant,cube,agent_1,28.0, -114.77602, 0.0
Inhabitant,cube,agent_1,28.0, -114.77602, 0.0
Inhabitant,cube,agent_1,28.0, -114.77602, 0.0
Inhabitant,cube,agent_1,28.0, -114.77602, 0.0
Inhabitant,cube,agent_1,28.0, -115.674355, 0.0
Inhabitant,cube,agent_1,28.0, -115.674355, 0.0
Inhabitant,cube,agent_1,28.0, -115.674355, 0.0
Inhabitant,cube,agent_1,28.0, -115.674355, 0.0
Inhabitant,cube,agent_1,28.0, -115.674355, 0.0
Inhabitant,cube,agent_1,28.0, -115.674355, 0.0
Inhabitant,cube,agent_1,28.0, -115.674355, 0.0
Inhabitant,cube,agent_1,28.0, -115.674355, 0.0
Inhabitant,cube,agent_1,28.0, -115.674355, 0.0
Inhabitant,cube,agent_1,28.0, -115.674355, 0.0
Inhabitant,cube,agent_1,28.0, -116.57541, 0.0
Inhabitant,cube,agent_1,28.0, -116.57541, 0.0
Inhabitant,cube,agent_1,28.0, -116.57541, 0.0
Inhabitant,cube,agent_1,28.0, -116.57541, 0.0
Inhabitant,cube,agent_1,28.0, -116.57541, 0.0
Inhabitant,cube,agent_1,28.0, -116.57541, 0.0
Inhabitant,cube,agent_1,28.0, -116.57541, 0.0
Inhabitant,cube,agent_1,28.0, -116.57541, 0.0
Inhabitant,cube,agent_1,28.0, -116.57541, 0.0
Inhabitant,cube,agent_1,28.0, -116.57541, 0.0
Inhabitant,cube,agent_1,28.0, -116.57541, 0.0
Inhabitant,cube,agent_1,28.0, -117.47919, 0.0
Inhabitant,cube,agent_1,28.0, -117.47919, 0.0
Inhabitant,cube,agent_1,28.0, -117.47919, 0.0
Inhabitant,cube,agent_1,28.0, -117.47919, 0.0
Inhabitant,cube,agent_1,28.0, -117.47919, 0.0
Inhabitant,cube,agent_1,28.0, -117.47919, 0.0
Inhabitant,cube,agent_1,28.0, -117.47919, 0.0
Inhabitant,cube,agent_1,28.0, -117.47919, 0.0
Inhabitant,cube,agent_1,28.0, -117.47919, 0.0
Inhabitant,cube,agent_1,28.0, -117.47919, 0.0
Inhabitant,cube,agent_1,28.0, -118.38569, 0.0
Inhabitant,cube,agent_1,28.0, -118.38569, 0.0
Inhabitant,cube,agent_1,28.0, -118.38569, 0.0
Inhabitant,cube,agent_1,28.0, -118.38569, 0.0
Inhabitant,cube,agent_1,28.0, -118.38569, 0.0
Inhabitant,cube,agent_1,28.0, -118.38569, 0.0
Inhabitant,cube,agent_1,28.0, -118.38569, 0.0
Inhabitant,cube,agent_1,28.0, -118.38569, 0.0
Inhabitant,cube,agent_1,28.0, -118.38569, 0.0
Inhabitant,cube,agent_1,28.0, -118.38569, 0.0
Inhabitant,cube,agent_1,28.0, -119.294914, 0.0
Inhabitant,cube,agent_1,28.0, -119.294914, 0.0
Inhabitant,cube,agent_1,28.0, -119.294914, 0.0
Inhabitant,cube,agent_1,28.0, -119.294914, 0.0
Inhabitant,cube,agent_1,28.0, -119.294914, 0.0
Inhabitant,cube,agent_1,28.0, -119.294914, 0.0
Inhabitant,cube,agent_1,28.0, -119.294914, 0.0
Inhabitant,cube,agent_1,28.0, -119.294914, 0.0
Inhabitant,cube,agent_1,28.0, -119.294914, 0.0
Inhabitant,cube,agent_1,28.0, -119.294914, 0.0
Inhabitant,cube,agent_1,28.0, -120.20686, 0.0
Inhabitant,cube,agent_1,28.0, -120.20686, 0.0
Inhabitant,cube,agent_1,28.0, -120.20686, 0.0
Inhabitant,cube,agent_1,28.0, -120.20686, 0.0
Inhabitant,cube,agent_1,28.0, -120.20686, 0.0
Inhabitant,cube,agent_1,28.0, -120.20686, 0.0
Inhabitant,cube,agent_1,28.0, -120.20686, 0.0
Inhabitant,cube,agent_1,28.0, -120.20686, 0.0
Inhabitant,cube,agent_1,28.0, -120.20686, 0.0
Inhabitant,cube,agent_1,28.0, -120.20686, 0.0
Inhabitant,cube,agent_1,28.0, -121.12153, 0.0
Inhabitant,cube,agent_1,28.0, -121.12153, 0.0
Inhabitant,cube,agent_1,28.0, -121.12153, 0.0
Inhabitant,cube,agent_1,28.0, -121.12153, 0.0
Inhabitant,cube,agent_1,28.0, -121.12153, 0.0
Inhabitant,cube,agent_1,28.0, -121.12153, 0.0
Inhabitant,cube,agent_1,28.0, -121.12153, 0.0
Inhabitant,cube,agent_1,28.0, -121.12153, 0.0
Inhabitant,cube,agent_1,28.0, -121.12153, 0.0
Inhabitant,cube,agent_1,28.0, -121.12153, 0.0
Inhabitant,cube,agent_1,28.0, -121.12153, 0.0
Inhabitant,cube,agent_1,28.0, -122.03892, 0.0
Inhabitant,cube,agent_1,28.0, -122.03892, 0.0
Inhabitant,cube,agent_1,28.0, -122.03892, 0.0
Inhabitant,cube,agent_1,28.0, -122.03892, 0.0
Inhabitant,cube,agent_1,28.0, -122.03892, 0.0
Inhabitant,cube,agent_1,28.0, -122.03892, 0.0
Inhabitant,cube,agent_1,28.0, -122.03892, 0.0
Inhabitant,cube,agent_1,28.0, -122.03892, 0.0
Inhabitant,cube,agent_1,28.0, -122.03892, 0.0
Inhabitant,cube,agent_1,28.0, -122.95903, 0.0
Inhabitant,cube,agent_1,28.0, -122.95903, 0.0
Inhabitant,cube,agent_1,28.0, -122.95903, 0.0
Inhabitant,cube,agent_1,28.0, -122.95903, 0.0
Inhabitant,cube,agent_1,28.0, -122.95903, 0.0
Inhabitant,cube,agent_1,28.0, -122.95903, 0.0
Inhabitant,cube,agent_1,28.0, -122.95903, 0.0
Inhabitant,cube,agent_1,28.0, -122.95903, 0.0
Inhabitant,cube,agent_1,28.0, -122.95903, 0.0
Inhabitant,cube,agent_1,28.0, -122.95903, 0.0
Inhabitant,cube,agent_1,28.0, -122.95903, 0.0
Inhabitant,cube,agent_1,28.0, -123.88187, 0.0
Inhabitant,cube,agent_1,28.0, -123.88187, 0.0
Inhabitant,cube,agent_1,28.0, -123.88187, 0.0
Inhabitant,cube,agent_1,28.0, -123.88187, 0.0
Inhabitant,cube,agent_1,28.0, -123.88187, 0.0
Inhabitant,cube,agent_1,28.0, -123.88187, 0.0
Inhabitant,cube,agent_1,28.0, -123.88187, 0.0
Inhabitant,cube,agent_1,28.0, -123.88187, 0.0
Inhabitant,cube,agent_1,28.0, -123.88187, 0.0
Inhabitant,cube,agent_1,28.0, -123.88187, 0.0
Inhabitant,cube,agent_1,28.0, -124.80743, 0.0
Inhabitant,cube,agent_1,28.0, -124.80743, 0.0
Inhabitant,cube,agent_1,28.0, -124.80743, 0.0
Inhabitant,cube,agent_1,28.0, -124.80743, 0.0
Inhabitant,cube,agent_1,28.0, -124.80743, 0.0
Inhabitant,cube,agent_1,28.0, -124.80743, 0.0
Inhabitant,cube,agent_1,28.0, -124.80743, 0.0
Inhabitant,cube,agent_1,28.0, -124.80743, 0.0
Inhabitant,cube,agent_1,28.0, -124.80743, 0.0
Inhabitant,cube,agent_1,28.0, -124.80743, 0.0
Inhabitant,cube,agent_1,28.0, -125.7357, 0.0
Inhabitant,cube,agent_1,28.0, -125.7357, 0.0
Inhabitant,cube,agent_1,28.0, -125.7357, 0.0
Inhabitant,cube,agent_1,28.0, -125.7357, 0.0
Inhabitant,cube,agent_1,28.0, -125.7357, 0.0
Inhabitant,cube,agent_1,28.0, -125.7357, 0.0
Inhabitant,cube,agent_1,28.0, -125.7357, 0.0
Inhabitant,cube,agent_1,28.0, -125.7357, 0.0
Inhabitant,cube,agent_1,28.0, -125.7357, 0.0
Inhabitant,cube,agent_1,28.0, -125.7357, 0.0
Inhabitant,cube,agent_1,28.0, -126.6667, 0.0
Inhabitant,cube,agent_1,28.0, -126.6667, 0.0
Inhabitant,cube,agent_1,28.0, -126.6667, 0.0
Inhabitant,cube,agent_1,28.0, -126.6667, 0.0
Inhabitant,cube,agent_1,28.0, -126.6667, 0.0
Inhabitant,cube,agent_1,28.0, -126.6667, 0.0
Inhabitant,cube,agent_1,28.0, -126.6667, 0.0
Inhabitant,cube,agent_1,28.0, -126.6667, 0.0
Inhabitant,cube,agent_1,28.0, -126.6667, 0.0
Inhabitant,cube,agent_1,28.0, -126.6667, 0.0
Inhabitant,cube,agent_1,28.0, -127.600426, 0.0
Inhabitant,cube,agent_1,28.0, -127.600426, 0.0
Inhabitant,cube,agent_1,28.0, -127.600426, 0.0
Inhabitant,cube,agent_1,28.0, -127.600426, 0.0
Inhabitant,cube,agent_1,28.0, -127.600426, 0.0
Inhabitant,cube,agent_1,28.0, -127.600426, 0.0
Inhabitant,cube,agent_1,28.0, -127.600426, 0.0
Inhabitant,cube,agent_1,28.0, -127.600426, 0.0
Inhabitant,cube,agent_1,28.0, -127.600426, 0.0
Inhabitant,cube,agent_1,28.0, -127.600426, 0.0
Inhabitant,cube,agent_1,28.0, -127.600426, 0.0
Inhabitant,cube,agent_1,28.0, -128.53687, 0.0
Inhabitant,cube,agent_1,28.0, -128.53687, 0.0
Inhabitant,cube,agent_1,28.0, -128.53687, 0.0
Inhabitant,cube,agent_1,28.0, -128.53687, 0.0
Inhabitant,cube,agent_1,28.0, -128.53687, 0.0
Inhabitant,cube,agent_1,28.0, -128.53687, 0.0
Inhabitant,cube,agent_1,28.0, -128.53687, 0.0
Inhabitant,cube,agent_1,28.0, -128.53687, 0.0
Inhabitant,cube,agent_1,28.0, -128.53687, 0.0
Inhabitant,cube,agent_1,28.0, -128.53687, 0.0
Inhabitant,cube,agent_1,28.0, -129.47603, 0.0
Inhabitant,cube,agent_1,28.0, -129.47603, 0.0
Inhabitant,cube,agent_1,28.0, -129.47603, 0.0
Inhabitant,cube,agent_1,28.0, -129.47603, 0.0
Inhabitant,cube,agent_1,28.0, -129.47603, 0.0
Inhabitant,cube,agent_1,28.0, -129.47603, 0.0
Inhabitant,cube,agent_1,28.0, -129.47603, 0.0
Inhabitant,cube,agent_1,28.0, -129.47603, 0.0
Inhabitant,cube,agent_1,28.0, -129.47603, 0.0
Inhabitant,cube,agent_1,28.0, -129.47603, 0.0
Inhabitant,cube,agent_1,28.0, -130.41792, 0.0
Inhabitant,cube,agent_1,28.0, -130.41792, 0.0
Inhabitant,cube,agent_1,28.0, -130.41792, 0.0
Inhabitant,cube,agent_1,28.0, -130.41792, 0.0
Inhabitant,cube,agent_1,28.0, -130.41792, 0.0
Inhabitant,cube,agent_1,28.0, -130.41792, 0.0
Inhabitant,cube,agent_1,28.0, -130.41792, 0.0
Inhabitant,cube,agent_1,28.0, -130.41792, 0.0
Inhabitant,cube,agent_1,28.0, -130.41792, 0.0
Inhabitant,cube,agent_1,28.0, -131.36253, 0.0
Inhabitant,cube,agent_1,28.0, -131.36253, 0.0
Inhabitant,cube,agent_1,28.0, -131.36253, 0.0
Inhabitant,cube,agent_1,28.0, -131.36253, 0.0
Inhabitant,cube,agent_1,28.0, -131.36253, 0.0
Inhabitant,cube,agent_1,28.0, -131.36253, 0.0
Inhabitant,cube,agent_1,28.0, -131.36253, 0.0
Inhabitant,cube,agent_1,28.0, -131.36253, 0.0
Inhabitant,cube,agent_1,28.0, -131.36253, 0.0
Inhabitant,cube,agent_1,28.0, -131.36253, 0.0
Inhabitant,cube,agent_1,28.0, -131.36253, 0.0
Inhabitant,cube,agent_1,28.0, -132.30988, 0.0
Inhabitant,cube,agent_1,28.0, -132.30988, 0.0
Inhabitant,cube,agent_1,28.0, -132.30988, 0.0
Inhabitant,cube,agent_1,28.0, -132.30988, 0.0
Inhabitant,cube,agent_1,28.0, -132.30988, 0.0
Inhabitant,cube,agent_1,28.0, -132.30988, 0.0
Inhabitant,cube,agent_1,28.0, -132.30988, 0.0
Inhabitant,cube,agent_1,28.0, -132.30988, 0.0
Inhabitant,cube,agent_1,28.0, -132.30988, 0.0
Inhabitant,cube,agent_1,28.0, -132.30988, 0.0
Inhabitant,cube,agent_1,28.0, -133.25993, 0.0
Inhabitant,cube,agent_1,28.0, -133.25993, 0.0
Inhabitant,cube,agent_1,28.0, -133.25993, 0.0
Inhabitant,cube,agent_1,28.0, -133.25993, 0.0
Inhabitant,cube,agent_1,28.0, -133.25993, 0.0
Inhabitant,cube,agent_1,28.0, -133.25993, 0.0
Inhabitant,cube,agent_1,28.0, -133.25993, 0.0
Inhabitant,cube,agent_1,28.0, -133.25993, 0.0
Inhabitant,cube,agent_1,28.0, -133.25993, 0.0
Inhabitant,cube,agent_1,28.0, -133.25993, 0.0
Inhabitant,cube,agent_1,28.0, -134.2127, 0.0
Inhabitant,cube,agent_1,28.0, -134.2127, 0.0
Inhabitant,cube,agent_1,28.0, -134.2127, 0.0
Inhabitant,cube,agent_1,28.0, -134.2127, 0.0
Inhabitant,cube,agent_1,28.0, -134.2127, 0.0
Inhabitant,cube,agent_1,28.0, -134.2127, 0.0
Inhabitant,cube,agent_1,28.0, -134.2127, 0.0
Inhabitant,cube,agent_1,28.0, -134.2127, 0.0
Inhabitant,cube,agent_1,28.0, -134.2127, 0.0
Inhabitant,cube,agent_1,28.0, -134.2127, 0.0
Inhabitant,cube,agent_1,28.0, -135.16821, 0.0
Inhabitant,cube,agent_1,28.0, -135.16821, 0.0
Inhabitant,cube,agent_1,28.0, -135.16821, 0.0
Inhabitant,cube,agent_1,28.0, -135.16821, 0.0
Inhabitant,cube,agent_1,28.0, -135.16821, 0.0
Inhabitant,cube,agent_1,28.0, -135.16821, 0.0
Inhabitant,cube,agent_1,28.0, -135.16821, 0.0
Inhabitant,cube,agent_1,28.0, -135.16821, 0.0
Inhabitant,cube,agent_1,28.0, -135.16821, 0.0
Inhabitant,cube,agent_1,28.0, -135.16821, 0.0
Inhabitant,cube,agent_1,28.0, -136.12643, 0.0
Inhabitant,cube,agent_1,28.0, -136.12643, 0.0
Inhabitant,cube,agent_1,28.0, -136.12643, 0.0
Inhabitant,cube,agent_1,28.0, -136.12643, 0.0
Inhabitant,cube,agent_1,28.0, -136.12643, 0.0
Inhabitant,cube,agent_1,28.0, -136.12643, 0.0
Inhabitant,cube,agent_1,28.0, -136.12643, 0.0
Inhabitant,cube,agent_1,28.0, -136.12643, 0.0
Inhabitant,cube,agent_1,28.0, -136.12643, 0.0
Inhabitant,cube,agent_1,28.0, -136.12643, 0.0
Inhabitant,cube,agent_1,28.0, -137.08739, 0.0
Inhabitant,cube,agent_1,28.0, -137.08739, 0.0
Inhabitant,cube,agent_1,28.0, -137.08739, 0.0
Inhabitant,cube,agent_1,28.0, -137.08739, 0.0
Inhabitant,cube,agent_1,28.0, -137.08739, 0.0
Inhabitant,cube,agent_1,28.0, -137.08739, 0.0
Inhabitant,cube,agent_1,28.0, -137.08739, 0.0
Inhabitant,cube,agent_1,28.0, -137.08739, 0.0
Inhabitant,cube,agent_1,28.0, -137.08739, 0.0
Inhabitant,cube,agent_1,28.0, -137.08739, 0.0
Inhabitant,cube,agent_1,28.0, -137.08739, 0.0
Inhabitant,cube,agent_1,28.0, -138.05106, 0.0
Inhabitant,cube,agent_1,28.0, -138.05106, 0.0
Inhabitant,cube,agent_1,28.0, -138.05106, 0.0
Inhabitant,cube,agent_1,28.0, -138.05106, 0.0
Inhabitant,cube,agent_1,28.0, -138.05106, 0.0
Inhabitant,cube,agent_1,28.0, -138.05106, 0.0
Inhabitant,cube,agent_1,28.0, -138.05106, 0.0
Inhabitant,cube,agent_1,28.0, -138.05106, 0.0
Inhabitant,cube,agent_1,28.0, -138.05106, 0.0
Inhabitant,cube,agent_1,28.0, -138.05106, 0.0
Inhabitant,cube,agent_1,28.0, -139.01744, 0.0
Inhabitant,cube,agent_1,28.0, -139.01744, 0.0
Inhabitant,cube,agent_1,28.0, -139.01744, 0.0
Inhabitant,cube,agent_1,28.0, -139.01744, 0.0
Inhabitant,cube,agent_1,28.0, -139.01744, 0.0
Inhabitant,cube,agent_1,28.0, -139.01744, 0.0
Inhabitant,cube,agent_1,28.0, -139.01744, 0.0
Inhabitant,cube,agent_1,28.0, -139.01744, 0.0
Inhabitant,cube,agent_1,28.0, -139.01744, 0.0
Inhabitant,cube,agent_1,28.0, -139.01744, 0.0
Inhabitant,cube,agent_1,28.0, -139.98656, 0.0
Inhabitant,cube,agent_1,28.0, -139.98656, 0.0
Inhabitant,cube,agent_1,28.0, -139.98656, 0.0
Inhabitant,cube,agent_1,28.0, -139.98656, 0.0
Inhabitant,cube,agent_1,28.0, -139.98656, 0.0
Inhabitant,cube,agent_1,28.0, -139.98656, 0.0
Inhabitant,cube,agent_1,28.0, -139.98656, 0.0
Inhabitant,cube,agent_1,28.0, -139.98656, 0.0
Inhabitant,cube,agent_1,28.0, -139.98656, 0.0
Inhabitant,cube,agent_1,28.0, -139.98656, 0.0
Inhabitant,cube,agent_1,28.0, -140.95839, 0.0
Inhabitant,cube,agent_1,28.0, -140.95839, 0.0
Inhabitant,cube,agent_1,28.0, -140.95839, 0.0
Inhabitant,cube,agent_1,28.0, -140.95839, 0.0
Inhabitant,cube,agent_1,28.0, -140.95839, 0.0
Inhabitant,cube,agent_1,28.0, -140.95839, 0.0
