null
2
OK,1,Floor,1,100,100,2,IVE_Artifact,cube,1.0,1.0,1.0,20.0,1.0,0.0,0.0,none,cube,0.0,5.0,1,0,0,1.0,0.0,0.0,1.0,1.0,1.1,15.0,15.0,15.0,IVE_Artifact,sphere,1.0,1.0,1.0,20.0,1.0,0.0,0.0,none,sphere,0.0,5.0,1,0,0,1.0,0.0,0.0,1.0,1.0,1.1,15.0,10.0,5.0
null
null
null
null
null
null
null
null
null
null
null
null
null
null
null
null
null
null
null
null
null
null
null
null
null
null
null
null
null
null
null
null
null
null
null
null
null
null
null
null
null
null
null
null
null
null
null
null
null
null
null
null
null
null
null
null
null
null
null
null
null
null
null
null
null
null
null
null
null
null
null
null
null
null
null
Inhabitant,cube,agent_1,28.0, 32.997276, 0.0
Inhabitant,cube,agent_1,28.0, 32.997276, 0.0
Inhabitant,cube,agent_1,28.0, 32.997276, 0.0
Inhabitant,cube,agent_1,28.0, 32.997276, 0.0
Inhabitant,cube,agent_1,28.0, 32.997276, 0.0
Inhabitant,cube,agent_1,28.0, 32.997276, 0.0
Inhabitant,cube,agent_1,28.0, 32.997276, 0.0
Inhabitant,cube,agent_1,28.0, 32.997276, 0.0
Inhabitant,cube,agent_1,28.0, 32.991833, 0.0
Inhabitant,cube,agent_1,28.0, 32.991833, 0.0
Inhabitant,cube,agent_1,28.0, 32.991833, 0.0
Inhabitant,cube,agent_1,28.0, 32.991833, 0.0
Inhabitant,cube,agent_1,28.0, 32.991833, 0.0
Inhabitant,cube,agent_1,28.0, 32.97278, 0.0
Inhabitant,cube,agent_1,28.0, 32.97278, 0.0
Inhabitant,cube,agent_1,28.0, 32.97278, 0.0
Inhabitant,cube,agent_1,28.0, 32.97278, 0.0
Inhabitant,cube,agent_1,28.0, 32.97278, 0.0
Inhabitant,cube,agent_1,28.0, 32.97278, 0.0
Inhabitant,cube,agent_1,28.0, 32.97278, 0.0
Inhabitant,cube,agent_1,28.0, 32.97278, 0.0
Inhabitant,cube,agent_1,28.0, 32.97278, 0.0
Inhabitant,cube,agent_1,28.0, 32.97278, 0.0
Inhabitant,cube,agent_1,28.0, 32.97278, 0.0
Inhabitant,cube,agent_1,28.0, 32.942833, 0.0
Inhabitant,cube,agent_1,28.0, 32.942833, 0.0
Inhabitant,cube,agent_1,28.0, 32.942833, 0.0
Inhabitant,cube,agent_1,28.0, 32.942833, 0.0
Inhabitant,cube,agent_1,28.0, 32.942833, 0.0
Inhabitant,cube,agent_1,28.0, 32.942833, 0.0
Inhabitant,cube,agent_1,28.0, 32.942833, 0.0
Inhabitant,cube,agent_1,28.0, 32.942833, 0.0
Inhabitant,cube,agent_1,28.0, 32.942833, 0.0
Inhabitant,cube,agent_1,28.0, 32.942833, 0.0
Inhabitant,cube,agent_1,28.0, 32.942833, 0.0
Inhabitant,cube,agent_1,28.0, 32.850277, 0.0
Inhabitant,cube,agent_1,28.0, 32.850277, 0.0
Inhabitant,cube,agent_1,28.0, 32.850277, 0.0
Inhabitant,cube,agent_1,28.0, 32.850277, 0.0
Inhabitant,cube,agent_1,28.0, 32.850277, 0.0
Inhabitant,cube,agent_1,28.0, 32.714165, 0.0
Inhabitant,cube,agent_1,28.0, 32.714165, 0.0
Inhabitant,cube,agent_1,28.0, 32.714165, 0.0
Inhabitant,cube,agent_1,28.0, 32.714165, 0.0
Inhabitant,cube,agent_1,28.0, 32.714165, 0.0
Inhabitant,cube,agent_1,28.0, 32.714165, 0.0
Inhabitant,cube,agent_1,28.0, 32.714165, 0.0
Inhabitant,cube,agent_1,28.0, 32.714165, 0.0
Inhabitant,cube,agent_1,28.0, 32.714165, 0.0
Inhabitant,cube,agent_1,28.0, 32.714165, 0.0
Inhabitant,cube,agent_1,28.0, 32.714165, 0.0
Inhabitant,cube,agent_1,28.0, 32.714165, 0.0
Inhabitant,cube,agent_1,28.0, 32.714165, 0.0
Inhabitant,cube,agent_1,28.0, 32.714165, 0.0
Inhabitant,cube,agent_1,28.0, 32.714165, 0.0
Inhabitant,cube,agent_1,28.0, 32.714165, 0.0
Inhabitant,cube,agent_1,28.0, 32.714165, 0.0
Inhabitant,cube,agent_1,28.0, 32.714165, 0.0
Inhabitant,cube,agent_1,28.0, 32.714165, 0.0
Inhabitant,cube,agent_1,28.0, 32.714165, 0.0
Inhabitant,cube,agent_1,28.0, 32.714165, 0.0
Inhabitant,cube,agent_1,28.0, 32.714165, 0.0
Inhabitant,cube,agent_1,28.0, 32.714165, 0.0
Inhabitant,cube,agent_1,28.0, 32.714165, 0.0
Inhabitant,cube,agent_1,28.0, 32.714165, 0.0
Inhabitant,cube,agent_1,28.0, 32.714165, 0.0
Inhabitant,cube,agent_1,28.0, 32.714165, 0.0
Inhabitant,cube,agent_1,28.0, 32.714165, 0.0
Inhabitant,cube,agent_1,28.0, 32.714165, 0.0
Inhabitant,cube,agent_1,28.0, 32.714165, 0.0
Inhabitant,cube,agent_1,28.0, 32.714165, 0.0
Inhabitant,cube,agent_1,28.0, 32.673332, 0.0
Inhabitant,cube,agent_1,28.0, 32.673332, 0.0
Inhabitant,cube,agent_1,28.0, 32.673332, 0.0
Inhabitant,cube,agent_1,28.0, 32.673332, 0.0
Inhabitant,cube,agent_1,28.0, 32.673332, 0.0
Inhabitant,cube,agent_1,28.0, 32.482777, 0.0
Inhabitant,cube,agent_1,28.0, 32.0445, 0.0
Inhabitant,cube,agent_1,28.0, 32.0445, 0.0
Inhabitant,cube,agent_1,28.0, 32.0445, 0.0
Inhabitant,cube,agent_1,28.0, 32.0445, 0.0
Inhabitant,cube,agent_1,28.0, 32.0445, 0.0
Inhabitant,cube,agent_1,28.0, 32.0445, 0.0
Inhabitant,cube,agent_1,28.0, 32.0445, 0.0
Inhabitant,cube,agent_1,28.0, 31.734165, 0.0
Inhabitant,cube,agent_1,28.0, 31.734165, 0.0
Inhabitant,cube,agent_1,28.0, 31.734165, 0.0
Inhabitant,cube,agent_1,28.0, 31.734165, 0.0
Inhabitant,cube,agent_1,28.0, 31.734165, 0.0
Inhabitant,cube,agent_1,28.0, 31.734165, 0.0
Inhabitant,cube,agent_1,28.0, 31.734165, 0.0
Inhabitant,cube,agent_1,28.0, 31.734165, 0.0
Inhabitant,cube,agent_1,28.0, 31.734165, 0.0
Inhabitant,cube,agent_1,28.0, 31.734165, 0.0
Inhabitant,cube,agent_1,28.0, 31.734165, 0.0
Inhabitant,cube,agent_1,28.0, 31.734165, 0.0
Inhabitant,cube,agent_1,28.0, 31.734165, 0.0
Inhabitant,cube,agent_1,28.0, 31.734165, 0.0
Inhabitant,cube,agent_1,28.0, 31.734165, 0.0
Inhabitant,cube,agent_1,28.0, 31.734165, 0.0
Inhabitant,cube,agent_1,28.0, 31.734165, 0.0
Inhabitant,cube,agent_1,28.0, 31.734165, 0.0
Inhabitant,cube,agent_1,28.0, 31.734165, 0.0
Inhabitant,cube,agent_1,28.0, 31.734165, 0.0
Inhabitant,cube,agent_1,28.0, 31.734165, 0.0
Inhabitant,cube,agent_1,28.0, 31.734165, 0.0
Inhabitant,cube,agent_1,28.0, 31.734165, 0.0
Inhabitant,cube,agent_1,28.0, 31.734165, 0.0
Inhabitant,cube,agent_1,28.0, 31.734165, 0.0
Inhabitant,cube,agent_1,28.0, 31.734165, 0.0
Inhabitant,cube,agent_1,28.0, 31.734165, 0.0
Inhabitant,cube,agent_1,28.0, 31.734165, 0.0
Inhabitant,cube,agent_1,28.0, 31.734165, 0.0
Inhabitant,cube,agent_1,28.0, 31.734165, 0.0
Inhabitant,cube,agent_1,28.0, 31.649776, 0.0
Inhabitant,cube,agent_1,28.0, 31.649776, 0.0
Inhabitant,cube,agent_1,28.0, 31.649776, 0.0
Inhabitant,cube,agent_1,28.0, 31.649776, 0.0
Inhabitant,cube,agent_1,28.0, 31.649776, 0.0
Inhabitant,cube,agent_1,28.0, 31.649776, 0.0
Inhabitant,cube,agent_1,28.0, 31.649776, 0.0
Inhabitant,cube,agent_1,28.0, 31.649776, 0.0
Inhabitant,cube,agent_1,28.0, 31.649776, 0.0
Inhabitant,cube,agent_1,28.0, 31.649776, 0.0
Inhabitant,cube,agent_1,28.0, 31.649776, 0.0
Inhabitant,cube,agent_1,28.0, 31.649776, 0.0
Inhabitant,cube,agent_1,28.0, 31.649776, 0.0
Inhabitant,cube,agent_1,28.0, 31.649776, 0.0
Inhabitant,cube,agent_1,28.0, 31.649776, 0.0
Inhabitant,cube,agent_1,28.0, 31.649776, 0.0
Inhabitant,cube,agent_1,28.0, 31.649776, 0.0
Inhabitant,cube,agent_1,28.0, 31.649776, 0.0
Inhabitant,cube,agent_1,28.0, 31.649776, 0.0
Inhabitant,cube,agent_1,28.0, 31.649776, 0.0
Inhabitant,cube,agent_1,28.0, 31.649776, 0.0
Inhabitant,cube,agent_1,28.0, 31.649776, 0.0
Inhabitant,cube,agent_1,28.0, 31.649776, 0.0
Inhabitant,cube,agent_1,28.0, 31.562666, 0.0
Inhabitant,cube,agent_1,28.0, 31.562666, 0.0
Inhabitant,cube,agent_1,28.0, 31.562666, 0.0
Inhabitant,cube,agent_1,28.0, 31.562666, 0.0
Inhabitant,cube,agent_1,28.0, 31.562666, 0.0
Inhabitant,cube,agent_1,28.0, 31.562666, 0.0
Inhabitant,cube,agent_1,28.0, 31.562666, 0.0
Inhabitant,cube,agent_1,28.0, 31.562666, 0.0
Inhabitant,cube,agent_1,28.0, 31.562666, 0.0
Inhabitant,cube,agent_1,28.0, 31.562666, 0.0
Inhabitant,cube,agent_1,28.0, 31.562666, 0.0
Inhabitant,cube,agent_1,28.0, 31.562666, 0.0
Inhabitant,cube,agent_1,28.0, 31.562666, 0.0
Inhabitant,cube,agent_1,28.0, 31.562666, 0.0
Inhabitant,cube,agent_1,28.0, 31.562666, 0.0
Inhabitant,cube,agent_1,28.0, 31.562666, 0.0
Inhabitant,cube,agent_1,28.0, 31.562666, 0.0
Inhabitant,cube,agent_1,28.0, 31.562666, 0.0
Inhabitant,cube,agent_1,28.0, 31.562666, 0.0
Inhabitant,cube,agent_1,28.0, 30.982832, 0.0
Inhabitant,cube,agent_1,28.0, 30.982832, 0.0
Inhabitant,cube,agent_1,28.0, 30.982832, 0.0
Inhabitant,cube,agent_1,28.0, 30.982832, 0.0
Inhabitant,cube,agent_1,28.0, 30.982832, 0.0
Inhabitant,cube,agent_1,28.0, 28.500164, 0.0
Inhabitant,cube,agent_1,28.0, 28.500164, 0.0
Inhabitant,cube,agent_1,28.0, 28.500164, 0.0
Inhabitant,cube,agent_1,28.0, 27.683498, 0.0
Inhabitant,cube,agent_1,28.0, 27.683498, 0.0
Inhabitant,cube,agent_1,28.0, 27.683498, 0.0
Inhabitant,cube,agent_1,28.0, 27.683498, 0.0
Inhabitant,cube,agent_1,28.0, 27.683498, 0.0
Inhabitant,cube,agent_1,28.0, 27.683498, 0.0
Inhabitant,cube,agent_1,28.0, 27.683498, 0.0
Inhabitant,cube,agent_1,28.0, 27.683498, 0.0
Inhabitant,cube,agent_1,28.0, 27.683498, 0.0
Inhabitant,cube,agent_1,28.0, 27.683498, 0.0
Inhabitant,cube,agent_1,28.0, 27.683498, 0.0
Inhabitant,cube,agent_1,28.0, 27.683498, 0.0
Inhabitant,cube,agent_1,28.0, 27.683498, 0.0
Inhabitant,cube,agent_1,28.0, 27.683498, 0.0
Inhabitant,cube,agent_1,28.0, 27.683498, 0.0
Inhabitant,cube,agent_1,28.0, 27.683498, 0.0
Inhabitant,cube,agent_1,28.0, 27.683498, 0.0
Inhabitant,cube,agent_1,28.0, 27.683498, 0.0
Inhabitant,cube,agent_1,28.0, 27.683498, 0.0
Inhabitant,cube,agent_1,28.0, 27.683498, 0.0
Inhabitant,cube,agent_1,28.0, 27.683498, 0.0
Inhabitant,cube,agent_1,28.0, 27.683498, 0.0
Inhabitant,cube,agent_1,28.0, 27.683498, 0.0
Inhabitant,cube,agent_1,28.0, 27.683498, 0.0
Inhabitant,cube,agent_1,28.0, 27.683498, 0.0
Inhabitant,cube,agent_1,28.0, 27.683498, 0.0
Inhabitant,cube,agent_1,28.0, 27.683498, 0.0
Inhabitant,cube,agent_1,28.0, 27.683498, 0.0
Inhabitant,cube,agent_1,28.0, 27.683498, 0.0
Inhabitant,cube,agent_1,28.0, 27.683498, 0.0
Inhabitant,cube,agent_1,28.0, 27.683498, 0.0
Inhabitant,cube,agent_1,28.0, 27.683498, 0.0
Inhabitant,cube,agent_1,28.0, 27.683498, 0.0
Inhabitant,cube,agent_1,28.0, 27.683498, 0.0
Inhabitant,cube,agent_1,28.0, 27.683498, 0.0
Inhabitant,cube,agent_1,28.0, 27.683498, 0.0
Inhabitant,cube,agent_1,28.0, 27.683498, 0.0
Inhabitant,cube,agent_1,28.0, 27.683498, 0.0
Inhabitant,cube,agent_1,28.0, 27.683498, 0.0
Inhabitant,cube,agent_1,28.0, 27.683498, 0.0
Inhabitant,cube,agent_1,28.0, 27.512, 0.0
Inhabitant,cube,agent_1,28.0, 27.512, 0.0
Inhabitant,cube,agent_1,28.0, 27.512, 0.0
Inhabitant,cube,agent_1,28.0, 27.512, 0.0
Inhabitant,cube,agent_1,28.0, 27.512, 0.0
Inhabitant,cube,agent_1,28.0, 27.512, 0.0
Inhabitant,cube,agent_1,28.0, 27.512, 0.0
Inhabitant,cube,agent_1,28.0, 27.512, 0.0
Inhabitant,cube,agent_1,28.0, 27.512, 0.0
Inhabitant,cube,agent_1,28.0, 27.512, 0.0
Inhabitant,cube,agent_1,28.0, 27.512, 0.0
Inhabitant,cube,agent_1,28.0, 27.512, 0.0
Inhabitant,cube,agent_1,28.0, 27.512, 0.0
Inhabitant,cube,agent_1,28.0, 27.512, 0.0
Inhabitant,cube,agent_1,28.0, 27.512, 0.0
Inhabitant,cube,agent_1,28.0, 27.512, 0.0
Inhabitant,cube,agent_1,28.0, 27.512, 0.0
Inhabitant,cube,agent_1,28.0, 27.512, 0.0
Inhabitant,cube,agent_1,28.0, 27.512, 0.0
Inhabitant,cube,agent_1,28.0, 27.512, 0.0
Inhabitant,cube,agent_1,28.0, 27.512, 0.0
Inhabitant,cube,agent_1,28.0, 27.512, 0.0
Inhabitant,cube,agent_1,28.0, 27.512, 0.0
Inhabitant,cube,agent_1,28.0, 27.512, 0.0
Inhabitant,cube,agent_1,28.0, 27.512, 0.0
Inhabitant,cube,agent_1,28.0, 27.512, 0.0
Inhabitant,cube,agent_1,28.0, 27.512, 0.0
Inhabitant,cube,agent_1,28.0, 27.512, 0.0
Inhabitant,cube,agent_1,28.0, 27.512, 0.0
Inhabitant,cube,agent_1,28.0, 27.512, 0.0
Inhabitant,cube,agent_1,28.0, 27.512, 0.0
Inhabitant,cube,agent_1,28.0, 27.512, 0.0
Inhabitant,cube,agent_1,28.0, 27.512, 0.0
Inhabitant,cube,agent_1,28.0, 27.512, 0.0
Inhabitant,cube,agent_1,28.0, 27.512, 0.0
Inhabitant,cube,agent_1,28.0, 27.512, 0.0
Inhabitant,cube,agent_1,28.0, 27.512, 0.0
Inhabitant,cube,agent_1,28.0, 27.512, 0.0
Inhabitant,cube,agent_1,28.0, 27.512, 0.0
Inhabitant,cube,agent_1,28.0, 27.512, 0.0
Inhabitant,cube,agent_1,28.0, 27.512, 0.0
Inhabitant,cube,agent_1,28.0, 27.512, 0.0
Inhabitant,cube,agent_1,28.0, 27.512, 0.0
Inhabitant,cube,agent_1,28.0, 27.512, 0.0
Inhabitant,cube,agent_1,28.0, 27.512, 0.0
Inhabitant,cube,agent_1,28.0, 27.512, 0.0
Inhabitant,cube,agent_1,28.0, 27.512, 0.0
Inhabitant,cube,agent_1,28.0, 27.512, 0.0
Inhabitant,cube,agent_1,28.0, 27.512, 0.0
Inhabitant,cube,agent_1,28.0, 27.512, 0.0
Inhabitant,cube,agent_1,28.0, 27.512, 0.0
Inhabitant,cube,agent_1,28.0, 27.512, 0.0
Inhabitant,cube,agent_1,28.0, 27.512, 0.0
Inhabitant,cube,agent_1,28.0, 27.512, 0.0
Inhabitant,cube,agent_1,28.0, 27.512, 0.0
Inhabitant,cube,agent_1,28.0, 27.512, 0.0
Inhabitant,cube,agent_1,28.0, 27.512, 0.0
Inhabitant,cube,agent_1,28.0, 27.512, 0.0
Inhabitant,cube,agent_1,28.0, 26.042, 0.0
Inhabitant,cube,agent_1,28.0, 26.042, 0.0
Inhabitant,cube,agent_1,28.0, 26.042, 0.0
Inhabitant,cube,agent_1,28.0, 26.042, 0.0
Inhabitant,cube,agent_1,28.0, 26.042, 0.0
Inhabitant,cube,agent_1,28.0, 26.042, 0.0
Inhabitant,cube,agent_1,28.0, 26.042, 0.0
Inhabitant,cube,agent_1,28.0, 26.042, 0.0
Inhabitant,cube,agent_1,28.0, 26.042, 0.0
Inhabitant,cube,agent_1,28.0, 26.042, 0.0
Inhabitant,cube,agent_1,28.0, 26.042, 0.0
Inhabitant,cube,agent_1,28.0, 26.042, 0.0
Inhabitant,cube,agent_1,28.0, 26.042, 0.0
Inhabitant,cube,agent_1,28.0, 26.042, 0.0
Inhabitant,cube,agent_1,28.0, 26.042, 0.0
Inhabitant,cube,agent_1,28.0, 26.042, 0.0
Inhabitant,cube,agent_1,28.0, 26.042, 0.0
Inhabitant,cube,agent_1,28.0, 26.042, 0.0
Inhabitant,cube,agent_1,28.0, 26.042, 0.0
Inhabitant,cube,agent_1,28.0, 26.042, 0.0
Inhabitant,cube,agent_1,28.0, 26.042, 0.0
Inhabitant,cube,agent_1,28.0, 26.042, 0.0
Inhabitant,cube,agent_1,28.0, 26.042, 0.0
Inhabitant,cube,agent_1,28.0, 26.042, 0.0
Inhabitant,cube,agent_1,28.0, 26.042, 0.0
Inhabitant,cube,agent_1,28.0, 26.042, 0.0
Inhabitant,cube,agent_1,28.0, 26.042, 0.0
Inhabitant,cube,agent_1,28.0, 26.042, 0.0
Inhabitant,cube,agent_1,28.0, 26.042, 0.0
Inhabitant,cube,agent_1,28.0, 26.042, 0.0
Inhabitant,cube,agent_1,28.0, 26.042, 0.0
Inhabitant,cube,agent_1,28.0, 26.042, 0.0
Inhabitant,cube,agent_1,28.0, 26.042, 0.0
Inhabitant,cube,agent_1,28.0, 26.042, 0.0
Inhabitant,cube,agent_1,28.0, 26.042, 0.0
Inhabitant,cube,agent_1,28.0, 26.042, 0.0
Inhabitant,cube,agent_1,28.0, 26.042, 0.0
Inhabitant,cube,agent_1,28.0, 26.042, 0.0
Inhabitant,cube,agent_1,28.0, 26.042, 0.0
Inhabitant,cube,agent_1,28.0, 26.042, 0.0
Inhabitant,cube,agent_1,28.0, 26.042, 0.0
Inhabitant,cube,agent_1,28.0, 25.846, 0.0
Inhabitant,cube,agent_1,28.0, 25.846, 0.0
Inhabitant,cube,agent_1,28.0, 25.846, 0.0
Inhabitant,cube,agent_1,28.0, 25.846, 0.0
Inhabitant,cube,agent_1,28.0, 25.846, 0.0
Inhabitant,cube,agent_1,28.0, 25.647278, 0.0
Inhabitant,cube,agent_1,28.0, 25.647278, 0.0
Inhabitant,cube,agent_1,28.0, 25.647278, 0.0
Inhabitant,cube,agent_1,28.0, 22.097502, 0.0
Inhabitant,cube,agent_1,28.0, 22.097502, 0.0
Inhabitant,cube,agent_1,28.0, 22.097502, 0.0
Inhabitant,cube,agent_1,28.0, 22.097502, 0.0
Inhabitant,cube,agent_1,28.0, 22.097502, 0.0
Inhabitant,cube,agent_1,28.0, 21.852503, 0.0
Inhabitant,cube,agent_1,28.0, 21.852503, 0.0
Inhabitant,cube,agent_1,28.0, 21.852503, 0.0
Inhabitant,cube,agent_1,28.0, 21.852503, 0.0
Inhabitant,cube,agent_1,28.0, 21.852503, 0.0
Inhabitant,cube,agent_1,28.0, 21.852503, 0.0
Inhabitant,cube,agent_1,28.0, 21.852503, 0.0
Inhabitant,cube,agent_1,28.0, 21.852503, 0.0
Inhabitant,cube,agent_1,28.0, 20.845282, 0.0
Inhabitant,cube,agent_1,28.0, 20.845282, 0.0
Inhabitant,cube,agent_1,28.0, 20.845282, 0.0
Inhabitant,cube,agent_1,28.0, 20.845282, 0.0
Inhabitant,cube,agent_1,28.0, 20.845282, 0.0
