# Blender MTL File: 'starship_bar_economy_class-1.1.blend'
# Material Count: 48

newmtl Bottles.Mat
Ns 96.078431
Ka 0.000000 0.000000 0.000000
Kd 1.000000 1.000000 1.000000
Ks 0.000000 0.000000 0.000000
Ni 1.000000
d 0.000000
illum 1
map_Kd bottles.png
map_Ks bottles.png
map_d bottles.png

newmtl Display.Contents.Mat
Ns 96.078431
Ka 0.000000 0.000000 0.000000
Kd 0.000000 0.000000 0.000000
Ks 0.000000 0.000000 0.000000
Ni 1.000000
d 0.250000
illum 1
map_Kd display_contents.jpg
map_Ks display_contents.jpg
map_d display_contents.jpg

newmtl Glass.Beige.Mat
Ns 27.450980
Ka 0.000000 0.000000 0.000000
Kd 0.800000 0.739699 0.752759
Ks 0.750000 0.750000 0.750000
Ni 1.000000
d 0.250000
illum 2
map_Kd metal_brushed_arch.jpg

newmtl Glass.Bluish.Mat
Ns 27.450980
Ka 0.000000 0.000000 0.000000
Kd 0.251784 0.360945 0.800000
Ks 0.672339 0.661041 0.750000
Ni 1.000000
d 0.250000
illum 2
map_Kd metal_brushed_arch.jpg

newmtl Glass.Greenish.Mat
Ns 27.450980
Ka 0.000000 0.000000 0.000000
Kd 0.224766 0.422516 0.216462
Ks 0.617134 0.750000 0.624023
Ni 1.000000
d 0.250000
illum 2
map_Kd metal_brushed_arch.jpg

newmtl Label.Door.Exit.Mat
Ns 17.647059
Ka 0.000000 0.000000 0.000000
Kd 0.640000 0.640000 0.640000
Ks 0.500000 0.500000 0.500000
Ni 1.000000
d 1.000000
illum 2
map_Kd label_door_exit.png

newmtl Label.Emendolya.Mat
Ns 96.078431
Ka 0.000000 0.000000 0.000000
Kd 0.800000 0.714347 0.626501
Ks 0.500000 0.500000 0.500000
Ni 1.000000
d 0.000000
illum 2
map_Kd emendolya_label.png
map_Ks emendolya_label.png
map_d emendolya_label.png

newmtl Label.Kechkova_Craft.Mat
Ns 96.078431
Ka 0.000000 0.000000 0.000000
Kd 0.000000 0.000000 0.000000
Ks 0.500000 0.500000 0.500000
Ni 1.000000
d 0.000000
illum 2
map_Kd kechekova_craft_label.png
map_Ks kechekova_craft_label.png
map_d kechekova_craft_label.png

newmtl Label.Stoly_Vodka.Mat
Ns 96.078431
Ka 0.000000 0.000000 0.000000
Kd 0.796854 0.783679 0.800000
Ks 0.500000 0.500000 0.500000
Ni 1.000000
d 0.000000
illum 2
map_Kd stoly_vodka.png
map_Ks stoly_vodka.png
map_d stoly_vodka.png

newmtl Label.Trepezium_Premium.Mat
Ns 96.078431
Ka 0.000000 0.000000 0.000000
Kd 0.063200 0.276000 0.800000
Ks 0.500000 0.500000 0.500000
Ni 1.000000
d 0.000000
illum 2
map_Kd tripezian_premium_label.png
map_Ks tripezian_premium_label.png
map_d tripezian_premium_label.png

newmtl Lighted_Panel.Flourescent.Green.Bright.Mat
Ns 96.078431
Ka 0.000000 0.000000 0.000000
Kd 0.660065 0.763065 1.000000
Ks 0.000000 0.000000 0.000000
Ni 1.000000
d 1.000000
illum 1
map_Kd lighted_panel_flourescent_green.jpg

newmtl Lighted_Panel.Flourescent.Green.Mid.Mat
Ns 96.078431
Ka 0.000000 0.000000 0.000000
Kd 0.660065 0.763065 1.000000
Ks 0.000000 0.000000 0.000000
Ni 1.000000
d 1.000000
illum 1
map_Kd lighted_panel_flourescent_green.jpg

newmtl Lighted_Panel.Flourescent.Purple.Mat
Ns 96.078431
Ka 0.000000 0.000000 0.000000
Kd 0.660065 0.763065 1.000000
Ks 0.000000 0.000000 0.000000
Ni 1.000000
d 1.000000
illum 1
map_Kd lighted_panel_flourescent_purple.jpg

newmtl Liquid.Emendolya.Mat
Ns 17.647059
Ka 0.000000 0.000000 0.000000
Kd 0.314002 0.077789 0.055737
Ks 0.500000 0.268943 0.228314
Ni 1.000000
d 0.300000
illum 2

newmtl Liquid.Stoly_Vodka.Mat
Ns 17.647059
Ka 0.000000 0.000000 0.000000
Kd 0.233006 0.225341 0.226785
Ks 0.497215 0.475433 0.500000
Ni 1.000000
d 0.300000
illum 2
map_Kd stoly_vodka.png

newmtl Liquid.Stoly_Vodka.Mat_NONE
Ns 17.647059
Ka 0.000000 0.000000 0.000000
Kd 0.233006 0.225341 0.226785
Ks 0.497215 0.475433 0.500000
Ni 1.000000
d 0.300000
illum 2

newmtl Liquid.Tripezian_Premium.Mat
Ns 17.647059
Ka 0.000000 0.000000 0.000000
Kd 0.148367 0.081338 0.233006
Ks 0.332164 0.370308 0.500000
Ni 1.000000
d 0.300000
illum 2

newmtl Metal.Brushed.Arch.Mat
Ns 17.647059
Ka 0.000000 0.000000 0.000000
Kd 0.640000 0.640000 0.640000
Ks 0.750000 0.750000 0.750000
Ni 1.000000
d 1.000000
illum 2
map_Kd metal_brushed_arch.jpg

newmtl Metal.Brushed.Arch.Mat_NONE
Ns 17.647059
Ka 0.000000 0.000000 0.000000
Kd 0.640000 0.640000 0.640000
Ks 0.750000 0.750000 0.750000
Ni 1.000000
d 1.000000
illum 2
map_Kd metal_brushed_arch.jpg

newmtl Metal.Brushed.Arch.Mat_metal_scratched_random.jpg
Ns 17.647059
Ka 0.000000 0.000000 0.000000
Kd 0.640000 0.640000 0.640000
Ks 0.750000 0.750000 0.750000
Ni 1.000000
d 1.000000
illum 2
map_Kd metal_scratched_random.jpg

newmtl Metal.Chemical_Discolored.Mat
Ns 17.647059
Ka 0.000000 0.000000 0.000000
Kd 0.640000 0.640000 0.640000
Ks 0.250000 0.250000 0.250000
Ni 1.000000
d 1.000000
illum 2
map_Kd metal_chemical_discolored.jpg

newmtl Metal.Chemical_Discolored.Mat_metal_brushed_arch.jpg
Ns 17.647059
Ka 0.000000 0.000000 0.000000
Kd 0.640000 0.640000 0.640000
Ks 0.250000 0.250000 0.250000
Ni 1.000000
d 1.000000
illum 2
map_Kd metal_brushed_arch.jpg

newmtl Metal.Chrome.Mat
Ns 17.647059
Ka 0.000000 0.000000 0.000000
Kd 1.000000 1.000000 1.000000
Ks 0.800000 0.800000 0.800000
Ni 1.000000
d 1.000000
illum 2
map_Kd metal_scratched_random.jpg

newmtl Metal.Chrome.Mat_NONE
Ns 17.647059
Ka 0.000000 0.000000 0.000000
Kd 1.000000 1.000000 1.000000
Ks 0.800000 0.800000 0.800000
Ni 1.000000
d 1.000000
illum 2
map_Kd metal_scratched_random.jpg

newmtl Metal.Chrome.Mat_metal_brushed_arch.jpg
Ns 17.647059
Ka 0.000000 0.000000 0.000000
Kd 1.000000 1.000000 1.000000
Ks 0.800000 0.800000 0.800000
Ni 1.000000
d 1.000000
illum 2
map_Kd metal_brushed_arch.jpg

newmtl Metal.Counter_Top.Mat
Ns 17.647059
Ka 0.000000 0.000000 0.000000
Kd 0.800000 0.800000 0.800000
Ks 0.800000 0.800000 0.800000
Ni 1.000000
d 1.000000
illum 2
map_Kd metal_brushed_arch.jpg

newmtl Metal.Counter_Top.Mat_metal_chemical_discolored.jpg
Ns 17.647059
Ka 0.000000 0.000000 0.000000
Kd 0.800000 0.800000 0.800000
Ks 0.800000 0.800000 0.800000
Ni 1.000000
d 1.000000
illum 2
map_Kd metal_chemical_discolored.jpg

newmtl Metal.Counter_Top.Mat_metal_counter_top.jpg
Ns 17.647059
Ka 0.000000 0.000000 0.000000
Kd 0.800000 0.800000 0.800000
Ks 0.800000 0.800000 0.800000
Ni 1.000000
d 1.000000
illum 2
map_Kd metal_counter_top.jpg

newmtl Metal.Counter_Top.Mat_metal_scratched_random.jpg
Ns 17.647059
Ka 0.000000 0.000000 0.000000
Kd 0.800000 0.800000 0.800000
Ks 0.800000 0.800000 0.800000
Ni 1.000000
d 1.000000
illum 2
map_Kd metal_scratched_random.jpg

newmtl Metal.Cracked.Patchy.Mat
Ns 7.843137
Ka 0.000000 0.000000 0.000000
Kd 0.640000 0.640000 0.640000
Ks 0.500000 0.500000 0.500000
Ni 1.000000
d 1.000000
illum 2
map_Kd metal_cracked_patchy.jpg

newmtl Metal.Cracked.Patchy.Mat_NONE
Ns 7.843137
Ka 0.000000 0.000000 0.000000
Kd 0.640000 0.640000 0.640000
Ks 0.500000 0.500000 0.500000
Ni 1.000000
d 1.000000
illum 2
map_Kd metal_cracked_patchy.jpg

newmtl Metal.Cracked.Patchy.Mat_metal_scratched_random.jpg
Ns 7.843137
Ka 0.000000 0.000000 0.000000
Kd 0.640000 0.640000 0.640000
Ks 0.500000 0.500000 0.500000
Ni 1.000000
d 1.000000
illum 2
map_Kd metal_scratched_random.jpg

newmtl Metal.Dark.Course.Mat
Ns 17.647059
Ka 0.000000 0.000000 0.000000
Kd 0.280000 0.280000 0.280000
Ks 0.500000 0.500000 0.500000
Ni 1.000000
d 1.000000
illum 2
map_Kd metal_dark_course.jpg

newmtl Metal.Floor.Tractioned.Mat
Ns 7.843137
Ka 0.000000 0.000000 0.000000
Kd 0.640000 0.640000 0.640000
Ks 0.250000 0.250000 0.250000
Ni 1.000000
d 1.000000
illum 2
map_Kd metal_floor_tractioned.jpg

newmtl Metal.Floor.Ventted.Rectangular.Mat
Ns 37.254902
Ka 0.000000 0.000000 0.000000
Kd 0.400000 0.400000 0.400000
Ks 0.100000 0.100000 0.100000
Ni 1.000000
d 1.000000
illum 2
map_Kd metal_floor_rectangular_vented.jpg

newmtl Metal.Gold.Mat
Ns 17.647059
Ka 0.000000 0.000000 0.000000
Kd 0.559994 0.472352 0.310449
Ks 0.800000 0.773418 0.752297
Ni 1.000000
d 1.000000
illum 2
map_Kd metal_dark_course.jpg

newmtl Metal.Panels.Blue.Mat
Ns 17.647059
Ka 0.000000 0.000000 0.000000
Kd 0.640000 0.640000 0.640000
Ks 0.750000 0.750000 0.750000
Ni 1.000000
d 1.000000
illum 2
map_Kd metal.panels.blue.jpg

newmtl Metal.Rusty.Weathered.Gradient.Mat
Ns 37.254902
Ka 0.000000 0.000000 0.000000
Kd 0.640000 0.640000 0.640000
Ks 0.500000 0.500000 0.500000
Ni 1.000000
d 1.000000
illum 2
map_Kd metal_rusty_weathered_gradient.jpg

newmtl Metal.Rusty.Weathered.Gradient.Mat_NONE
Ns 37.254902
Ka 0.000000 0.000000 0.000000
Kd 0.640000 0.640000 0.640000
Ks 0.500000 0.500000 0.500000
Ni 1.000000
d 1.000000
illum 2
map_Kd metal_rusty_weathered_gradient.jpg

newmtl Metal.Scratched.Random.Mat
Ns 17.647059
Ka 0.000000 0.000000 0.000000
Kd 0.640000 0.640000 0.640000
Ks 0.500000 0.500000 0.500000
Ni 1.000000
d 1.000000
illum 2
map_Kd metal_scratched_random.jpg

newmtl Metal.Scratched.Random.Mat_NONE
Ns 17.647059
Ka 0.000000 0.000000 0.000000
Kd 0.640000 0.640000 0.640000
Ks 0.500000 0.500000 0.500000
Ni 1.000000
d 1.000000
illum 2
map_Kd metal_scratched_random.jpg

newmtl Metal.Scratched.Random.Mat_lighted_panel_flourescent_green.jpg
Ns 17.647059
Ka 0.000000 0.000000 0.000000
Kd 0.640000 0.640000 0.640000
Ks 0.500000 0.500000 0.500000
Ni 1.000000
d 1.000000
illum 2
map_Kd lighted_panel_flourescent_green.jpg

newmtl Metal.Scratched.Random.Mat_metal_cracked_patchy.jpg
Ns 17.647059
Ka 0.000000 0.000000 0.000000
Kd 0.640000 0.640000 0.640000
Ks 0.500000 0.500000 0.500000
Ni 1.000000
d 1.000000
illum 2
map_Kd metal_cracked_patchy.jpg

newmtl Metal.Spotted.Bumps.Mat
Ns 27.450980
Ka 0.000000 0.000000 0.000000
Kd 0.640000 0.640000 0.640000
Ks 0.497000 0.497000 0.497000
Ni 1.000000
d 1.000000
illum 2
map_Kd metal_spotted_bumps.jpg

newmtl Metal.Spotted.Bumps.Mat_NONE
Ns 27.450980
Ka 0.000000 0.000000 0.000000
Kd 0.640000 0.640000 0.640000
Ks 0.497000 0.497000 0.497000
Ni 1.000000
d 1.000000
illum 2
map_Kd metal_spotted_bumps.jpg

newmtl PVC.Beige.Mat
Ns 96.078431
Ka 0.000000 0.000000 0.000000
Kd 0.672007 0.559735 0.443042
Ks 0.250000 0.250000 0.250000
Ni 1.000000
d 1.000000
illum 2

newmtl Plastic.Red.Translucent.Mat
Ns 96.078431
Ka 0.000000 0.000000 0.000000
Kd 0.800000 0.337150 0.391502
Ks 0.500000 0.439997 0.476252
Ni 1.000000
d 0.500000
illum 2

newmtl Wood.Cork.Mat
Ns 96.078431
Ka 0.000000 0.000000 0.000000
Kd 0.800000 0.682757 0.502587
Ks 0.250000 0.243402 0.239243
Ni 1.000000
d 0.250000
illum 2
